Division,WeightClassKg,Place,Name,Team,BodyweightKg,Best3SquatKg,Best3BenchKg,Best3DeadliftKg,TotalKg,Equipment,Event,Sex
Boys,51.71,1,Jake Robertson,Clifton,49.62,124.74,77.11,102.06,303.91,Single-ply,SBD,M
Boys,51.71,2,Jorge Pedroza,Little River Academy,49.99,106.59,68.04,127.01,301.64,Single-ply,SBD,M
Boys,51.71,3,Travis Lacina,Crawford,51.53,108.86,56.7,124.74,290.3,Single-ply,SBD,M
Boys,51.71,4,Tyler Heath,Riesel,48.35,90.72,43.09,83.91,217.72,Single-ply,SBD,M
Boys,51.71,5,Justin Klaus,West,47.63,74.84,38.56,88.45,201.85,Single-ply,SBD,M
Boys,51.71,6,Sean Murphy,Bosqueville,50.44,68.04,,92.99,161.03,Single-ply,SD,M
Boys,51.71,7,Isaac Villafano,McGregor,34.84,24.95,24.95,15.88,65.77,Single-ply,SBD,M
Boys,55.79,1,Colton Russell,Bosqueville,54.88,158.76,77.11,154.22,390.09,Single-ply,SBD,M
Boys,55.79,2,Colby Esparza,Little River Academy,55.07,120.2,70.31,142.88,333.39,Single-ply,SBD,M
Boys,55.79,3,Mike Deak,Waco La Vega,54.79,122.47,56.7,145.15,324.32,Single-ply,SBD,M
Boys,55.79,4,Tanner Blackwell,Gatesville,55.52,124.74,70.31,129.27,324.32,Single-ply,SBD,M
Boys,55.79,5,Jesus Benitez,McGregor,55.16,102.06,65.77,104.33,272.16,Single-ply,SBD,M
Boys,55.79,6,Josh Price,Moody,55.61,92.99,52.16,92.99,238.14,Single-ply,SBD,M
Boys,55.79,7,Cannon Tate,Riesel,53.98,56.7,34.02,77.11,167.83,Single-ply,SBD,M
Boys,59.87,1,Josh McCraw,Gatesville,57.97,195.04,99.79,181.44,476.27,Single-ply,SBD,M
Boys,67.13,2,Luis Juarez,Bosqueville,59.96,158.76,88.45,161.03,408.23,Single-ply,SBD,M
Boys,59.87,3,Keith Langford,Riesel,59.87,113.4,61.23,136.08,310.71,Single-ply,SBD,M
Boys,59.87,4,Cj Doan,Bosqueville,58.6,97.52,74.84,108.86,281.23,Single-ply,SBD,M
Boys,59.87,5,Seth Waters,Gatesville,56.61,106.59,52.16,104.33,263.08,Single-ply,SBD,M
Boys,67.13,6,Charles Anz,Clifton,60.06,90.72,43.09,120.2,254.01,Single-ply,SBD,M
Boys,59.87,7,Jaime Rodriguez,Waco La Vega,59.78,102.06,77.11,,179.17,Single-ply,SB,M
Boys,74.84,1,Jong Hoon Lim,Gatesville,67.31,181.44,113.4,204.12,498.95,Single-ply,SBD,M
Boys,67.13,2,Zac Beyer,Bosqueville,66.32,174.63,106.59,183.7,464.93,Single-ply,SBD,M
Boys,67.13,3,Chase McGhee,Gatesville,66.04,176.9,111.13,158.76,446.79,Single-ply,SBD,M
Boys,67.13,4,Jordan Wright,Meridian,64.68,179.17,81.65,181.44,442.25,Single-ply,SBD,M
Boys,67.13,5,Alex Kyner,Thrall,66.5,154.22,108.86,158.76,421.84,Single-ply,SBD,M
Boys,67.13,6,Jesse Berry,Crawford,60.96,154.22,92.99,145.15,392.36,Single-ply,SBD,M
Boys,67.13,7,Justus Czajkoski,China Spring,67.13,142.88,90.72,156.49,390.09,Single-ply,SBD,M
Boys,67.13,8,Brice Williams,Little River Academy,64.23,145.15,70.31,151.95,367.41,Single-ply,SBD,M
Boys,67.13,9,Zach Smith,Little River Academy,64.95,122.47,90.72,151.95,365.14,Single-ply,SBD,M
Boys,67.13,10,Gabe Cobos,Riesel,66.04,113.4,77.11,167.83,358.34,Single-ply,SBD,M
Boys,67.13,11,Billy Manolakis,West,62.14,124.74,92.99,131.54,349.27,Single-ply,SBD,M
Boys,67.13,12,Ty Mooney,McGregor,66.77,147.42,65.77,136.08,349.27,Single-ply,SBD,M
Boys,67.13,13,Seth Varga,West,63.23,122.47,83.91,136.08,342.46,Single-ply,SBD,M
Boys,67.13,14,Zach Rankin,West,63.68,120.2,83.91,136.08,340.19,Single-ply,SBD,M
Boys,67.13,15,Jacob Raborn,China Spring,63.96,122.47,65.77,138.35,326.59,Single-ply,SBD,M
Boys,67.13,16,Justin Mondrik,Little River Academy,62.96,122.47,74.84,127.01,324.32,Single-ply,SBD,M
Boys,67.13,17,Blake Gebhourdt,Meridian,63.41,108.86,68.04,136.08,312.98,Single-ply,SBD,M
Boys,67.13,18,Dakota Hollingsworth,Moody,65.95,111.13,65.77,136.08,312.98,Single-ply,SBD,M
Boys,67.13,19,Lucas Ramsey,Meridian,62.51,115.67,68.04,124.74,308.44,Single-ply,SBD,M
Boys,67.13,20,Chase Randolph,Little River Academy,66.77,115.67,63.5,115.67,294.84,Single-ply,SBD,M
Boys,67.13,21,Hunter Barben,Riesel,63.96,108.86,56.7,124.74,290.3,Single-ply,SBD,M
Boys,67.13,22,Lane Love,Moody,65.14,97.52,65.77,120.2,283.5,Single-ply,SBD,M
Boys,67.13,23,Kory Kyei,McGregor,66.68,90.72,77.11,113.4,281.23,Single-ply,SBD,M
Boys,67.13,24,Justin Farmer,Moody,61.23,117.93,,140.61,258.55,Single-ply,SD,M
Boys,67.13,25,Jacob Smith,Meridian,64.32,102.06,,136.08,238.14,Single-ply,SD,M
Boys,74.84,26,Ryan Hedges,Bosqueville,67.22,83.91,56.7,97.52,238.14,Single-ply,SBD,M
Boys,74.84,1,Travis Cooke,China Spring,70.4,201.85,136.08,192.78,530.7,Single-ply,SBD,M
Boys,74.84,2,Layne Crosthwaite,Clifton,71.49,183.7,102.06,181.44,467.2,Single-ply,SBD,M
Boys,74.84,3,Josh Scherer,Little River Academy,74.03,172.37,97.52,181.44,451.32,Single-ply,SBD,M
Boys,74.84,4,Jesse Edwards,Thrall,74.48,165.56,102.06,179.17,446.79,Single-ply,SBD,M
Boys,82.1,5,Chase Mondrik,Little River Academy,75.02,154.22,106.59,181.44,442.25,Single-ply,SBD,M
Boys,74.84,6,Dakotta Thomas,Clifton,67.95,158.76,88.45,183.7,430.91,Single-ply,SBD,M
Boys,74.84,7,Brett Boles,McGregor,70.13,147.42,99.79,170.1,417.3,Single-ply,SBD,M
Boys,74.84,8,Brandon Even,Moody,68.67,147.42,92.99,158.76,399.16,Single-ply,SBD,M
Boys,74.84,9,Ramiro Fraire,West,71.21,149.69,95.25,154.22,399.16,Single-ply,SBD,M
Boys,74.84,10,Devone Adkinson,China Spring,70.03,115.67,95.25,176.9,387.82,Single-ply,SBD,M
Boys,74.84,11,Garrett Salas,McGregor,70.13,136.08,90.72,158.76,385.55,Single-ply,SBD,M
Boys,74.84,12,Jonah Burkett,Crawford,68.31,127.01,92.99,145.15,365.14,Single-ply,SBD,M
Boys,74.84,13,Ryan Baty,Riesel,74.48,102.06,68.04,117.93,288.03,Single-ply,SBD,M
Boys,74.84,14,Skylar Payne,McGregor,68.04,79.38,65.77,113.4,258.55,Single-ply,SBD,M
Boys,74.84,15,Frank Butler,Bosqueville,70.94,97.52,,111.13,208.65,Single-ply,SD,M
Boys,82.1,1,Jeremy Seay,Meridian,80.65,181.44,136.08,192.78,510.29,Single-ply,SBD,M
Boys,82.1,2,Deston Bardin,Crawford,78.47,188.24,83.91,158.76,430.91,Single-ply,SBD,M
Boys,82.1,3,Dylan Connell,China Spring,78.47,136.08,97.52,174.63,408.23,Single-ply,SBD,M
Boys,82.1,4,Isaiah Gordea,Clifton,81.37,147.42,102.06,158.76,408.23,Single-ply,SBD,M
Boys,82.1,5,Manny Garcia,Waco La Vega,75.3,149.69,97.52,147.42,394.63,Single-ply,SBD,M
Boys,82.1,6,Cody Hubbard,Moody,79.2,102.06,52.16,102.06,256.28,Single-ply,SBD,M
Boys,89.81,1,Brody Jones,Crawford,88.09,226.8,140.61,204.12,571.53,Single-ply,SBD,M
Boys,89.81,2,Gerald Horne II,Waco La Vega,86.82,199.58,136.08,199.58,535.24,Single-ply,SBD,M
Boys,89.81,3,Chris Olsen,Crawford,84.37,190.51,124.74,199.58,514.83,Single-ply,SBD,M
Boys,89.81,4,Dustin McLearen,Gatesville,86.73,181.44,122.47,195.04,498.95,Single-ply,SBD,M
Boys,89.81,5,Logan Thomas,China Spring,85.64,167.83,127.01,185.97,480.81,Single-ply,SBD,M
Boys,89.81,6,Rashaad Millen,China Spring,84.91,158.76,117.93,181.44,458.13,Single-ply,SBD,M
Boys,89.81,7,Zak Maktsching,Thrall,84.37,165.56,124.74,165.56,455.86,Single-ply,SBD,M
Boys,89.81,8,Tucker Moon,Little River Academy,83.6,163.29,102.06,181.44,446.79,Single-ply,SBD,M
Boys,89.81,9,Preston Parsons,Moody,89.54,170.1,111.13,165.56,446.79,Single-ply,SBD,M
Boys,89.81,10,Chad Crawford,Meridian,85.37,142.88,102.06,181.44,426.38,Single-ply,SBD,M
Boys,89.81,11,Justin Stantz,Thrall,84.55,151.95,106.59,165.56,424.11,Single-ply,SBD,M
Boys,89.81,12,Derek Breazeale,Little River Academy,85.28,161.03,106.59,151.95,419.57,Single-ply,SBD,M
Boys,89.81,13,Jason Schmidt,Clifton,85.82,133.81,81.65,158.76,374.21,Single-ply,SBD,M
Boys,89.81,14,Richard Mills,Riesel,89.54,147.42,83.91,142.88,374.21,Single-ply,SBD,M
Boys,89.81,15,Undra Smith,West,89.54,124.74,95.25,149.69,369.68,Single-ply,SBD,M
Boys,89.81,16,Patrick Horen,McGregor,84.1,124.74,90.72,136.08,351.53,Single-ply,SBD,M
Boys,89.81,17,Izaac Leal,Thrall,82.74,113.4,102.06,133.81,349.27,Single-ply,SBD,M
Boys,89.81,18,Bret Mathis,Bosqueville,84.19,90.72,70.31,158.76,319.78,Single-ply,SBD,M
Boys,89.81,19,William Robert,Riesel,89.45,115.67,70.31,124.74,310.71,Single-ply,SBD,M
Boys,89.81,20,Canon Paulson,Meridian,84.55,102.06,70.31,120.2,292.57,Single-ply,SBD,M
Boys,99.79,1,Shaq Walker,Waco La Vega,97.79,226.8,102.06,240.4,569.26,Single-ply,SBD,M
Boys,109.77,2,Guadalupe Munoz,Waco La Vega,99.88,219.99,124.74,183.7,528.44,Single-ply,SBD,M
Boys,99.79,3,John Almanza,Bosqueville,93.62,199.58,113.4,181.44,494.42,Single-ply,SBD,M
Boys,99.79,4,Collin McMillan,Little River Academy,96.71,163.29,106.59,208.65,478.54,Single-ply,SBD,M
Boys,99.79,5,Justin Rhyme,Gatesville,99.34,163.29,127.01,172.37,462.66,Single-ply,SBD,M
Boys,99.79,6,Dalton Synan,China Spring,97.84,167.83,122.47,170.1,460.4,Single-ply,SBD,M
Boys,99.79,7,Anthony Manolakis,West,99.52,174.63,108.86,172.37,455.86,Single-ply,SBD,M
Boys,99.79,8,Vinny Tovar,Waco La Vega,96.8,165.56,111.13,133.81,410.5,Single-ply,SBD,M
Boys,99.79,9,Tanner Nors,West,95.35,145.15,92.99,149.69,387.82,Single-ply,SBD,M
Boys,99.79,10,Jacob Kevil,Crawford,91.9,127.01,97.52,156.49,381.02,Single-ply,SBD,M
Boys,99.79,11,Jason Harris,West,99.34,142.88,77.11,138.35,358.34,Single-ply,SBD,M
Boys,99.79,12,Drew Zucharias,McGregor,97.79,122.47,61.23,113.4,297.1,Single-ply,SBD,M
Boys,99.79,13,Dylan Morgan,Riesel,94.89,83.91,54.43,113.4,251.74,Single-ply,SBD,M
Boys,109.77,1,D'Andra Minnitt,Waco La Vega,103.06,219.99,136.08,222.26,578.33,Single-ply,SBD,M
Boys,109.77,2,Riley Hubert,McGregor,102.42,226.8,122.47,217.72,566.99,Single-ply,SBD,M
Boys,109.77,3,Kevin Abercrombie,Little River Academy,104.05,226.8,124.74,215.46,566.99,Single-ply,SBD,M
Boys,109.77,4,Josh Carroll,Waco La Vega,103.06,204.12,124.74,226.8,555.65,Single-ply,SBD,M
Boys,124.74,5,Peter Wimberly,China Spring,109.95,210.92,133.81,192.78,537.51,Single-ply,SBD,M
Boys,109.77,6,Cyle Hickey,Crawford,107.41,197.31,117.93,213.19,528.44,Single-ply,SBD,M
Boys,109.77,7,Zak Hudspeth,Gatesville,109.41,163.29,108.86,154.22,426.38,Single-ply,SBD,M
Boys,109.77,8,Blake Kasparian,Crawford,105.41,170.1,97.52,154.22,421.84,Single-ply,SBD,M
Boys,109.77,9,Colby Gollke,Crawford,106.78,147.42,88.45,158.76,394.63,Single-ply,SBD,M
Boys,109.77,10,Tate Alanbar,China Spring,100.79,147.42,90.72,154.22,392.36,Single-ply,SBD,M
Boys,109.77,11,Logan Willenborg,West,109.13,120.2,90.72,145.15,356.07,Single-ply,SBD,M
Boys,124.74,1,Brian Pullen,China Spring,123.2,244.94,156.49,226.8,628.23,Single-ply,SBD,M
Boys,124.74,2,Trent Andrews,Bosqueville,124.28,226.8,120.2,251.74,598.74,Single-ply,SBD,M
Boys,124.74,3,Colton Ridley,Gatesville,118.3,238.14,149.69,208.65,596.47,Single-ply,SBD,M
Boys,124.74,4,Dewight Holder,Waco La Vega,118.39,226.8,133.81,217.72,578.33,Single-ply,SBD,M
Boys,124.74,5,Garrett Evans,Clifton,115.3,183.7,138.35,204.12,526.17,Single-ply,SBD,M
Boys,124.74+,1,Brian Cain,Thrall,143.15,272.16,158.76,215.46,646.37,Single-ply,SBD,M
Boys,124.74+,2,Marcelo Ramirez,Waco La Vega,137.26,226.8,120.2,226.8,573.79,Single-ply,SBD,M
Boys,124.74+,3,Grayson Eaton,Little River Academy,151.5,188.24,131.54,183.7,503.49,Single-ply,SBD,M
Boys,124.74+,4,Jordan Allen,Clifton,130.63,163.29,97.52,136.08,396.89,Single-ply,SBD,M
