Place,Name,Sex,Event,Division,WeightClassKg,Equipment,BirthYear,State,BodyweightKg,Squat1Kg,Squat2Kg,Squat3Kg,Best3SquatKg,Bench1Kg,Bench2Kg,Bench3Kg,Best3BenchKg,Deadlift1Kg,Deadlift2Kg,Deadlift3Kg,Best3DeadliftKg,TotalKg
1,Jordan Princenthal,M,B,MR-M,83,Raw,1974,FL,81.20,,,,,160,170,-172.5,170.0,,,,,170
2,Augie Matteo,M,B,MR-M,83,Raw,1962,NJ,82.70,,,,,135,142.5,-145,142.5,,,,,142.5
1,Jordan Princenthal,M,B,MR-O,83,Raw,1974,FL,81.20,,,,,160,170,-172.5,170.0,,,,,170
2,Augie Matteo,M,B,MR-O,83,Raw,1962,NJ,82.70,,,,,135,142.5,-145,142.5,,,,,142.5
1,Jennifer Tamayo,F,SBD,FR-Jr,52,Raw,1994,NJ,51.20,102.5,110,-115,110.0,62.5,-67.5,67.5,67.5,117.5,127.5,-132.5,127.5,305
1,Kathy Lin,F,SBD,FR-Jr,57,Raw,1995,NY,56.10,92.5,105,110,110.0,55,60,62.5,62.5,120,135,-142.5,135.0,307.5
DQ,Gabriella Guadagno,F,SBD,FR-Jr,57,Raw,1995,NY,56.50,-105,-105,-105,,40,45,47.5,47.5,100,107.5,115,115.0,
1,Abigail Weinick,F,SBD,FR-Jr,63,Raw,1998,NJ,62.50,97.5,102.5,-107.5,102.5,-65,65,67.5,67.5,117.5,125,130,130.0,300
1,Bonnie Caldwell,F,SBD,FR-Jr,72,Raw,1998,NJ,64.50,95,100,-105,100.0,60,62.5,67.5,67.5,112.5,115,120,120.0,287.5
2,Juliet Fanik,F,SBD,FR-Jr,72,Raw,1997,NJ,69.80,85,90,95,95.0,-55,55,-62.5,55.0,110,115,122.5,122.5,272.5
1,Maia Bar Am,F,SBD,FR-M,57,Raw,1977,MD,56.40,60,65,67.5,67.5,47.5,50,52.5,52.5,97.5,100,102.5,102.5,222.5
1,Nicole Sandomenico,F,SBD,FR-M,63,Raw,1975,NJ,60.60,95,105,-110,105.0,55,-60,,55.0,137.5,147.5,155,155.0,315
2,Melissa Schulte,F,SBD,FR-M,63,Raw,1976,NJ,62.70,112.5,-117.5,-120,112.5,-62.5,62.5,-65,62.5,132.5,-142.5,-142.5,132.5,307.5
1,Regina Tracy,F,SBD,FR-M,84,Raw,1966,PA,77.70,80,87.5,102.5,102.5,40,42.5,47.5,47.5,110,115,120,120.0,270
2,Christina Sanclimenti,F,SBD,FR-M,84,Raw,1976,NJ,83.90,75,80,85,85.0,67.5,-72.5,-72.5,67.5,107.5,112.5,117.5,117.5,270
1,Natasha Mack,F,SBD,FR-M,84+,Raw,1977,NJ,116.60,-110,117.5,125,125.0,47.5,52.5,55,55.0,102.5,125,137.5,137.5,317.5
1,Jennifer Tamayo,F,SBD,FR-O,52,Raw,1994,NJ,51.20,102.5,110,-115,110.0,62.5,-67.5,67.5,67.5,117.5,127.5,-132.5,127.5,305
1,Kathy Lin,F,SBD,FR-O,57,Raw,1995,NY,56.10,92.5,105,110,110.0,55,60,62.5,62.5,120,135,-142.5,135.0,307.5
2,Nicole Ortiz,F,SBD,FR-O,57,Raw,1993,NJ,56.60,85,-90,90,90.0,52.5,-55,-55,52.5,105,112.5,117.5,117.5,260
3,Maia Bar Am,F,SBD,FR-O,57,Raw,1977,MD,56.40,60,65,67.5,67.5,47.5,50,52.5,52.5,97.5,100,102.5,102.5,222.5
DQ,Gabriella Guadagno,F,SBD,FR-O,57,Raw,1995,NY,56.50,-105,-105,-105,,40,45,47.5,47.5,100,107.5,115,115.0,
1,Nicole Sandomenico,F,SBD,FR-O,63,Raw,1975,NJ,60.60,95,105,-110,105.0,55,-60,,55.0,137.5,147.5,155,155.0,315
2,Melissa Schulte,F,SBD,FR-O,63,Raw,1976,NJ,62.70,112.5,-117.5,-120,112.5,-62.5,62.5,-65,62.5,132.5,-142.5,-142.5,132.5,307.5
3,Allison Terranova,F,SBD,FR-O,63,Raw,1984,NY,60.10,-95,100,105,105.0,52.5,57.5,-60,57.5,120,130,137.5,137.5,300
4,Abigail Weinick,F,SBD,FR-O,63,Raw,1998,NJ,62.50,97.5,102.5,-107.5,102.5,-65,65,67.5,67.5,117.5,125,130,130.0,300
1,Tisha Payne,F,SBD,FR-O,72,Raw,1983,NJ,67.80,152.5,-160,-160,152.5,70,75,-77.5,75.0,165,-180,-180,165.0,392.5
2,Vanessa Hecker,F,SBD,FR-O,72,Raw,1992,NY,67.50,110,117.5,122.5,122.5,55,60,62.5,62.5,135,142.5,147.5,147.5,332.5
3,Bonnie Caldwell,F,SBD,FR-O,72,Raw,1998,NJ,64.50,95,100,-105,100.0,60,62.5,67.5,67.5,112.5,115,120,120.0,287.5
4,Juliet Fanik,F,SBD,FR-O,72,Raw,1997,NJ,69.80,85,90,95,95.0,-55,55,-62.5,55.0,110,115,122.5,122.5,272.5
5,Hannah Coleman,F,SBD,FR-O,72,Raw,1999,NJ,63.90,70,72.5,75,75.0,-55,55,-60,55.0,110,112.5,115,115.0,245
1,Pamela Jarufe,F,SBD,FR-O,84,Raw,1989,NY,76.20,107.5,112.5,122.5,122.5,50,55,-60,55.0,125,132.5,142.5,142.5,320
2,Regina Tracy,F,SBD,FR-O,84,Raw,1966,PA,77.70,80,87.5,102.5,102.5,40,42.5,47.5,47.5,110,115,120,120.0,270
3,Christina Sanclimenti,F,SBD,FR-O,84,Raw,1976,NJ,83.90,75,80,85,85.0,67.5,-72.5,-72.5,67.5,107.5,112.5,117.5,117.5,270
1,Natasha Mack,F,SBD,FR-O,84+,Raw,1977,NJ,116.60,-110,117.5,125,125.0,47.5,52.5,55,55.0,102.5,125,137.5,137.5,317.5
2,Samantha White,F,SBD,FR-O,84+,Raw,1993,NJ,93.10,115,-122.5,-125,115.0,57.5,-60,-60,57.5,125,132.5,-137.5,132.5,305
1,Hannah Coleman,F,SBD,FR-T,72,Raw,1999,NJ,63.90,70,72.5,75,75.0,-55,55,-60,55.0,110,112.5,115,115.0,245
1,Daniel Braun,M,SBD,MR-G,93,Raw,1982,NJ,88.20,190,200,207.5,207.5,125,130,-135,130.0,217.5,227.5,235,235.0,572.5
1,Shaheed Bryant,M,SBD,MR-Jr,59,Raw,1997,NJ,56.70,-140,-140,142.5,142.5,122.5,132.5,-135,132.5,175,190,-200,190.0,465
1,Norman Cruz,M,SBD,MR-Jr,74,Raw,1995,NJ,73.80,182.5,-192.5,-200,182.5,115,120,-125,120.0,-237.5,237.5,252.5,252.5,555
1,Delbert Moran,M,SBD,MR-Jr,83,Raw,1997,NY,82.50,-200,210,-217.5,210.0,152.5,160,-167.5,160.0,240,250,265,265.0,635
2,Matt Smykowski,M,SBD,MR-Jr,83,Raw,1997,NJ,79.90,135,-147.5,147.5,147.5,92.5,102.5,107.5,107.5,182.5,192.5,200,200.0,455
1,Kevin Chu,M,SBD,MR-Jr,105,Raw,1998,NY,104.40,195,202.5,210,210.0,-117.5,117.5,,117.5,-265,280,-290,280.0,607.5
2,Herbert Godfrey,M,SBD,MR-Jr,105,Raw,1995,NJ,96.70,185,195,-205,195.0,125,130,137.5,137.5,200,215,227.5,227.5,560
3,John Tabor,M,SBD,MR-Jr,105,Raw,1997,NJ,96.60,160,172.5,190,190.0,112.5,117.5,125,125.0,190,205,215,215.0,530
1,Eric Verbel,M,SBD,MR-M,66,Raw,1965,NJ,64.90,-125,-125,127.5,127.5,77.5,-82.5,82.5,82.5,152.5,160,170,170.0,380
1,Ken Shulman,M,SBD,MR-M,93,Raw,1954,NJ,90.10,97.5,102.5,-107.5,102.5,95,-100,100,100.0,100,-102.5,,100.0,302.5
1,Jason Liberatore,M,SBD,MR-M,105,Raw,1977,NJ,93.60,215,225,237.5,237.5,140,142.5,152.5,152.5,240,257.5,270,270.0,660
2,Jeff Sperber,M,SBD,MR-M,105,Raw,1960,NJ,102.90,182.5,-192.5,195,195.0,125,137.5,-142.5,137.5,215,232.5,242.5,242.5,575
3,Steven Nicoloso,M,SBD,MR-M,105,Raw,1966,NJ,100.20,157.5,162.5,-167.5,162.5,-102.5,102.5,-105,102.5,160,170,-175,170.0,435
1,Robert Moore,M,SBD,MR-M,120+,Raw,1960,NJ,125.40,165,-172.5,-172.5,165.0,127.5,130,-132.5,130.0,175,-182.5,-182.5,175.0,470
1,Shaheed Bryant,M,SBD,MR-O,59,Raw,1997,NJ,56.70,-140,-140,142.5,142.5,122.5,132.5,-135,132.5,175,190,-200,190.0,465
1,Eric Verbel,M,SBD,MR-O,66,Raw,1965,NJ,64.90,-125,-125,127.5,127.5,77.5,-82.5,82.5,82.5,152.5,160,170,170.0,380
1,Norman Cruz,M,SBD,MR-O,74,Raw,1995,NJ,73.80,182.5,-192.5,-200,182.5,115,120,-125,120.0,-237.5,237.5,252.5,252.5,555
2,Paul Flores,M,SBD,MR-O,74,Raw,1993,NJ,74.00,165,175,185,185.0,107.5,-115,-115,107.5,205,212.5,220,220.0,512.5
3,Justin Lo,M,SBD,MR-O,74,Raw,2001,NJ,70.80,115,122.5,132.5,132.5,92.5,100,102.5,102.5,160,170,182.5,182.5,417.5
4,Dawood Kardooni,M,SBD,MR-O,74,Raw,1990,NJ,69.80,-112.5,115,120,120.0,77.5,82.5,-92.5,82.5,167.5,182.5,185,185.0,387.5
1,Delbert Moran,M,SBD,MR-O,83,Raw,1997,NY,82.50,-200,210,-217.5,210.0,152.5,160,-167.5,160.0,240,250,265,265.0,635
2,Lawrence Jackson,M,SBD,MR-O,83,Raw,1985,NJ,81.40,182.5,190,-195,190.0,-142.5,152.5,160,160.0,200,210,222.5,222.5,572.5
3,Aidan Din,M,SBD,MR-O,83,Raw,1992,NJ,81.10,175,185,-190,185.0,102.5,107.5,-110,107.5,210,217.5,225,225.0,517.5
4,Waki Iwayama,M,SBD,MR-O,83,Raw,1982,NY,81.40,170,180,185,185.0,100,105,110,110.0,-210,210,220,220.0,515
5,Maxwell Bidic,M,SBD,MR-O,83,Raw,2001,NJ,79.60,145,157.5,-172.5,157.5,102.5,115,125,125.0,182.5,202.5,-222.5,202.5,485
6,Matt Smykowski,M,SBD,MR-O,83,Raw,1997,NJ,79.90,135,-147.5,147.5,147.5,92.5,102.5,107.5,107.5,182.5,192.5,200,200.0,455
7,Stanley Ngai,M,SBD,MR-O,83,Raw,1990,NJ,82.10,145,152.5,157.5,157.5,85,90,-97.5,90.0,175,185,-192.5,185.0,432.5
8,Prasanna Swaminathan,M,SBD,MR-O,83,Raw,1989,NY,81.50,122.5,132.5,137.5,137.5,72.5,77.5,80,80.0,135,145,152.5,152.5,370
1,Anthony Parrella,M,SBD,MR-O,93,Raw,1983,NY,91.10,240,252.5,265,265.0,157.5,167.5,170,170.0,277.5,297.5,305,305.0,740
2,Paxton Noble,M,SBD,MR-O,93,Raw,1998,NY,92.00,-217.5,-227.5,232.5,232.5,135,142.5,145,145.0,277.5,-295,302.5,302.5,680
3,Brian Mo,M,SBD,MR-O,93,Raw,1993,NJ,92.60,222.5,232.5,-235,232.5,160,167.5,-170,167.5,250,-260,-260,250.0,650
4,Steve Petonak,M,SBD,MR-O,93,Raw,1993,NJ,92.90,202.5,210,215,215.0,120,125,127.5,127.5,-225,225,237.5,237.5,580
5,Ken Shulman,M,SBD,MR-O,93,Raw,1954,NJ,90.10,97.5,102.5,-107.5,102.5,95,-100,100,100.0,100,-102.5,,100.0,302.5
DQ,John Barrera,M,SBD,MR-O,93,Raw,1982,NJ,91.30,-182.5,-182.5,-182.5,,137.5,147.5,152.5,152.5,187.5,202.5,-212.5,202.5,
1,Jason Liberatore,M,SBD,MR-O,105,Raw,1977,NJ,93.60,215,225,237.5,237.5,140,142.5,152.5,152.5,240,257.5,270,270.0,660
2,Kevin Chu,M,SBD,MR-O,105,Raw,1998,NY,104.40,195,202.5,210,210.0,-117.5,117.5,,117.5,-265,280,-290,280.0,607.5
3,William Aja,M,SBD,MR-O,105,Raw,1990,PA,101.40,172.5,185,192.5,192.5,140,152.5,160,160.0,215,230,242.5,242.5,595
4,Jeff Sperber,M,SBD,MR-O,105,Raw,1960,NJ,102.90,182.5,-192.5,195,195.0,125,137.5,-142.5,137.5,215,232.5,242.5,242.5,575
5,Phillip Risemas,M,SBD,MR-O,105,Raw,1990,DE,96.10,185,202.5,212.5,212.5,135,147.5,-157.5,147.5,185,210,-230,210.0,570
6,Herbert Godfrey,M,SBD,MR-O,105,Raw,1995,NJ,96.70,185,195,-205,195.0,125,130,137.5,137.5,200,215,227.5,227.5,560
7,John Tabor,M,SBD,MR-O,105,Raw,1997,NJ,96.60,160,172.5,190,190.0,112.5,117.5,125,125.0,190,205,215,215.0,530
8,Steven Nicoloso,M,SBD,MR-O,105,Raw,1966,NJ,100.20,157.5,162.5,-167.5,162.5,-102.5,102.5,-105,102.5,160,170,-175,170.0,435
DQ,Tom Shadood,M,SBD,MR-O,105,Raw,1983,NJ,104.80,197.5,212.5,-220,212.5,-132.5,-132.5,-132.5,,,,,,
1,Nicholas Kowalczyk,M,SBD,MR-O,120,Raw,1990,PA,115.40,235,247.5,-265,247.5,185,-192.5,-192.5,185.0,247.5,-272.5,-290,247.5,680
2,Salim Mehio,M,SBD,MR-O,120,Raw,1991,NJ,108.90,85,95,-100,95.0,57.5,62.5,70,70.0,157.5,170,-185,170.0,335
1,Dwayne Wint,M,SBD,MR-O,120+,Raw,1981,NJ,136.80,242.5,260,275,275.0,192.5,205,210,210.0,255,275,292.5,292.5,777.5
2,Robert Moore,M,SBD,MR-O,120+,Raw,1960,NJ,125.40,165,-172.5,-172.5,165.0,127.5,130,-132.5,130.0,175,-182.5,-182.5,175.0,470
1,Justin Lo,M,SBD,MR-T,74,Raw,2001,NJ,70.80,115,122.5,132.5,132.5,92.5,100,102.5,102.5,160,170,182.5,182.5,417.5
1,Maxwell Bidic,M,SBD,MR-T,83,Raw,2001,NJ,79.60,145,157.5,-172.5,157.5,102.5,115,125,125.0,182.5,202.5,-222.5,202.5,485
1,Paxton Noble,M,SBD,MR-T,93,Raw,1998,NY,92.00,-217.5,-227.5,232.5,232.5,135,142.5,145,145.0,277.5,-295,302.5,302.5,680
1,Lesley Loeb,F,BD,FR-M,72,Raw,1960,NJ,70.40,,,,,62.5,-67.5,-67.5,62.5,115,122.5,-127.5,122.5,185
1,Shara Kaplan,F,BD,FR-O,63,Raw,1979,NJ,61.90,,,,,45,50,-55,50.0,102.5,110,115,115.0,165
1,Lesley Loeb,F,BD,FR-O,72,Raw,1960,NJ,70.40,,,,,62.5,-67.5,-67.5,62.5,115,122.5,-127.5,122.5,185
1,Sam Arnedt,M,BD,MR-Jr,105,Raw,1995,NJ,102.00,,,,,127.5,132.5,-137.5,132.5,260,272.5,290,290.0,422.5
1,Padrick Beggs,M,BD,MR-O,74,Raw,1999,NJ,74.00,,,,,105,110,120,120.0,-215,215,-217.5,215.0,335
1,Sam Arnedt,M,BD,MR-O,105,Raw,1995,NJ,102.00,,,,,127.5,132.5,-137.5,132.5,260,272.5,290,290.0,422.5
1,Padrick Beggs,M,BD,MR-T,74,Raw,1999,NJ,74.00,,,,,105,110,120,120.0,-215,215,-217.5,215.0,335
