Division,WeightClassKg,Place,Name,Team,BodyweightKg,Best3SquatKg,Best3BenchKg,Best3DeadliftKg,TotalKg,Equipment,Event,Sex
Boys,55.79,1,Jesus Rios,Palacios,51.89,161.03,111.13,210.92,483.08,Single-ply,SBD,M
Boys,51.71,2,Randy Soliz,Hebbronville,51.26,176.9,97.52,199.58,474,Single-ply,SBD,M
Boys,55.79,3,Cade Flebbe,Warren,51.8,154.22,90.72,181.44,426.38,Single-ply,SBD,M
Boys,51.71,4,Johney Phelps,Palestine Westwood,51.26,167.83,90.72,158.76,417.3,Single-ply,SBD,M
Boys,51.71,5,Uriel Rodriguez,Crawford,49.67,158.76,86.18,167.83,412.77,Single-ply,SBD,M
Boys,51.71,6,Echo Jones,Strawn,50.44,149.69,74.84,185.97,410.5,Single-ply,SBD,M
Boys,51.71,7,Antonio Ponce,Glen Rose,51.26,149.69,74.84,174.63,399.16,Single-ply,SBD,M
Boys,51.71,8,Viator Gomez,Mertzon Irion County,50.71,149.69,79.38,140.61,369.68,Single-ply,SBD,M
Boys,51.71,9,Talon Romero,Amarillo Highland Park,50.89,136.08,81.65,151.95,369.68,Single-ply,SBD,M
Boys,51.71,10,Jesse Peacock,Diana New Diana,49.53,127.01,72.57,147.42,347,Single-ply,SBD,M
Boys,51.71,11,Kyle Bailey,Karnes City,51.71,136.08,72.57,138.35,347,Single-ply,SBD,M
Boys,51.71,DQ,Jason Nguyen,Oakridge School,50.26,,,,,Single-ply,SBD,M
Boys,51.71,NS,Mario Giron,Pilot Point,,,,,,Single-ply,SBD,M
Boys,55.79,1,Cody Villa,Crawford,55.7,167.83,108.86,217.72,494.42,Single-ply,SBD,M
Boys,55.79,2,Jorge Saldana,Natalia,55.16,181.44,106.59,185.97,474,Single-ply,SBD,M
Boys,55.79,3,Richard Saenz,Hebbronville,54.52,185.97,92.99,170.1,449.06,Single-ply,SBD,M
Boys,55.79,4,Aaron Johnson,Jefferson,54.43,163.29,90.72,176.9,430.91,Single-ply,SBD,M
Boys,55.79,5,Brandon Teague,Altair Rice,54.7,172.37,86.18,172.37,430.91,Single-ply,SBD,M
Boys,55.79,6,Triston Davis,Sundown,54.7,172.37,88.45,165.56,426.38,Single-ply,SBD,M
Boys,55.79,7,Tyler Le,Palacios,55.34,149.69,83.91,183.7,417.3,Single-ply,SBD,M
Boys,55.79,8,Jordan Whiteside,Peaster,55.43,147.42,102.06,158.76,408.23,Single-ply,SBD,M
Boys,55.79,9,Cody Halcom,Glen Rose,55.52,147.42,72.57,167.83,387.82,Single-ply,SBD,M
Boys,55.79,10,Louis Gonzales,Wichita Falls City View,55.43,145.15,74.84,151.95,371.95,Single-ply,SBD,M
Boys,59.87,DQ,Colten Smith,Kountze,56.02,140.61,88.45,,,Single-ply,SBD,M
Boys,55.79,DQ,José Castillo,Grapeland,53.61,,,,,Single-ply,SBD,M
Boys,55.79,NS,Raymon Aranda,Seagraves,,,,,,Single-ply,SBD,M
Boys,67.13,1,Anthony Perez,San Antonio Cole,59.96,183.7,113.4,201.85,498.95,Single-ply,SBD,M
Boys,67.13,2,Chris Garza,Ganado,60.1,183.7,122.47,192.78,498.95,Single-ply,SBD,M
Boys,59.87,3,Azahel Herrera,Glen Rose,59.33,176.9,117.93,195.04,489.88,Single-ply,SBD,M
Boys,59.87,4,Dylan Gibson,Maud,59.69,188.24,99.79,197.31,485.34,Single-ply,SBD,M
Boys,59.87,5,David Watson,Seymour,59.51,183.7,99.79,199.58,483.08,Single-ply,SBD,M
Boys,59.87,6,Patrick Ayala,Banquete,59.78,170.1,95.25,204.12,469.47,Single-ply,SBD,M
Boys,59.87,7,Hector Jaramillo,Franklin,58.15,185.97,102.06,172.37,460.4,Single-ply,SBD,M
Boys,59.87,8,J. Paul Axtell,Olney,59.24,165.56,97.52,165.56,428.64,Single-ply,SBD,M
Boys,59.87,9,Gerard Rhodes,Newton,59.33,161.03,83.91,149.69,394.63,Single-ply,SBD,M
Boys,59.87,DQ,Dillon Hughes,Sterling City,58.97,176.9,,,,Single-ply,SBD,M
Boys,59.87,DQ,Jimmy Kimbrell,Kemp,58.42,,,,,Single-ply,SBD,M
Boys,59.87,DQ,Cristian Martinez,Bowie,58.51,,,,,Single-ply,SBD,M
Boys,67.13,1,Eli Rodriguez,Seagraves,66.95,233.6,117.93,226.8,578.33,Single-ply,SBD,M
Boys,67.13,2,Dylan Haralson,Axtell,66.04,226.8,106.59,235.87,569.26,Single-ply,SBD,M
Boys,67.13,3,Case Chambliss,Joaquin,66.13,215.46,120.2,210.92,546.58,Single-ply,SBD,M
Boys,67.13,4,Robert Sauceda,Ballinger,66.59,226.8,115.67,204.12,546.58,Single-ply,SBD,M
Boys,67.13,5,Cesar Herrera,Glen Rose,63.68,219.99,115.67,208.65,544.31,Single-ply,SBD,M
Boys,67.13,6,Abraham Landaverde,Bowie,66.13,208.65,122.47,195.04,526.17,Single-ply,SBD,M
Boys,67.13,7,Jaquay Brown,Milford,66.13,204.12,104.33,199.58,508.02,Single-ply,SBD,M
Boys,67.13,8,Arthur Watson,Buna,66.22,181.44,99.79,222.26,503.49,Single-ply,SBD,M
Boys,67.13,9,Steven Nicholson,Natalia,66.86,192.78,106.59,204.12,503.49,Single-ply,SBD,M
Boys,67.13,10,Osvaldo Sardina,Danbury,65.14,174.63,115.67,210.92,501.22,Single-ply,SBD,M
Boys,67.13,11,Jayton Trammell,Santo,64.64,195.04,99.79,192.78,487.61,Single-ply,SBD,M
Boys,67.13,NS,Estevan Galvan,Freer,,,,,,Single-ply,SBD,M
Boys,74.84,1,Aaron Serrato,Freer,73.21,238.14,151.95,242.67,632.76,Single-ply,SBD,M
Boys,74.84,2,Tate Richards,Springlake Earth,74.62,231.33,163.29,235.87,630.49,Single-ply,SBD,M
Boys,74.84,3,Jonathan Gonzalez,San Diego,74.03,226.8,161.03,231.33,619.15,Single-ply,SBD,M
Boys,74.84,4,Danny Rodriguez,Palacios,74.84,247.21,136.08,233.6,616.89,Single-ply,SBD,M
Boys,74.84,5,Devyn Hebbe,Axtell,71.94,258.55,117.93,235.87,612.35,Single-ply,SBD,M
Boys,74.84,6,Tanner Johnson,Whitesboro,74.84,251.74,117.93,242.67,612.35,Single-ply,SBD,M
Boys,74.84,7,Brandon Gillen,Paris Chisum,73.84,226.8,154.22,226.8,607.81,Single-ply,SBD,M
Boys,74.84,8,Jarrett Morgan,Queen City,73.39,222.26,142.88,240.4,605.55,Single-ply,SBD,M
Boys,74.84,9,Roy Ward,Waco Reicher Catholic,73.84,244.94,138.35,222.26,605.55,Single-ply,SBD,M
Boys,74.84,10,Dante Gomez,Clyde,73.39,229.06,140.61,226.8,596.47,Single-ply,SBD,M
Boys,74.84,11,Joaquin Lopez,Howe,74.66,231.33,136.08,224.53,591.94,Single-ply,SBD,M
Boys,74.84,12,Jace Thomas,Newton,74.84,185.97,149.69,247.21,582.87,Single-ply,SBD,M
Boys,74.84,DQ,John Jurado,Ozona,73.12,254.01,127.01,,,Single-ply,SBD,M
Boys,74.84,DQ,Chris Box,Elkhart,72.48,,,,,Single-ply,SBD,M
Boys,82.1,1,Carlos Charles,Bishop,80.1,290.3,179.17,265.35,734.82,Single-ply,SBD,M
Boys,82.1,2,Oziel Rios,Palacios,81.74,265.35,183.7,258.55,707.6,Single-ply,SBD,M
Boys,82.1,3,Arnold Sauceda,Hebbronville,80.83,258.55,158.76,238.14,655.44,Single-ply,SBD,M
Boys,89.81,4,Zack Gray,Elkhart,82.33,263.08,142.88,240.4,646.37,Single-ply,SBD,M
Boys,82.1,5,Christian Hosley,Universal City Randolph,78.93,238.14,163.29,240.4,641.83,Single-ply,SBD,M
Boys,82.1,6,Chanse Alexander,Oakridge School,79.11,244.94,131.54,251.74,628.23,Single-ply,SBD,M
Boys,82.1,7,Allen Scott,Waco Reicher Catholic,78.93,240.4,149.69,235.87,625.96,Single-ply,SBD,M
Boys,89.81,8,Brett Castillo,Sonora,82.19,240.4,151.95,231.33,623.69,Single-ply,SBD,M
Boys,82.1,9,Cris Stallings,Kermit,80.92,226.8,161.03,233.6,621.42,Single-ply,SBD,M
Boys,82.1,10,Eric Lucio,Louise,78.02,222.26,136.08,213.19,571.53,Single-ply,SBD,M
Boys,82.1,11,Garrett Ferguson,Sunnyvale,80.01,217.72,127.01,226.8,571.53,Single-ply,SBD,M
Boys,82.1,DQ,Marco Castro,Waco Reicher Catholic,79.38,,,,,Single-ply,SBD,M
Boys,82.1,DQ,Garrett Flanagan,Elkhart,79.56,,,,,Single-ply,SBD,M
Boys,82.1,DQ,Tavion Hall,Kerens,80.83,,,,,Single-ply,SBD,M
Boys,89.81,1,Andrew Garza,Falfurrias,88,274.42,156.49,274.42,705.34,Single-ply,SBD,M
Boys,89.81,2,John Groff,Pilot Point,89.18,249.48,170.1,263.08,682.66,Single-ply,SBD,M
Boys,89.81,3,Xavier Garza,Sundown,89.54,263.08,145.15,256.28,664.51,Single-ply,SBD,M
Boys,89.81,4,Joe Melendez,Coahoma,88.27,265.35,142.88,238.14,646.37,Single-ply,SBD,M
Boys,89.81,5,Eli Milner,Vanderbilt Industrial,87.72,244.94,151.95,240.4,637.3,Single-ply,SBD,M
Boys,89.81,6,Octavian Burrell,Shelbyville,86.36,254.01,156.49,217.72,628.23,Single-ply,SBD,M
Boys,89.81,7,Tanner Coone,Axtell,87.54,226.8,158.76,233.6,619.15,Single-ply,SBD,M
Boys,89.81,8,Karl Gibson,Mathis,88.09,247.21,142.88,229.06,619.15,Single-ply,SBD,M
Boys,99.79,9,Chris de la Cruz,Pottsboro,90.04,213.19,138.35,213.19,564.72,Single-ply,SBD,M
Boys,99.79,DQ,Eduardo Cruz,Hillsboro,90.04,,,,,Single-ply,SBD,M
Boys,89.81,DQ,Elijah Gooden,Boling,88.81,,,,,Single-ply,SBD,M
Boys,89.81,NS,Anthony Howard,New London West Rusk,,,,,,Single-ply,SBD,M
Boys,99.79,1,Aaron Chavarria,Floydada,97.52,288.03,158.76,267.62,714.41,Single-ply,SBD,M
Boys,99.79,2,Isiah Myers,Newton,96.43,249.48,167.83,278.96,696.26,Single-ply,SBD,M
Boys,99.79,3,Bryson Jones,Rogers,95.16,267.62,181.44,242.67,691.73,Single-ply,SBD,M
Boys,99.79,4,Brandon Bruce,Rogers,95.71,283.5,165.56,242.67,691.73,Single-ply,SBD,M
Boys,99.79,5,Bryan Winburn,Winnsboro,99.61,249.48,172.37,260.82,682.66,Single-ply,SBD,M
Boys,99.79,6,Andrew Rodriguez,Wichita Falls City View,98.34,258.55,158.76,258.55,675.85,Single-ply,SBD,M
Boys,99.79,7,Jose Moreno,San Diego,93.44,267.62,140.61,265.35,673.58,Single-ply,SBD,M
Boys,99.79,8,Ruben Casas,Falfurrias,97.98,254.01,158.76,226.8,639.57,Single-ply,SBD,M
Boys,99.79,9,Drew McVicker,Olney,94.71,244.94,156.49,226.8,628.23,Single-ply,SBD,M
Boys,109.77,10,JD Esquivel,Big Lake Reagan County,99.88,242.67,131.54,226.8,601.01,Single-ply,SBD,M
Boys,99.79,11,Zachary Hughes,Eustace,96.52,204.12,158.76,235.87,598.74,Single-ply,SBD,M
Boys,99.79,DQ,Ty Tamplin,Buna,92.99,,,,,Single-ply,SBD,M
Boys,109.77,1,Haddan Stokes,Clyde,106.78,299.37,174.63,254.01,728.02,Single-ply,SBD,M
Boys,109.77,2,Juan Lopez,Winnie East Chambers,107.32,297.1,197.31,233.6,728.02,Single-ply,SBD,M
Boys,109.77,3,Daegan Fowler,Lago Vista,104.14,265.35,167.83,274.42,707.6,Single-ply,SBD,M
Boys,109.77,4,Kal Metcalf,Shelbyville,106.5,290.3,163.29,247.21,700.8,Single-ply,SBD,M
Boys,109.77,5,Kirkland Weaver,Brady,108.05,290.3,161.03,249.48,700.8,Single-ply,SBD,M
Boys,109.77,6,Matt Coker,Caddo Mills,106.5,265.35,181.44,249.48,696.26,Single-ply,SBD,M
Boys,109.77,7,Ronnie Killen,Wichita Falls City View,104.33,274.42,131.54,274.42,680.39,Single-ply,SBD,M
Boys,109.77,8,Andre Hernandez,Natalia,104.78,272.16,136.08,272.16,680.39,Single-ply,SBD,M
Boys,109.77,9,Nick Rhame,Buna,108.86,265.35,190.51,222.26,678.12,Single-ply,SBD,M
Boys,109.77,10,Chris Bloyd,White Oak,105.41,272.16,167.83,233.6,673.58,Single-ply,SBD,M
Boys,109.77,11,Ricardo Perez,Santa Gertrudis Academy,106.5,258.55,172.37,208.65,639.57,Single-ply,SBD,M
Boys,109.77,12,Saul Landaverde,Bowie,106.78,263.08,140.61,226.8,630.49,Single-ply,SBD,M
Boys,109.77,13,Gavin Flores,Dimmitt,108.14,235.87,149.69,238.14,623.69,Single-ply,SBD,M
Boys,124.74,1,Ryan Mitchell,Teague,122.83,369.68,208.65,256.28,834.61,Single-ply,SBD,M
Boys,124.74,2,Nicholas Zapata,Bishop,122.83,299.37,167.83,274.42,741.62,Single-ply,SBD,M
Boys,124.74,3,Rene Gonzales,Mathis,120.02,310.71,195.04,233.6,739.36,Single-ply,SBD,M
Boys,124.74,4,Leal Sample,Scurry-Rosser,114.31,258.55,192.78,267.62,718.94,Single-ply,SBD,M
Boys,124.74,5,Trent Enriquez,Karnes City,118.66,283.5,172.37,249.48,705.34,Single-ply,SBD,M
Boys,124.74,6,Josh Carroll,Stockdale,123.1,260.82,183.7,256.28,700.8,Single-ply,SBD,M
Boys,124.74,7,Tyler Thompson,Rogers,123.92,274.42,181.44,244.94,700.8,Single-ply,SBD,M
Boys,124.74,8,Antonio Perez,San Angelo Grape Creek,121.11,249.48,195.04,244.94,689.46,Single-ply,SBD,M
Boys,124.74,9,Blake Johnson,Franklin,120.56,285.76,147.42,251.74,684.92,Single-ply,SBD,M
Boys,124.74,10,Carlos Alvarez,Hitchcock,110.13,272.16,190.51,204.12,666.78,Single-ply,SBD,M
Boys,124.74,11,Marcus Sandoval,Springlake Earth,122.65,258.55,195.04,208.65,662.24,Single-ply,SBD,M
Boys,124.74,12,Connor Strocher,Pottsboro,118.3,260.82,158.76,235.87,655.44,Single-ply,SBD,M
Boys,124.74,13,Collin Chesson,Saratoga West Hardin,115.67,249.48,151.95,242.67,644.1,Single-ply,SBD,M
Boys,124.74,DQ,Thomas Waite,Ponder,124.1,283.5,,,,Single-ply,SBD,M
Boys,124.74,NS,Ariel Soliz,Ben Bolt-Palito Blanco,,,,,,Single-ply,SBD,M
Boys,124.74+,1,Edgar Guerrero,Friona,140.34,344.73,206.38,306.17,857.29,Single-ply,SBD,M
Boys,124.74+,2,Trey Villarreal,Diana New Diana,153.77,299.37,240.4,272.16,811.93,Single-ply,SBD,M
Boys,124.74+,3,David Arciniega,Odem,146.96,317.51,183.7,263.08,764.3,Single-ply,SBD,M
Boys,124.74+,4,Wade Cookston,Sunnyvale,137.17,290.3,204.12,267.62,762.04,Single-ply,SBD,M
Boys,124.74+,5,Alexander Acosta,Skidmore-Tynan,129.27,290.3,181.44,283.5,755.23,Single-ply,SBD,M
Boys,124.74+,6,Grayson Eaton,Little River Academy,162.2,317.51,183.7,254.01,755.23,Single-ply,SBD,M
Boys,124.74+,7,AJ Garcia,Hughes Springs,147.51,319.78,158.76,254.01,732.55,Single-ply,SBD,M
Boys,124.74+,8,Jordan Allen,Clifton,161.84,310.71,181.44,235.87,728.02,Single-ply,SBD,M
Boys,124.74+,9,James Cooksey,Kenedy,141.52,301.64,170.1,247.21,718.94,Single-ply,SBD,M
Boys,124.74+,10,Ray Navarro,Natalia,128.19,294.84,147.42,260.82,703.07,Single-ply,SBD,M
Boys,124.74+,11,Jonathan Lopez,Banquete,139.07,294.84,185.97,219.99,700.8,Single-ply,SBD,M
Boys,124.74+,12,Kelton Bales,Iraan,128.46,283.5,149.69,254.01,687.19,Single-ply,SBD,M
Boys,124.74+,13,Kasey Misenheimer,Whitesboro,133.99,263.08,158.76,247.21,669.05,Single-ply,SBD,M
Boys,124.74+,14,Merel Bunfill,Hardin,151.95,297.1,136.08,215.46,648.64,Single-ply,SBD,M
Boys,124.74+,DQ,Trey Dear,Woodville,146.78,238.14,,,,Single-ply,SBD,M
Boys,124.74+,DQ,Landon Beck,Early,131.09,290.3,170.1,,,Single-ply,SBD,M
