Division,WeightClassKg,Place,Name,Team,BodyweightKg,Best3SquatKg,Best3BenchKg,Best3DeadliftKg,TotalKg,Equipment,Event,Sex
Boys,51.71,1,Patrick Herfurth,Orange Little Cypress-Mauriceville,47.85,129.27,54.43,142.88,326.59,Single-ply,SBD,M
Boys,51.71,2,Regan Ficken,Orangefield,50.35,122.47,52.16,97.52,272.16,Single-ply,SBD,M
Boys,51.71,3,Carmichael Wiley,Orangefield,50.8,74.84,54.43,86.18,215.46,Single-ply,SBD,M
Boys,51.71,4,Spencer Martin,Orange Little Cypress-Mauriceville,41.73,70.31,47.63,81.65,199.58,Single-ply,SBD,M
Boys,59.87,1,David Tsan,Orangefield,59.42,183.7,81.65,190.51,455.86,Single-ply,SBD,M
Boys,59.87,2,Tony Hart,Silsbee,58.06,133.81,92.99,142.88,369.68,Single-ply,SBD,M
Boys,59.87,3,Conner Jaynes,Orange Little Cypress-Mauriceville,58.97,111.13,61.23,136.08,308.44,Single-ply,SBD,M
Boys,67.13,1,Chase Hamshire,Silsbee,64.41,174.63,99.79,181.44,455.86,Single-ply,SBD,M
Boys,67.13,2,Casey Raley,Orangefield,65.77,145.15,104.33,161.03,410.5,Single-ply,SBD,M
Boys,67.13,3,Tanner Potter,Orange Little Cypress-Mauriceville,66.9,145.15,108.86,147.42,401.43,Single-ply,SBD,M
Boys,67.13,4,Tremaine Anderson,West Orange-Stark,62.14,131.54,70.31,161.03,362.87,Single-ply,SBD,M
Boys,67.13,5,Brad Bergeron,Orange Little Cypress-Mauriceville,67.13,133.81,83.91,136.08,353.8,Single-ply,SBD,M
Boys,74.84,1,Britton Lindsey,West Orange-Stark,74.84,242.67,131.54,244.94,619.15,Single-ply,SBD,M
Boys,74.84,2,Colin Janice,West Orange-Stark,74.84,172.37,111.13,197.31,480.81,Single-ply,SBD,M
Boys,74.84,3,Jackson Calhoun,Orangefield,71.21,174.63,104.33,183.7,462.66,Single-ply,SBD,M
Boys,74.84,4,Hunter Puckett,Orangefield,71.21,179.17,86.18,165.56,430.91,Single-ply,SBD,M
Boys,74.84,5,Matthew Lackey,West Orange-Stark,74.84,142.88,88.45,190.51,421.84,Single-ply,SBD,M
Boys,74.84,6,Anthony Roark,Silsbee,72.12,136.08,92.99,170.1,399.16,Single-ply,SBD,M
Boys,74.84,7,Colten Beard,Orange Little Cypress-Mauriceville,74.39,102.06,68.04,136.08,306.17,Single-ply,SBD,M
Boys,74.84,DQ,Nick Dockens,Orange Little Cypress-Mauriceville,68.49,217.72,,,,Single-ply,SBD,M
Boys,82.1,1,Joe Lynch,West Orange-Stark,82.1,197.31,124.74,197.31,519.36,Single-ply,SBD,M
Boys,82.1,2,Damon Burton,Orangefield,80.29,165.56,117.93,167.83,451.32,Single-ply,SBD,M
Boys,82.1,3,Julius Knolley,West Orange-Stark,82.1,145.15,79.38,181.44,405.97,Single-ply,SBD,M
Boys,89.81,1,Putman Ian,Orangefield,83.91,195.04,122.47,181.44,498.95,Single-ply,SBD,M
Boys,89.81,2,Ross Gilchriest,Silsbee,87.54,190.51,108.86,192.78,492.15,Single-ply,SBD,M
Boys,89.81,3,Trevor Johnson,Silsbee,88.45,176.9,102.06,210.92,489.88,Single-ply,SBD,M
Boys,89.81,4,Floyd Spearman,Silsbee,83.91,163.29,106.59,192.78,462.66,Single-ply,SBD,M
Boys,89.81,5,Daniel Woodson,West Orange-Stark,89.81,170.1,92.99,192.78,455.86,Single-ply,SBD,M
Boys,89.81,6,Gerardo Santos,Orangefield,89.81,147.42,86.18,140.61,374.21,Single-ply,SBD,M
Boys,99.79,1,Lawrence Gilmore,West Orange-Stark,99.79,208.65,124.74,258.55,591.94,Single-ply,SBD,M
Boys,99.79,2,David Hollyfield,Silsbee,97.98,201.85,138.35,208.65,548.85,Single-ply,SBD,M
Boys,99.79,3,Antonio Dill,Silsbee,90.72,151.95,104.33,185.97,442.25,Single-ply,SBD,M
Boys,99.79,4,Dillon Morgan,Silsbee,95.25,124.74,88.45,158.76,371.95,Single-ply,SBD,M
Boys,99.79,DQ,Brandon Nash,Orange Little Cypress-Mauriceville,98.66,161.03,,,,Single-ply,SBD,M
Boys,109.77,1,Bret Treadway,Silsbee,107.95,161.03,136.08,222.26,519.36,Single-ply,SBD,M
Boys,109.77,2,Justin Petry,West Orange-Stark,109.77,163.29,122.47,215.46,501.22,Single-ply,SBD,M
Boys,109.77,3,Seth Adams,Silsbee,108.41,183.7,117.93,192.78,494.42,Single-ply,SBD,M
Boys,109.77,4,Bryan Lopez,Orangefield,104.33,204.12,102.06,170.1,476.27,Single-ply,SBD,M
Boys,124.74,1,Cameron Allen,Orange Little Cypress-Mauriceville,123.83,260.82,183.7,265.35,709.87,Single-ply,SBD,M
Boys,124.74,2,Doc Maricle,Silsbee,122.47,204.12,151.95,213.19,569.26,Single-ply,SBD,M
Boys,124.74,3,Terrance Dennis,West Orange-Stark,124.74,199.58,102.06,208.65,510.29,Single-ply,SBD,M
Boys,124.74,4,Ryan Lebouef,Orangefield,121.11,183.7,99.79,183.7,467.2,Single-ply,SBD,M
Boys,124.74,5,Farrin Lawrence,Orange Little Cypress-Mauriceville,119.07,158.76,115.67,172.37,446.79,Single-ply,SBD,M
Boys,124.74+,1,Ryan Allen,West Orange-Stark,145.15,254.01,151.95,303.91,709.87,Single-ply,SBD,M
Boys,124.74+,2,Shawn Smith,Silsbee,149.69,190.51,142.88,181.44,514.83,Single-ply,SBD,M
Boys,124.74+,3,Tyler Howlett,Orange Little Cypress-Mauriceville,137.21,151.95,95.25,185.97,433.18,Single-ply,SBD,M
Boys,124.74+,4,Stephen Guilbeaux,Orange Little Cypress-Mauriceville,125.19,165.56,115.67,142.88,424.11,Single-ply,SBD,M
