Division,WeightClassKg,Place,Name,Team,BodyweightKg,Best3SquatKg,Best3BenchKg,Best3DeadliftKg,TotalKg,Equipment,Event,Sex
Boys,51.71,1,Adam Morton,Louise,50.35,131.54,72.57,147.42,351.53,Single-ply,SBD,M
Boys,51.71,2,Nathan Besch,Weimar,51.26,111.13,68.04,124.74,303.91,Single-ply,SBD,M
Boys,59.87,1,Alfred Moreno,Weimar,55.93,131.54,79.38,145.15,356.07,Single-ply,SBD,M
Boys,55.79,2,Brandon Teague,Altair Rice,53.07,136.08,72.57,142.88,351.53,Single-ply,SBD,M
Boys,55.79,3,Adonis Davis,Bastrop,54.88,136.08,79.38,136.08,351.53,Single-ply,SBD,M
Boys,55.79,4,Chris Dickson,East Bernard,55.79,127.01,79.38,124.74,331.12,Single-ply,SBD,M
Boys,55.79,DQ,Jason Samaniego,Altair Rice,54.43,,,,,Single-ply,SBD,M
Boys,55.79,NS,Rolando Moreno,Weimar,,,,,,Single-ply,SBD,M
Boys,59.87,1,Jorge Rosales,Weimar,59.87,145.15,97.52,179.17,421.84,Single-ply,SBD,M
Boys,59.87,2,Michael Hernandez,East Bernard,58.51,149.69,83.91,181.44,415.04,Single-ply,SBD,M
Boys,59.87,3,Mason Reyes,Altair Rice,58.97,149.69,77.11,170.1,396.89,Single-ply,SBD,M
Boys,59.87,4,Brandon Batot,Bastrop,59.42,138.35,63.5,147.42,349.27,Single-ply,SBD,M
Boys,59.87,5,Hunter Shoppa,East Bernard,56.7,120.2,77.11,147.42,344.73,Single-ply,SBD,M
Boys,59.87,6,Hunter Luscombe,Sealy,59.87,133.81,68.04,133.81,335.66,Single-ply,SBD,M
Boys,59.87,7,Alex Palomo,Luling,56.25,136.08,70.31,127.01,333.39,Single-ply,SBD,M
Boys,59.87,8,Chris Martinez,Bastrop,57.61,122.47,77.11,111.13,310.71,Single-ply,SBD,M
Boys,59.87,9,Sean Payne,Bastrop,57.15,52.16,34.02,54.43,140.61,Single-ply,SBD,M
Boys,59.87,NS,Tayler Moore,Luling,,,,,,Single-ply,SBD,M
Boys,59.87,NS,Avery Srebalus,East Bernard,,,,,,Single-ply,SBD,M
Boys,59.87,DQ,Justin Gonzalez,Bastrop,57.15,97.52,,,,Single-ply,SBD,M
Boys,67.13,1,Victor De La Garza,Brookshire Royal,67.13,165.56,106.59,174.63,446.79,Single-ply,SBD,M
Boys,67.13,2,Todd Nicholas,Altair Rice,62.14,165.56,90.72,181.44,437.72,Single-ply,SBD,M
Boys,67.13,3,John Marek,Bellville,65.32,154.22,86.18,151.95,392.36,Single-ply,SBD,M
Boys,67.13,4,Tyler Kurtz,East Bernard,66.22,136.08,83.91,165.56,385.55,Single-ply,SBD,M
Boys,67.13,5,Corey Bermudez,Luling,63.5,151.95,63.5,149.69,365.14,Single-ply,SBD,M
Boys,67.13,6,Jaric Crider,Bellville,67.13,124.74,74.84,131.54,331.12,Single-ply,SBD,M
Boys,67.13,7,Jay Martinez,Wallis Brazos,67.13,81.65,49.9,90.72,222.26,Single-ply,SBD,M
Boys,67.13,8,Josh Oldag,Sealy,65.77,29.48,111.13,61.23,201.85,Single-ply,SBD,M
Boys,67.13,NS,Montana Ollie,Schulenburg,,,,,,Single-ply,SBD,M
Boys,67.13,NS,Mickey Ollie,Schulenburg,,,,,,Single-ply,SBD,M
Boys,67.13,NS,Clint Mician,Schulenburg,,,,,,Single-ply,SBD,M
Boys,67.13,NS,Ryan Brzowoski,Wallis Brazos,,,,,,Single-ply,SBD,M
Boys,67.13,NS,Austin Brzozowski,Wallis Brazos,,,,,,Single-ply,SBD,M
Boys,67.13,NS,Andrew Smalls,Brookshire Royal,,,,,,Single-ply,SBD,M
Boys,74.84,1,Dalton Manning,Schulenburg,73.94,210.92,140.61,208.65,560.19,Single-ply,SBD,M
Boys,74.84,2,Derek Franco,Luling,69.85,145.15,102.06,151.95,399.16,Single-ply,SBD,M
Boys,74.84,3,Francesco Giannetti,East Bernard,71.21,145.15,92.99,142.88,381.02,Single-ply,SBD,M
Boys,74.84,4,Ian Garner,Wallis Brazos,74.39,83.91,63.5,90.72,238.14,Single-ply,SBD,M
Boys,74.84,NS,Dawson Dittrich,Schulenburg,,,,,,Single-ply,SBD,M
Boys,74.84,NS,Edward Haynes,Wallis Brazos,,,,,,Single-ply,SBD,M
Boys,74.84,NS,Henry Garcia,Brookshire Royal,,,,,,Single-ply,SBD,M
Boys,74.84,DQ,Lane Wood,Bastrop,74.84,129.27,,,,Single-ply,SBD,M
Boys,82.1,1,Josue Reynosa,Altair Rice,79.83,204.12,120.2,208.65,532.97,Single-ply,SBD,M
Boys,82.1,2,Ty Winkler,Schulenburg,81.65,183.7,113.4,201.85,498.95,Single-ply,SBD,M
Boys,82.1,3,Brenda Cubit,Luling,80.29,183.7,117.93,192.78,494.42,Single-ply,SBD,M
Boys,82.1,4,Alex Avalos,Sealy,79.83,183.7,120.2,161.03,464.93,Single-ply,SBD,M
Boys,82.1,5,Clint Cantu,Luling,81.65,165.56,104.33,183.7,453.59,Single-ply,SBD,M
Boys,82.1,6,Omar Garcia,Bastrop,81.65,147.42,90.72,170.1,408.23,Single-ply,SBD,M
Boys,82.1,7,Ty Jalowy,East Bernard,82.1,161.03,83.91,161.03,405.97,Single-ply,SBD,M
Boys,82.1,8,Andrew Kubena,East Bernard,78.93,145.15,92.99,158.76,396.89,Single-ply,SBD,M
Boys,82.1,9,Louie Lopez,Victoria St. Joseph,78.93,61.23,52.16,79.38,192.78,Single-ply,SBD,M
Boys,82.1,NS,Cody Livingston,Schulenburg,,,,,,Single-ply,SBD,M
Boys,82.1,NS,Mark Martinez,Luling,,,,,,Single-ply,SBD,M
Boys,82.1,DQ,Jordan Garner,Altair Rice,81.65,,,,,Single-ply,SBD,M
Boys,82.1,DQ,Bryce Watts,Luling,75.75,138.35,,,,Single-ply,SBD,M
Boys,82.1,DQ,Josh Trevino,Luling,81.19,161.03,83.91,,,Single-ply,SBD,M
Boys,82.1,DQ,Colton George,Wallis Brazos,80.29,124.74,,,,Single-ply,SBD,M
Boys,89.81,1,Trey Taylor,Brookshire Royal,87.54,210.92,120.2,208.65,539.77,Single-ply,SBD,M
Boys,89.81,2,Abraham Juarez,Altair Rice,86.64,208.65,124.74,185.97,519.36,Single-ply,SBD,M
Boys,89.81,3,Reese Weishum,Bellville,85.73,176.9,117.93,204.12,498.95,Single-ply,SBD,M
Boys,89.81,4,Jacob Grabs,Wallis Brazos,87.54,183.7,115.67,199.58,498.95,Single-ply,SBD,M
Boys,89.81,5,Glen Miles,Bellville,85.28,181.44,113.4,174.63,469.47,Single-ply,SBD,M
Boys,89.81,6,Duane Howard,Bastrop,85.73,172.37,113.4,176.9,462.66,Single-ply,SBD,M
Boys,89.81,7,Nathan Tovar,East Bernard,87.54,183.7,111.13,147.42,442.25,Single-ply,SBD,M
Boys,89.81,8,Darrell Fobbes,Brookshire Royal,84.37,165.56,81.65,183.7,430.91,Single-ply,SBD,M
Boys,89.81,9,Lex Leibfried,Bellville,86.64,131.54,81.65,120.2,333.39,Single-ply,SBD,M
Boys,89.81,10,Colton Leopold,Altair Rice,83.01,88.45,47.63,104.33,240.4,Single-ply,SBD,M
Boys,99.79,1,Aaron Werlein,Luling,90.72,226.8,115.67,226.8,569.26,Single-ply,SBD,M
Boys,99.79,2,Martin Ramirez,Altair Rice,97.07,208.65,138.35,213.19,560.19,Single-ply,SBD,M
Boys,99.79,3,Dylan Ferguson,Altair Rice,97.98,176.9,140.61,165.56,483.08,Single-ply,SBD,M
Boys,99.79,4,Alex Coleman,Victoria St. Joseph,97.98,181.44,102.06,195.04,478.54,Single-ply,SBD,M
Boys,99.79,5,Travis Vornkahl,Bellville,92.99,181.44,90.72,158.76,430.91,Single-ply,SBD,M
Boys,99.79,6,Cody Mays,Schulenburg,94.8,156.49,97.52,170.1,424.11,Single-ply,SBD,M
Boys,99.79,7,Matt Leos,Bastrop,92.99,147.42,83.91,151.95,383.29,Single-ply,SBD,M
Boys,99.79,8,Colton Aleman,Luling,98.88,142.88,83.91,133.81,360.61,Single-ply,SBD,M
Boys,99.79,9,Justen Williams,Bellville,91.63,147.42,77.11,131.54,356.07,Single-ply,SBD,M
Boys,99.79,10,Lulce Holub,Victoria St. Joseph,96.62,102.06,61.23,102.06,265.35,Single-ply,SBD,M
Boys,99.79,NS,Jade Pena,Victoria St. Joseph,,,,,,Single-ply,SBD,M
Boys,99.79,NS,Tyler Gibson,Luling,,,,,,Single-ply,SBD,M
Boys,99.79,DQ,John Tillman,Schulenburg,99.34,,,,,Single-ply,SBD,M
Boys,109.77,1,Demarcus Tillman,Altair Rice,101.15,244.94,145.15,226.8,616.89,Single-ply,SBD,M
Boys,109.77,2,Jordan Darr,East Bernard,100.7,208.65,127.01,231.33,566.99,Single-ply,SBD,M
Boys,109.77,3,Brian Branecky,Bastrop,100.24,217.72,124.74,201.85,544.31,Single-ply,SBD,M
Boys,109.77,4,Jorge Franco,Louise,100.7,210.92,106.59,185.97,503.49,Single-ply,SBD,M
Boys,109.77,5,Austen Williams,Bellville,108.86,195.04,124.74,163.29,483.08,Single-ply,SBD,M
Boys,109.77,6,Carlos Martinez,Louise,101.15,208.65,106.59,163.29,478.54,Single-ply,SBD,M
Boys,109.77,7,Americo Cespedes,Bastrop,107.05,204.12,97.52,165.56,467.2,Single-ply,SBD,M
Boys,109.77,8,Kurt Bollinger,Sealy,109.77,185.97,108.86,163.29,458.13,Single-ply,SBD,M
Boys,109.77,9,Martin Vences,Brookshire Royal,107.5,188.24,77.11,174.63,439.98,Single-ply,SBD,M
Boys,109.77,10,John Goode,Bastrop,109.32,151.95,88.45,142.88,383.29,Single-ply,SBD,M
Boys,109.77,NS,Bradley Berry,East Bernard,,,,,,Single-ply,SBD,M
Boys,109.77,NS,Roger Miles,Luling,,,,,,Single-ply,SBD,M
Boys,109.77,NS,Noe Rosales,Weimar,,,,,,Single-ply,SBD,M
Boys,124.74,1,Austin Pratt,Sealy,115.21,249.48,151.95,251.74,653.17,Single-ply,SBD,M
Boys,124.74,2,Jonathan Madragon,Bastrop,114.31,235.87,129.27,190.51,555.65,Single-ply,SBD,M
Boys,124.74,3,Rena Loya,Bastrop,122.02,192.78,124.74,183.7,501.22,Single-ply,SBD,M
Boys,124.74,4,Dishawn Kesee,Brookshire Royal,117.48,199.58,122.47,158.76,480.81,Single-ply,SBD,M
Boys,124.74,DQ,Tristan Wendt,Schulenburg,124.28,,,,,Single-ply,SBD,M
Boys,124.74+,1,Rj Gonzales,Altair Rice,125.19,260.82,136.08,217.72,614.62,Single-ply,SBD,M
Boys,124.74+,2,Dontae Green,Luling,158.76,226.8,124.74,217.72,569.26,Single-ply,SBD,M
Boys,124.74+,3,Dustin Blankemeyer,Bellville,138.35,233.6,106.59,183.7,523.9,Single-ply,SBD,M
Boys,124.74+,4,Bobby Alonso,Altair Rice,128.82,226.8,92.99,197.31,517.1,Single-ply,SBD,M
Boys,124.74+,5,Brian Swift,Luling,125.65,204.12,104.33,183.7,492.15,Single-ply,SBD,M
Boys,124.74+,6,Brice Otto,Luling,132.9,206.38,108.86,170.1,485.34,Single-ply,SBD,M
Boys,124.74+,DQ,Joel Sanchez,Luling,138.35,,,,,Single-ply,SBD,M
Boys,124.74+,NS,Caleb Magallane,Luling,,,,,,Single-ply,SBD,M
