Division,WeightClassKg,Place,Name,Team,BodyweightKg,Best3SquatKg,Best3BenchKg,Best3DeadliftKg,TotalKg,Equipment,Event,Sex
Boys,51.71,1,John Sotelo,Stephenville,48.44,102.06,58.97,120.2,281.23,Single-ply,SBD,M
Boys,51.71,2,Zander Henderson,Troy,47.9,102.06,54.43,115.67,272.16,Single-ply,SBD,M
Boys,51.71,3,Jayden Crouch,Hico,50.48,106.59,43.09,102.06,251.74,Single-ply,SBD,M
Boys,51.71,4,Ryan Holton,Godley,51.53,90.72,54.43,102.06,247.21,Single-ply,SBD,M
Boys,51.71,5,Jason Rainbolt,Hamilton,50.35,79.38,52.16,111.13,242.67,Single-ply,SBD,M
Boys,55.79,1,Brady Bearden,Troy,54.61,147.42,90.72,140.61,378.75,Single-ply,SBD,M
Boys,55.79,2,Arnoldo Moreno,Dublin,54.07,106.59,49.9,133.81,290.3,Single-ply,SBD,M
Boys,55.79,3,Bryce Leatherwood,Dublin,52.53,106.59,63.5,115.67,285.76,Single-ply,SBD,M
Boys,55.79,4,Trenton Sizemore,Strawn,54.88,104.33,63.5,113.4,281.23,Single-ply,SBD,M
Boys,55.79,5,Trey Orsini,Strawn,55.16,106.59,52.16,113.4,272.16,Single-ply,SBD,M
Boys,55.79,6,Enrique Bautista,Anson,53.89,92.99,47.63,97.52,238.14,Single-ply,SBD,M
Boys,55.79,7,Shane Christensen,Troy,53.07,65.77,47.63,81.65,195.04,Single-ply,SBD,M
Boys,55.79,DQ,Lawson Nairn,Millsap,55.34,92.99,,,,Single-ply,SBD,M
Boys,59.87,1,Luis Perez,Hamilton,58.79,142.88,70.31,161.03,374.21,Single-ply,SBD,M
Boys,59.87,2,Colby Williamson,Troy,59.24,127.01,83.91,108.86,319.78,Single-ply,SBD,M
Boys,59.87,3,Braydenn Cato,Troy,59.78,108.86,72.57,136.08,317.51,Single-ply,SBD,M
Boys,59.87,4,Lance Salvador,Troy,59.06,83.91,49.9,129.27,263.08,Single-ply,SBD,M
Boys,59.87,5,Hunter Smith,Tolar,58.97,102.06,49.9,102.06,254.01,Single-ply,SBD,M
Boys,67.13,1,Seth Anderson,Bangs,67.13,190.51,113.4,192.78,496.68,Single-ply,SBD,M
Boys,67.13,2,Carlos Villinueva,Strawn,64.32,192.78,115.67,185.97,494.42,Single-ply,SBD,M
Boys,67.13,3,Anthony Seider,Lometa,66.59,154.22,95.25,190.51,439.98,Single-ply,SBD,M
Boys,67.13,4,Jw Montgomery,Strawn,62.69,165.56,95.25,158.76,419.57,Single-ply,SBD,M
Boys,67.13,5,Fidel Casteneda,Bangs,65.23,145.15,90.72,158.76,394.63,Single-ply,SBD,M
Boys,67.13,6,Basey Mitchell,Millsap,67.13,147.42,83.91,161.03,392.36,Single-ply,SBD,M
Boys,67.13,7,Michael Truelove,Moody,63.05,145.15,92.99,142.88,381.02,Single-ply,SBD,M
Boys,67.13,8,Baylor Burkett,Millsap,65.23,127.01,74.84,138.35,340.19,Single-ply,SBD,M
Boys,67.13,9,Chris Hartsell,Hamilton,64.05,127.01,65.77,142.88,335.66,Single-ply,SBD,M
Boys,67.13,10,Alex Thiele,Hamilton,65.32,120.2,65.77,145.15,331.12,Single-ply,SBD,M
Boys,67.13,11,Donnie Smart,Lometa,63.41,92.99,61.23,115.67,269.89,Single-ply,SBD,M
Boys,67.13,12,Dj Smart,Lometa,66.5,95.25,63.5,111.13,269.89,Single-ply,SBD,M
Boys,67.13,13,Matt Jarrell,Hamilton,62.78,79.38,68.04,102.06,249.48,Single-ply,SBD,M
Boys,67.13,DQ,Xavier Soliz,Anson,62.87,124.74,74.84,,,Single-ply,SBD,M
Boys,67.13,DQ,Hunter Burton,Millsap,60.51,,,,,Single-ply,SBD,M
Boys,67.13,DQ,Morgan Mahan,Gordon,63.14,65.77,,,,Single-ply,SBD,M
Boys,67.13,DQ,Matt Rosas,Meridian,65.95,,,,,Single-ply,SBD,M
Boys,74.84,1,Stuart Cortez,Hamilton,74.66,183.7,115.67,204.12,503.49,Single-ply,SBD,M
Boys,74.84,2,Richard Hoffman,Clyde,74.84,197.31,102.06,163.29,462.66,Single-ply,SBD,M
Boys,74.84,3,Brandon Robinson,Bangs,74.84,161.03,104.33,190.51,455.86,Single-ply,SBD,M
Boys,74.84,4,Auston McBroom,Millsap,74.75,174.63,95.25,179.17,449.06,Single-ply,SBD,M
Boys,74.84,5,Matthew Lozano,Anson,69.22,163.29,102.06,181.44,446.79,Single-ply,SBD,M
Boys,74.84,6,Ruben Reyes,Stephenville,73.48,167.83,106.59,172.37,446.79,Single-ply,SBD,M
Boys,74.84,7,Jason Andrews,Lampasas,70.85,151.95,95.25,172.37,419.57,Single-ply,SBD,M
Boys,74.84,8,Ethan LeGrande,Hamilton,74.39,174.63,88.45,156.49,419.57,Single-ply,SBD,M
Boys,74.84,9,Jace Carr,Troy,73.39,165.56,92.99,154.22,412.77,Single-ply,SBD,M
Boys,74.84,10,Taylor Patton,Dublin,73.39,145.15,106.59,154.22,405.97,Single-ply,SBD,M
Boys,74.84,11,Teagan Smith,Meridian,69.4,154.22,90.72,158.76,403.7,Single-ply,SBD,M
Boys,74.84,12,Blayz Ingle,Clyde,68.13,149.69,83.91,154.22,387.82,Single-ply,SBD,M
Boys,74.84,13,Gage Davis,Hico,73.03,142.88,97.52,147.42,387.82,Single-ply,SBD,M
Boys,74.84,14,Isaac Bra,Anson,67.4,133.81,79.38,142.88,356.07,Single-ply,SBD,M
Boys,74.84,15,Sam Henderson,Tolar,69.04,131.54,88.45,136.08,356.07,Single-ply,SBD,M
Boys,74.84,16,Rugar Miserlain,Lampasas,69.49,136.08,74.84,136.08,347,Single-ply,SBD,M
Boys,74.84,17,Brodee Pack,Stephenville,73.48,122.47,68.04,149.69,340.19,Single-ply,SBD,M
Boys,74.84,18,Brett Jackson,Tolar,73.03,115.67,70.31,142.88,328.85,Single-ply,SBD,M
Boys,74.84,19,Hoss Rouse,Gordon,69.13,124.74,65.77,136.08,326.59,Single-ply,SBD,M
Boys,74.84,20,Ethan Doby,Anson,74.75,115.67,79.38,124.74,319.78,Single-ply,SBD,M
Boys,74.84,21,Javier Parra,Dublin,71.76,102.06,70.31,142.88,315.25,Single-ply,SBD,M
Boys,74.84,22,Caleb Bayer,Grandview,73.57,120.2,72.57,117.93,310.71,Single-ply,SBD,M
Boys,74.84,23,Clay Berry,Gordon,67.86,113.4,83.91,102.06,299.37,Single-ply,SBD,M
Boys,74.84,24,Samuel Coats,Grandview,74.75,106.59,58.97,122.47,288.03,Single-ply,SBD,M
Boys,74.84,25,Caleb Powel,Clyde,71.67,92.99,65.77,111.13,269.89,Single-ply,SBD,M
Boys,74.84,DQ,Charles Self,Clyde,68.58,115.67,,,,Single-ply,SBD,M
Boys,74.84,DQ,Brendon Mount,Clyde,69.67,,,,,Single-ply,SBD,M
Boys,74.84,DQ,Bo Baker,Clyde,71.85,,,,,Single-ply,SBD,M
Boys,74.84,DQ,Weston Reid,Lampasas,69.49,154.22,,,,Single-ply,SBD,M
Boys,74.84,DQ,Brody Scrivner,Gordon,70.67,79.38,,,,Single-ply,SBD,M
Boys,82.1,1,Javin Hebert,Godley,81.92,219.99,106.59,204.12,530.7,Single-ply,SBD,M
Boys,82.1,2,Kyle Gault,Strawn,80.2,208.65,113.4,199.58,521.63,Single-ply,SBD,M
Boys,82.1,3,Colby Henry,Lometa,80.83,176.9,136.08,195.04,508.02,Single-ply,SBD,M
Boys,82.1,4,Teel Mesmer,Moody,75.75,185.97,108.86,190.51,485.34,Single-ply,SBD,M
Boys,82.1,5,Braegen Berry,Tolar,81.65,185.97,115.67,181.44,483.08,Single-ply,SBD,M
Boys,82.1,6,Jordon Degollado,Meridian,81.47,183.7,95.25,199.58,478.54,Single-ply,SBD,M
Boys,82.1,7,James Hogan,Lampasas,79.47,172.37,111.13,183.7,467.2,Single-ply,SBD,M
Boys,82.1,8,Kolby Griffin,Anson,78.93,174.63,92.99,197.31,464.93,Single-ply,SBD,M
Boys,82.1,9,Kason Phillips,Stephenville,80.56,170.1,108.86,181.44,460.4,Single-ply,SBD,M
Boys,82.1,10,Lorenzo Garcia,Strawn,81.19,181.44,102.06,170.1,453.59,Single-ply,SBD,M
Boys,82.1,11,Ishmar Gonzales,Lampasas,76.29,154.22,104.33,192.78,451.32,Single-ply,SBD,M
Boys,82.1,12,Hunter Martin,Troy,81.83,176.9,99.79,165.56,442.25,Single-ply,SBD,M
Boys,82.1,13,Juble Stevens,Millsap,75.3,158.76,83.91,183.7,426.38,Single-ply,SBD,M
Boys,82.1,14,Clayton Pitts,Troy,76.75,142.88,99.79,170.1,412.77,Single-ply,SBD,M
Boys,82.1,15,Ethan Sanchez,Bangs,81.19,149.69,99.79,158.76,408.23,Single-ply,SBD,M
Boys,82.1,16,Christian Ramirez,Dublin,78.02,142.88,92.99,165.56,401.43,Single-ply,SBD,M
Boys,82.1,17,Jett Golden,Strawn,75.48,149.69,95.25,124.74,369.68,Single-ply,SBD,M
Boys,82.1,18,Daniel Henderson,Tolar,78.93,145.15,70.31,149.69,365.14,Single-ply,SBD,M
Boys,82.1,19,Matt Lehnhardt,Grandview,77.66,129.27,97.52,136.08,362.87,Single-ply,SBD,M
Boys,82.1,20,Noah Cochran,Stephenville,80.38,129.27,83.91,131.54,344.73,Single-ply,SBD,M
Boys,82.1,21,Luis Ordoñez,Dublin,77.66,111.13,72.57,158.76,342.46,Single-ply,SBD,M
Boys,82.1,22,Brenden Taylor,Hico,77.56,129.27,68.04,140.61,337.93,Single-ply,SBD,M
Boys,82.1,23,Sam Lewis,Troy,75.39,111.13,81.65,124.74,317.51,Single-ply,SBD,M
Boys,82.1,24,CJ Navarro,Millsap,75.84,113.4,56.7,120.2,290.3,Single-ply,SBD,M
Boys,82.1,25,Jacob Lopez,Dublin,81.56,106.59,43.09,127.01,276.69,Single-ply,SBD,M
Boys,82.1,DQ,Trashawn Hill,Moody,78.29,,,,,Single-ply,SBD,M
Boys,82.1,DQ,Tyler Rogers,Troy,75.66,102.06,56.7,,,Single-ply,SBD,M
Boys,82.1,DQ,Antonio Arellano,Grandview,77.66,142.88,95.25,,,Single-ply,SBD,M
Boys,82.1,DQ,Kyle St John,Anson,78.56,156.49,,,,Single-ply,SBD,M
Boys,89.81,1,Donovan Gomez,Clyde,88.45,254.01,154.22,229.06,637.3,Single-ply,SBD,M
Boys,89.81,2,Erik Fisk,Godley,89.63,249.48,129.27,217.72,596.47,Single-ply,SBD,M
Boys,89.81,3,Hagen Huffman,Dublin,84.91,199.58,106.59,192.78,498.95,Single-ply,SBD,M
Boys,89.81,4,Hunter Lawrence,Bangs,85.55,192.78,92.99,192.78,478.54,Single-ply,SBD,M
Boys,89.81,5,Marcos Saldana,Grandview,84.73,179.17,115.67,170.1,464.93,Single-ply,SBD,M
Boys,89.81,6,Hayden King,Bangs,84.82,158.76,88.45,195.04,442.25,Single-ply,SBD,M
Boys,89.81,7,Ian McKinney,Lampasas,83.64,165.56,88.45,174.63,428.64,Single-ply,SBD,M
Boys,89.81,8,Gabrian Juarez,Stephenville,86.73,161.03,92.99,174.63,428.64,Single-ply,SBD,M
Boys,89.81,9,Jacob Childers,Clyde,87.09,145.15,102.06,167.83,415.04,Single-ply,SBD,M
Boys,89.81,10,Sokomi Sosa,Lampasas,88.9,165.56,86.18,156.49,408.23,Single-ply,SBD,M
Boys,89.81,11,Korie Menard,Lampasas,85.55,142.88,106.59,142.88,392.36,Single-ply,SBD,M
Boys,89.81,12,Hunter Mach,Moody,88.72,142.88,99.79,142.88,385.55,Single-ply,SBD,M
Boys,89.81,13,Aldo Calvillo,Millsap,86.55,151.95,79.38,145.15,376.48,Single-ply,SBD,M
Boys,89.81,14,Avery Smith,Lampasas,85,142.88,95.25,136.08,374.21,Single-ply,SBD,M
Boys,89.81,15,Zachary Chavarria,Stephenville,87.82,136.08,79.38,158.76,374.21,Single-ply,SBD,M
Boys,89.81,16,Renee Contreras,Moody,82.74,136.08,88.45,140.61,365.14,Single-ply,SBD,M
Boys,89.81,17,Justice Baker,Strawn,84.73,127.01,92.99,136.08,356.07,Single-ply,SBD,M
Boys,89.81,18,Dawson Cannon,Clyde,83.37,104.33,74.84,133.81,312.98,Single-ply,SBD,M
Boys,89.81,19,Ryan Block,Godley,86.82,120.2,65.77,113.4,299.37,Single-ply,SBD,M
Boys,89.81,DQ,Caleb Moreno,Anson,83.55,,,,,Single-ply,SBD,M
Boys,89.81,DQ,Issic DeLacruz,Stephenville,89.54,229.06,,,,Single-ply,SBD,M
Boys,99.79,1,Dylan Froehlich,Moody,92.35,217.72,127.01,226.8,571.53,Single-ply,SBD,M
Boys,99.79,2,Caleb Smith,Stephenville,92.99,190.51,127.01,199.58,517.1,Single-ply,SBD,M
Boys,99.79,3,Elijah Golden,Grandview,91.9,170.1,106.59,192.78,469.47,Single-ply,SBD,M
Boys,99.79,4,Adrian Cervantez,Stephenville,95.25,176.9,102.06,183.7,462.66,Single-ply,SBD,M
Boys,99.79,5,Cody Miser,Godley,99.61,174.63,102.06,176.9,453.59,Single-ply,SBD,M
Boys,99.79,6,Caleb Brady,Lampasas,98.16,163.29,115.67,163.29,442.25,Single-ply,SBD,M
Boys,99.79,7,Landon Galindo,Tolar,99.7,156.49,102.06,147.42,405.97,Single-ply,SBD,M
Boys,99.79,8,Jacob Harvin,Hico,94.89,138.35,79.38,138.35,356.07,Single-ply,SBD,M
Boys,99.79,DQ,Brenden McKinney,Hico,92.08,120.2,,,,Single-ply,SBD,M
Boys,99.79,DQ,Tremayne Gullatte,Grandview,96.25,,,,,Single-ply,SBD,M
Boys,99.79,DQ,Jose Najera,Hamilton,96.62,204.12,83.91,,,Single-ply,SBD,M
Boys,109.77,1,Astin Carr,Hamilton,107.5,226.8,151.95,204.12,582.87,Single-ply,SBD,M
Boys,109.77,2,Daniel Aguilar,Millsap,106.87,238.14,111.13,190.51,539.77,Single-ply,SBD,M
Boys,109.77,3,Xander Ceresini,Hamilton,103.6,192.78,104.33,192.78,489.88,Single-ply,SBD,M
Boys,109.77,4,Michael Stanley,Dublin,100.24,181.44,122.47,170.1,474,Single-ply,SBD,M
Boys,109.77,5,Arturo Guerrero,Millsap,107.05,204.12,113.4,151.95,469.47,Single-ply,SBD,M
Boys,109.77,6,Karson Zant,Hico,103.42,167.83,83.91,181.44,433.18,Single-ply,SBD,M
Boys,109.77,7,Clayton Merrifield,Tolar,102.97,70.31,56.7,108.86,235.87,Single-ply,SBD,M
Boys,124.74,1,Jackson Orr,Moody,113.76,208.65,124.74,136.08,469.47,Single-ply,SBD,M
Boys,124.74,2,Davis Orr,Moody,120.2,163.29,124.74,170.1,458.13,Single-ply,SBD,M
Boys,124.74,3,Logan Davis,Stephenville,120.2,172.37,97.52,181.44,451.32,Single-ply,SBD,M
Boys,124.74,4,Trey Ivey,Bangs,112.67,163.29,106.59,158.76,428.64,Single-ply,SBD,M
Boys,124.74,5,Hayden Nimmo,Stephenville,115.03,142.88,90.72,163.29,396.89,Single-ply,SBD,M
Boys,124.74,6,Victor Juarez,Dublin,117.12,133.81,81.65,154.22,369.68,Single-ply,SBD,M
Boys,124.74,7,Roger Adair,Dublin,114.03,133.81,68.04,151.95,353.8,Single-ply,SBD,M
Boys,124.74,8,Sheldon Armstrong,Dublin,110.4,113.4,61.23,147.42,322.05,Single-ply,SBD,M
Boys,124.74,DQ,Austin Schoonmaker,Clyde,112.67,210.92,,,,Single-ply,SBD,M
Boys,124.74,DQ,Hayden Keeney,Grandview,117.03,,,,,Single-ply,SBD,M
Boys,124.74+,1,Ian McDonald,Troy,129.82,208.65,138.35,199.58,546.58,Single-ply,SBD,M
Boys,124.74+,2,Nick Bourdelais,Millsap,134.54,210.92,127.01,201.85,539.77,Single-ply,SBD,M
Boys,124.74+,3,James Marshall,Tolar,143.24,197.31,99.79,188.24,485.34,Single-ply,SBD,M
Boys,124.74+,4,John Ceresini,Hamilton,132.54,201.85,92.99,183.7,478.54,Single-ply,SBD,M
Boys,124.74+,5,Caden Thrift,Lampasas,147.15,151.95,120.2,172.37,444.52,Single-ply,SBD,M
Boys,124.74+,6,Gavin Sharp,Stephenville,144.15,136.08,97.52,149.69,383.29,Single-ply,SBD,M
Boys,124.74+,7,Riley Veneable,Gordon,130.27,102.06,102.06,154.22,358.34,Single-ply,SBD,M
Boys,124.74+,8,Cesar Espinoza,Strawn,125.19,113.4,83.91,136.08,333.39,Single-ply,SBD,M
