Division,WeightClassKg,Place,Name,Team,BodyweightKg,Best3SquatKg,Best3BenchKg,Best3DeadliftKg,TotalKg,Equipment,Event,Sex
Boys,51.71,1,Bryant Smith,Bonham,51.71,158.76,79.38,181.44,419.57,Single-ply,SBD,M
Boys,55.79,2,Angel Jaramillo,Van Alstyne,51.94,161.03,90.72,167.83,419.57,Single-ply,SBD,M
Boys,51.71,3,Zach Ramirez,Decatur,50.8,117.93,61.23,127.01,306.17,Single-ply,SBD,M
Boys,51.71,4,Romario Hernandez,Krum,51.71,83.91,49.9,92.99,226.8,Single-ply,SBD,M
Boys,51.71,5,Fabian Aguire,Celina,51.26,70.31,52.16,102.06,224.53,Single-ply,SBD,M
Boys,51.71,6,Justin Keeton,Anna,45.81,74.84,36.29,90.72,201.85,Single-ply,SBD,M
Boys,51.71,7,Billy McMahon,Farmersville,39.46,61.23,38.56,79.38,179.17,Single-ply,SBD,M
Boys,55.79,1,Jose Rangel,Farmersville,55.79,145.15,88.45,151.95,385.55,Single-ply,SBD,M
Boys,55.79,2,Juan Llamas,Celina,53.52,90.72,61.23,115.67,267.62,Single-ply,SBD,M
Boys,55.79,3,Jake Anderson,Sadler S & S Cons,55.79,83.91,65.77,113.4,263.08,Single-ply,SBD,M
Boys,59.87,1,Vincent Torrefranco,Sadler S & S Cons,58.97,174.63,86.18,181.44,442.25,Single-ply,SBD,M
Boys,59.87,2,Jeremy Croney,Sadler S & S Cons,59.87,174.63,83.91,181.44,439.98,Single-ply,SBD,M
Boys,59.87,3,Jeremy Brennan,Van Alstyne,57.61,142.88,92.99,142.88,378.75,Single-ply,SBD,M
Boys,59.87,4,Justin Ramirez,Gainesville,58.97,122.47,65.77,145.15,333.39,Single-ply,SBD,M
Boys,67.13,5,Justin Lawrence,Bonham,60.1,136.08,52.16,142.88,331.12,Single-ply,SBD,M
Boys,59.87,6,Adon Jaral,Celina,59.42,102.06,70.31,127.01,299.37,Single-ply,SBD,M
Boys,67.13,1,Izzy Sustaita,Gainesville,66.68,174.63,117.93,181.44,474,Single-ply,SBD,M
Boys,67.13,2,Sebastein Spencer,Anna,67.13,179.17,104.33,179.17,462.66,Single-ply,SBD,M
Boys,67.13,3,Austin Bailey,Lucas Lovejoy,64.86,158.76,92.99,183.7,435.45,Single-ply,SBD,M
Boys,67.13,4,Jamal Jackson,Gainesville,66.22,154.22,88.45,176.9,419.57,Single-ply,SBD,M
Boys,67.13,5,Tony Solis,Krum,63.5,147.42,77.11,156.49,381.02,Single-ply,SBD,M
Boys,67.13,6,Jacob Olivarez,Krum,65.77,138.35,65.77,129.27,333.39,Single-ply,SBD,M
Boys,67.13,7,Andrew Smith,Anna,65.77,115.67,70.31,145.15,331.12,Single-ply,SBD,M
Boys,67.13,8,Calob Gann,Howe,66.68,117.93,65.77,129.27,312.98,Single-ply,SBD,M
Boys,67.13,9,Romero Sierra,Celina,66.68,108.86,61.23,117.93,288.03,Single-ply,SBD,M
Boys,67.13,10,Brian Reynolds,Farmersville,66.68,120.2,,,120.2,Single-ply,S,M
Boys,67.13,DQ,Jayce Tredway,Krum,62.6,,,,,Single-ply,S,M
Boys,67.13,DQ,Joel Matehuala,Celina,67.13,,,,,Single-ply,S,M
Boys,67.13,DQ,John Gannon,Van Alstyne,61.23,,,,,Single-ply,S,M
Boys,67.13,DQ,Jordan Barnes,Van Alstyne,67.13,,,,,Single-ply,S,M
Boys,74.84,1,Tyler Ross,Howe,73.48,206.38,120.2,192.78,519.36,Single-ply,SBD,M
Boys,74.84,2,Tim Abbott,Bonham,73.48,183.7,106.59,192.78,483.08,Single-ply,SBD,M
Boys,74.84,3,Dru Hull,Sadler S & S Cons,74.84,181.44,113.4,183.7,478.54,Single-ply,SBD,M
Boys,74.84,4,Dustin Williams,Anna,73.94,156.49,117.93,167.83,442.25,Single-ply,SBD,M
Boys,74.84,5,David Barnes,Farmersville,73.03,167.83,95.25,172.37,435.45,Single-ply,SBD,M
Boys,74.84,6,Tyler Bailey,Lucas Lovejoy,68.95,163.29,90.72,167.83,421.84,Single-ply,SBD,M
Boys,74.84,7,Blake Vest,Krum,69.85,124.74,79.38,142.88,347,Single-ply,SBD,M
Boys,74.84,8,Jon Harris,Decatur,69.4,122.47,74.84,136.08,333.39,Single-ply,SBD,M
Boys,74.84,9,Andres Martinez,Decatur,70.31,122.47,70.31,131.54,324.32,Single-ply,SBD,M
Boys,74.84,10,Dakota Buie,Sadler S & S Cons,74.39,120.2,,,120.2,Single-ply,S,M
Boys,74.84,DQ,Chris Rich,Bonham,74.39,,,,,Single-ply,S,M
Boys,74.84,DQ,Austin Hartter,Lucas Lovejoy,67.59,,,,,Single-ply,S,M
Boys,74.84,DQ,Zander Hamilton,Lucas Lovejoy,74.84,,,,,Single-ply,S,M
Boys,82.1,1,Orion Thomas,Van Alstyne,75.3,195.04,115.67,199.58,510.29,Single-ply,SBD,M
Boys,82.1,2,Shelby Long,Anna,78.93,217.72,90.72,195.04,503.49,Single-ply,SBD,M
Boys,82.1,3,Chance Bratcher,Sadler S & S Cons,81.19,181.44,97.52,165.56,444.52,Single-ply,SBD,M
Boys,82.1,4,John Norrell,Anna,80.74,158.76,99.79,181.44,439.98,Single-ply,SBD,M
Boys,89.81,5,Tori Latimer,Prosper,82.33,158.76,113.4,163.29,435.45,Single-ply,SBD,M
Boys,82.1,6,Alex Cole,Van Alstyne,79.38,158.76,95.25,170.1,424.11,Single-ply,SBD,M
Boys,82.1,7,Cody Alexander,Bonham,75.11,154.22,83.91,167.83,405.97,Single-ply,SBD,M
Boys,82.1,8,Stryker Hunnicutt,Bonham,80.29,145.15,90.72,165.56,401.43,Single-ply,SBD,M
Boys,82.1,9,Kamm Coker,Prosper,80.74,140.61,97.52,156.49,394.63,Single-ply,SBD,M
Boys,89.81,10,Mason LaTour,Lucas Lovejoy,82.33,131.54,83.91,167.83,383.29,Single-ply,SBD,M
Boys,82.1,11,Cruz Niblett,Decatur,80.29,124.74,63.5,127.01,315.25,Single-ply,SBD,M
Boys,82.1,12,Travis Fulton,Howe,78.47,120.2,61.23,131.54,312.98,Single-ply,SBD,M
Boys,82.1,13,Jd Patterson,Howe,75.3,90.72,54.43,99.79,244.94,Single-ply,SBD,M
Boys,82.1,14,Kraig Harris,Decatur,81.65,,72.57,127.01,199.58,Single-ply,BD,M
Boys,89.81,1,Juan Vargas,Celina,86.18,226.8,147.42,204.12,578.33,Single-ply,SBD,M
Boys,89.81,2,Kyle Washington,Bonham,83.01,217.72,113.4,222.26,553.38,Single-ply,SBD,M
Boys,89.81,3,Casey Davis,Howe,84.37,185.97,113.4,213.19,512.56,Single-ply,SBD,M
Boys,89.81,4,Cody Kincaid,Celina,85.73,165.56,108.86,172.37,446.79,Single-ply,SBD,M
Boys,89.81,5,Logan Moore,Prosper,87.09,151.95,106.59,165.56,424.11,Single-ply,SBD,M
Boys,89.81,6,Richard Ramos,Prosper,89.81,151.95,102.06,129.27,383.29,Single-ply,SBD,M
Boys,89.81,7,Bryant Smith,Sadler S & S Cons,83.46,120.2,81.65,174.63,376.48,Single-ply,SBD,M
Boys,89.81,8,Ethan Watson,Bonham,88.45,133.81,86.18,149.69,369.68,Single-ply,SBD,M
Boys,89.81,9,Robert Miller,Anna,89.36,136.08,79.38,154.22,369.68,Single-ply,SBD,M
Boys,89.81,10,Jared Cooper,Decatur,87.09,131.54,88.45,122.47,342.46,Single-ply,SBD,M
Boys,89.81,11,Aaron Gilmore,Krum,84.82,117.93,70.31,129.27,317.51,Single-ply,SBD,M
Boys,89.81,12,Wade Wilson,Krum,88.45,108.86,72.57,136.08,317.51,Single-ply,SBD,M
Boys,99.79,1,Matt Morrison,Gunter,99.61,226.8,129.27,263.08,619.15,Single-ply,SBD,M
Boys,99.79,2,Eduardo Webber,Howe,92.99,247.21,124.74,208.65,580.6,Single-ply,SBD,M
Boys,99.79,3,Sawyer Levit,Celina,96.62,226.8,136.08,181.44,544.31,Single-ply,SBD,M
Boys,99.79,4,Christian Price,Celina,95.71,181.44,120.2,197.31,498.95,Single-ply,SBD,M
Boys,99.79,5,Jacob Wheeler,Bonham,95.25,176.9,104.33,213.19,494.42,Single-ply,SBD,M
Boys,99.79,6,Scott Blair,Anna,93.89,181.44,95.25,201.85,478.54,Single-ply,SBD,M
Boys,99.79,7,Brad Shatto,Sadler S & S Cons,98.88,174.63,113.4,183.7,471.74,Single-ply,SBD,M
Boys,99.79,8,Steven Martinez,Krum,95.71,138.35,83.91,163.29,385.55,Single-ply,SBD,M
Boys,99.79,9,Nate Rainey,Lucas Lovejoy,98.88,147.42,81.65,154.22,383.29,Single-ply,SBD,M
Boys,99.79,10,Richard Olalde,Prosper,99.79,111.13,92.99,154.22,358.34,Single-ply,SBD,M
Boys,99.79,11,Bryan Ripolio,Decatur,90.08,102.06,95.25,136.08,333.39,Single-ply,SBD,M
Boys,109.77,12,Shane Tilden,Krum,100.02,115.67,79.38,136.08,331.12,Single-ply,SBD,M
Boys,109.77,1,Justin Perez,Farmersville,107.5,208.65,131.54,204.12,544.31,Single-ply,SBD,M
Boys,109.77,2,Jd Nolan,Farmersville,100.7,192.78,136.08,183.7,512.56,Single-ply,SBD,M
Boys,109.77,3,Manuel Monge,Van Alstyne,103.87,174.63,136.08,190.51,501.22,Single-ply,SBD,M
Boys,109.77,4,Jonathan Cook,Bonham,106.59,170.1,115.67,176.9,462.66,Single-ply,SBD,M
Boys,109.77,5,Cory Couturier,Prosper,105.23,147.42,115.67,163.29,426.38,Single-ply,SBD,M
Boys,109.77,6,Larry Chumley,Sadler S & S Cons,104.33,142.88,83.91,165.56,392.36,Single-ply,SBD,M
Boys,109.77,7,Hawley Keegan,Anna,109.32,154.22,,170.1,324.32,Single-ply,SD,M
Boys,109.77,8,Alex Mayes,Van Alstyne,107.95,158.76,97.52,,256.28,Single-ply,SB,M
Boys,124.74+,1,Shane Jones,Van Alstyne,124.92,251.74,140.61,215.46,607.81,Single-ply,SBD,M
Boys,124.74,2,Joe Merino,Anna,123.38,254.01,127.01,215.46,596.47,Single-ply,SBD,M
Boys,124.74,3,Tanner Pelham,Anna,115.21,204.12,151.95,226.8,582.87,Single-ply,SBD,M
Boys,124.74,4,Randel Furey,Sadler S & S Cons,120.2,204.12,115.67,226.8,546.58,Single-ply,SBD,M
Boys,124.74,5,Trevor Melugin,Prosper,121.56,199.58,147.42,183.7,530.7,Single-ply,SBD,M
Boys,124.74,6,Nate O'Connor,Lucas Lovejoy,117.48,192.78,129.27,197.31,519.36,Single-ply,SBD,M
Boys,124.74,7,Jamie Davidson,Farmersville,124.74,204.12,124.74,183.7,512.56,Single-ply,SBD,M
Boys,124.74,8,Seth Tweetie,Lucas Lovejoy,124.74,181.44,95.25,185.97,462.66,Single-ply,SBD,M
Boys,124.74,9,Justin Balderas,Anna,115.21,151.95,90.72,147.42,390.09,Single-ply,SBD,M
Boys,124.74,10,Nathan Silva,Krum,124.74,149.69,65.77,138.35,353.8,Single-ply,SBD,M
Boys,124.74,11,Grayson Tackett,Prosper,117.03,145.15,,,145.15,Single-ply,S,M
Boys,124.74,DQ,Tim Esfandiari,Lucas Lovejoy,119.75,,,,,Single-ply,S,M
Boys,124.74,DQ,Jefrey Williamson,Bonham,111.13,,,,,Single-ply,S,M
Boys,124.74+,1,Darian Gipson-Jackson,Anna,138.8,258.55,158.76,233.6,650.91,Single-ply,SBD,M
Boys,124.74+,2,Jeremy Russell,Lucas Lovejoy,144.7,204.12,151.95,190.51,546.58,Single-ply,SBD,M
Boys,124.74+,3,Tanner Kissling,Bonham,147.42,163.29,104.33,181.44,449.06,Single-ply,SBD,M
Boys,124.74+,4,Rusty Brashear,Anna,131.54,181.44,81.65,181.44,444.52,Single-ply,SBD,M
Boys,124.74+,DQ,Quinn Brewer,Farmersville,191.87,,,,,Single-ply,SBD,M
Boys,124.74+,DQ,Zach Thrash,Van Alstyne,146.51,,,,,Single-ply,SBD,M
