Division,WeightClassKg,Place,Name,Team,BodyweightKg,Best3SquatKg,Best3BenchKg,Best3DeadliftKg,TotalKg,Equipment,Event,Sex
Boys,51.71,1,Eric Aceves,Madisonville,51.71,117.93,68.04,131.54,317.51,Single-ply,SBD,M
Boys,51.71,2,Johney Phelps,Palestine Westwood,48.9,113.4,54.43,106.59,274.42,Single-ply,SBD,M
Boys,51.71,3,Cody Betser,Fairfield,49.9,108.86,47.63,117.93,274.42,Single-ply,SBD,M
Boys,51.71,4,Michael Smagghe,Fairfield,49.62,95.25,54.43,117.93,267.62,Single-ply,SBD,M
Boys,55.79,1,Chantz Gibson,Palestine Westwood,55.07,158.76,90.72,163.29,412.77,Single-ply,SBD,M
Boys,59.87,2,Nick Harris,Madisonville,56.02,131.54,72.57,142.88,347,Single-ply,SBD,M
Boys,55.79,3,Rey Perez,Madisonville,55.43,124.74,70.31,113.4,308.44,Single-ply,SBD,M
Boys,67.13,1,Theron Dingas,Palestine Westwood,60.01,165.56,99.79,185.97,451.32,Single-ply,SBD,M
Boys,67.13,2,Juan Hernandez,Mexia,60.1,158.76,83.91,181.44,424.11,Single-ply,SBD,M
Boys,59.87,3,Ismael Castillo,Madisonville,59.78,158.76,88.45,142.88,390.09,Single-ply,SBD,M
Boys,59.87,4,Devin Eggins,Fairfield,59.78,147.42,74.84,147.42,369.68,Single-ply,SBD,M
Boys,67.13,1,Michael Murray,Palestine Westwood,64.86,195.04,95.25,185.97,476.27,Single-ply,SBD,M
Boys,67.13,2,David Marez,Mexia,64.77,181.44,83.91,174.63,439.98,Single-ply,SBD,M
Boys,67.13,3,Rowdy Dodson,Fairfield,66.13,149.69,86.18,167.83,403.7,Single-ply,SBD,M
Boys,67.13,DQ,Dalvin Gibson,Mexia,67.13,,,,,Single-ply,SBD,M
Boys,74.84,1,Tracy Washington,Mexia,70.67,192.78,115.67,197.31,505.76,Single-ply,SBD,M
Boys,74.84,2,DaQuinton Anderson,Palestine Westwood,69.49,147.42,90.72,161.03,399.16,Single-ply,SBD,M
Boys,74.84,3,Alja Babar,Madisonville,74.75,147.42,92.99,142.88,383.29,Single-ply,SBD,M
Boys,74.84,DQ,Kolby Venoy,Palestine Westwood,74.84,,,,,Single-ply,SBD,M
Boys,74.84,DQ,Jorge Perez,Mexia,68.49,147.42,74.84,,,Single-ply,SBD,M
Boys,82.1,1,Ryan Clever,Madisonville,79.47,174.63,129.27,195.04,498.95,Single-ply,SBD,M
Boys,82.1,2,Ben Barlow,Fairfield,81.74,204.12,113.4,154.22,471.74,Single-ply,SBD,M
Boys,82.1,3,Cullen Lyles,Fairfield,79.47,181.44,92.99,165.56,439.98,Single-ply,SBD,M
Boys,82.1,4,Sergio Rios,Mexia,75.93,158.76,102.06,170.1,430.91,Single-ply,SBD,M
Boys,82.1,5,Angel Contreras,Mexia,79.11,147.42,92.99,170.1,410.5,Single-ply,SBD,M
Boys,89.81,1,Aaryon Robinson,Palestine Westwood,87.63,215.46,113.4,240.4,569.26,Single-ply,SBD,M
Boys,99.79,2,Nicoli Morgan,Palestine Westwood,90.04,215.46,108.86,240.4,564.72,Single-ply,SBD,M
Boys,89.81,3,Dalton Barker,Fairfield,89.63,213.19,120.2,185.97,519.36,Single-ply,SBD,M
Boys,89.81,4,Robert Robinson,Mexia,89.72,213.19,108.86,185.97,508.02,Single-ply,SBD,M
Boys,89.81,5,Hunter Luce,Palestine Westwood,87.91,181.44,90.72,208.65,480.81,Single-ply,SBD,M
Boys,99.79,1,Cody Sell,Fairfield,98.88,233.6,145.15,210.92,589.67,Single-ply,SBD,M
Boys,99.79,2,Diontre Oliver,Mexia,99.52,226.8,111.13,233.6,571.53,Single-ply,SBD,M
Boys,99.79,3,Ethridge Brooks,Madisonville,97.79,215.46,136.08,192.78,544.31,Single-ply,SBD,M
Boys,99.79,4,Will Doyle,Fairfield,95.35,195.04,111.13,192.78,498.95,Single-ply,SBD,M
Boys,99.79,5,Julio Camarena,Madisonville,99.52,181.44,120.2,192.78,494.42,Single-ply,SBD,M
Boys,99.79,6,Josh Gallegos,Fairfield,97.52,147.42,104.33,163.29,415.04,Single-ply,SBD,M
Boys,99.79,7,Devon Reeves,Mexia,98.34,147.42,90.72,170.1,408.23,Single-ply,SBD,M
Boys,99.79,8,Tyrone Freeman,Mexia,95.89,136.08,81.65,127.01,344.73,Single-ply,SBD,M
Boys,99.79,9,Deon Grant,Mexia,92.35,117.93,77.11,136.08,331.12,Single-ply,SBD,M
Boys,99.79,DQ,Trevor Korts,Fairfield,97.52,,117.93,167.83,,Single-ply,SBD,M
Boys,109.77,1,Jacob McKinney,Palestine Westwood,107.23,294.84,142.88,249.48,687.19,Single-ply,SBD,M
Boys,109.77,2,Dillen Kilpatrick,Fairfield,108.05,267.62,170.1,213.19,650.91,Single-ply,SBD,M
Boys,109.77,3,Michael Raymond,Fairfield,108.5,249.48,104.33,208.65,562.45,Single-ply,SBD,M
Boys,109.77,4,Clifton Jones,Fairfield,108.95,226.8,131.54,204.12,562.45,Single-ply,SBD,M
Boys,109.77,5,Austin Ashley,Madisonville,107.05,204.12,117.93,183.7,505.76,Single-ply,SBD,M
Boys,109.77,6,LaRodney Brown,Palestine Westwood,107.95,210.92,99.79,181.44,492.15,Single-ply,SBD,M
Boys,109.77,7,Marquis Mccullem,Mexia,104.78,133.81,65.77,163.29,362.87,Single-ply,SBD,M
Boys,124.74,1,Jorge Rosas,Madisonville,116.21,226.8,124.74,199.58,551.11,Single-ply,SBD,M
Boys,124.74,2,Sam Robinson,Fairfield,120.2,195.04,113.4,181.44,489.88,Single-ply,SBD,M
Boys,124.74+,1,Michael Craig,Madisonville,145.42,219.99,129.27,192.78,542.04,Single-ply,SBD,M
Boys,124.74+,2,Devon Mason,Fairfield,129.82,206.38,151.95,163.29,521.63,Single-ply,SBD,M
Boys,,NS,Noe Ramirez,Fairfield,,,,,,Single-ply,SBD,M
Boys,,NS,Brett Wilson,Fairfield,,,,,,Single-ply,SBD,M
