Place,Name,Division,Sex,BirthDate,BodyweightKg,WeightClassKg,Squat1Kg,Squat2Kg,Squat3Kg,Best3SquatKg,Bench1Kg,Bench2Kg,Bench3Kg,Best3BenchKg,Deadlift1Kg,Deadlift2Kg,Deadlift3Kg,Best3DeadliftKg,TotalKg,Event,Equipment
1,Catrin Resch,Masters 1,F,1965-01-08,46,47,95,105,110,110,-75,75,,75,105,115,125,125,310,SBD,Single-ply
1,Monika Bruder,Masters 2,F,1954-10-06,51.2,52,107.5,-115,115,115,55,60,-62.5,60,110,120,127.5,127.5,302.5,SBD,Single-ply
1,Klothilde Herrmann,Masters 2,F,1956-09-28,56.6,57,122.5,130,135,135,70,75,80,80,130,140,-147.5,140,355,SBD,Single-ply
1,Sabine Bommersbach,Masters 1,F,1964-07-07,56.7,57,105,110,-115,110,50,-55,55,55,115,125,135,135,300,SBD,Single-ply
DQ,Simone Brandt,Masters 1,F,1971-03-18,59.5,63,-110,-110,-110,,,,,,,,,,,SBD,Single-ply
DQ,Ingvild Bayer,Masters 2,F,1954-09-18,59.6,63,105,115,-120,115,-67.5,-67.5,-67.5,,,,,,,SBD,Single-ply
1,Anita Thimm,Masters 3,F,1950-01-11,61.5,63,90,100,110,110,-75,-75,75,75,130,140,145,145,330,SBD,Single-ply
3,Katrin Schwarz,Masters 1,F,1964-03-09,65.2,72,80,85,92.5,92.5,50,55,60,60,100,120,-132.5,120,272.5,SBD,Single-ply
2,Frieda Guttenberger,Masters 1,F,1968-11-20,68,72,130,-140,-142.5,130,90,-95,,90,140,150,-157.5,150,370,SBD,Single-ply
1,Andrea Lange,Masters 1,F,1965-04-06,68.8,72,130,140,145,145,100,105,107.5,107.5,-135,145,152.5,152.5,405,SBD,Single-ply
DQ,Sybille Hampel,Masters 1,F,1967-08-28,71.3,72,-145,-150,-150,,75,77.5,-80,77.5,135,145,150,150,,SBD,Single-ply
1,Susanne Steidle,Masters 1,F,1964-05-30,73.4,84,-150,-150,150,150,87.5,92.5,-97.5,92.5,150,170,-172.5,170,412.5,SBD,Single-ply
2,Maria Walter,Masters 1,F,1964-03-09,80.7,84,120,130,137.5,137.5,65,70,75,75,120,130,137.5,137.5,350,SBD,Single-ply
1,Barbara Meyer,Masters 2,F,1961-11-22,83.6,84,85,95,110,110,85,-92.5,-92.5,85,85,105,-110,105,300,SBD,Single-ply
1,Achim Wendlandt,Masters 2,M,1960-07-26,58.6,59,110,120,130,130,95,100,105,105,110,120,130,130,365,SBD,Single-ply
1,Joachim Lietzau,Masters 3,M,1950-12-16,62.1,66,135,-150,-150,135,-130,-135,135,135,135,145,150,150,420,SBD,Single-ply
2,Rainer Geese,Masters 3,M,1943-01-27,64.2,66,-120,120,,120,100,115,120,120,140,160,-170,160,400,SBD,Single-ply
1,Karsten Gelhar,Masters 2,M,1957-11-26,65.8,66,172.5,180,,180,137.5,142.5,145,145,172.5,185,,185,510,SBD,Single-ply
1,Henrik Rilke,Masters 1,M,1970-07-06,65.8,66,225,235,-240,235,135,-145,145,145,215,-230,230,230,610,SBD,Single-ply
5,Andreas Petzold,Masters 2,M,1960-12-15,68.9,74,160,-175,175,175,120,-125,125,125,200,215,-220,215,515,SBD,Single-ply
6,Jörg Panitzsch,Masters 2,M,1954-07-02,69.3,74,180,-190,-190,180,102.5,-110,110,110,180,190,-200,190,480,SBD,Single-ply
1,Ulrich Mielich,Masters 4,M,1939-11-25,71.2,74,80,90,95,95,60,65,67.5,67.5,110,122.5,130,130,292.5,SBD,Single-ply
2,Wolfgang Köster,Masters 3,M,1950-07-27,72,74,145,155,160,160,120,125,-127.5,125,160,175,180,180,465,SBD,Single-ply
3,Gerhard Walz,Masters 2,M,1959-04-04,72.5,74,200,210,220,220,112.5,-117.5,117.5,117.5,210,222.5,-225,222.5,560,SBD,Single-ply
3,Frank Schönnerstedt,Masters 1,M,1966-09-19,72.6,74,205,215,-225,215,92.5,97.5,100,100,190,200,210,210,525,SBD,Single-ply
3,Burkhard Steffen,Masters 3,M,1950-05-29,72.9,74,175,-182.5,185,185,110,115,-120,115,150,155,162.5,162.5,462.5,SBD,Single-ply
1,Wilfried Häusler,Masters 3,M,1942-07-03,73,74,170,180,-190,180,100,110,-112.5,110,170,180,-185,180,470,SBD,Single-ply
2,Detlef Riedel,Masters 2,M,1959-10-24,73.5,74,205,220,225,225,145,162,170,170,200,-210,-210,200,595,SBD,Single-ply
1,Roland Asmus,Masters 2,M,1960-11-26,73.5,74,210,220,230,230,120,130,-135,130,220,240,-247.5,240,600,SBD,Single-ply
4,Thomas Möller,Masters 2,M,1957-12-19,73.7,74,200,210,-215,210,115,-120,120,120,220,-230,-232.5,220,550,SBD,Single-ply
1,Matthias Siegle,Masters 1,M,1963-07-11,73.8,74,210,225,-235,225,-135,135,,135,210,-225,,210,570,SBD,Single-ply
2,János Geerhardt,Masters 1,M,1967-08-15,73.85,74,175,185,-190,185,115,120,125,125,225,235,-242.5,235,545,SBD,Single-ply
1,Gerd Meyerhofer,Masters 4,M,1938-03-29,75.5,83,70,75,80,80,60,65,70,70,100,110,120,120,270,SBD,Single-ply
2,Rainer Schötz,Masters 3,M,1943-03-30,79.8,83,205,-217.5,-220,205,140,-145,-145,140,210,225,230,230,575,SBD,Single-ply
5,Jens Schünemann,Masters 1,M,1966-10-08,80.2,83,180,-200,200,200,150,-155,-160,150,200,215,-225,215,565,SBD,Single-ply
1,Jan Smolczyk,Masters 1,M,1970-07-12,80.3,83,220,230,240,240,165,170,-175,170,240,250,257.5,257.5,667.5,SBD,Single-ply
4,Detlef Krüger,Masters 2,M,1953-12-29,81,83,140,150,155,155,115,122.5,-127.5,122.5,150,160,-165,160,437.5,SBD,Single-ply
2,Robert Robeis,Masters 2,M,1958-05-13,81.2,83,175,185,190,190,-105,-105,105,105,240,255,272.5,272.5,567.5,SBD,Single-ply
1,Rolf Hampel,Masters 2,M,1961-10-02,81.2,83,275,-300,305,305,155,160,,160,270,280,295,295,760,SBD,Single-ply
4,Olaf Meurer,Masters 1,M,1965-03-21,81.6,83,-190,190,,190,167.5,170,-172.5,170,230,-240,-250,230,590,SBD,Single-ply
3,Frank Seth,Masters 1,M,1967-03-28,81.8,83,215,225,230,230,155,160,-162.5,160,205,215,220,220,610,SBD,Single-ply
6,Peter Oehmichen,Masters 1,M,1963-11-06,81.9,83,165,170,175,175,115,120,-125,120,185,195,200,200,495,SBD,Single-ply
DQ,Valerij Kraus,Masters 2,M,1959-04-26,81.9,83,-270,280,-287.5,280,-155,-155,,,275,-285,-295,275,,SBD,Single-ply
1,Günter Lüdecke,Masters 3,M,1948-06-21,82.4,83,205,215,222.5,222.5,137.5,145,-150,145,205,215,225.5,225.5,593,SBD,Single-ply
3,Dieter Wolf,Masters 2,M,1954-09-08,82.6,83,170,180,-182.5,180,125,130,-135,130,190,200,-205,200,510,SBD,Single-ply
2,Bernhard Kotzot,Masters 1,M,1968-09-03,83,83,250,-260,260,260,160,-167.5,-167.5,160,225,235,-250,235,655,SBD,Single-ply
5,Heinz Zahn,Masters 3,M,1945-09-14,84,93,-165,165,-170,165,90,95,100,100,160,170,-180,170,435,SBD,Single-ply
4,Karl Reitze,Masters 3,M,1944-05-05,84.1,93,170,-185,190,190,100,105,-110,105,170,-185,,170,465,SBD,Single-ply
2,Wolf-Peter Springstein,Masters 3,M,1951-05-20,85,93,-190,195,-210,195,155,160,-165,160,200,210,220,220,575,SBD,Single-ply
3,Walter Pfeifer,Masters 3,M,1949-03-06,85.8,93,190,-202.5,-202.5,190,140,-150,,140,-180,180,190,190,520,SBD,Single-ply
6,Frank Keller,Masters 2,M,1961-05-03,86.9,93,-180,185,-195,185,130,140,-150,140,180,-190,-190,180,505,SBD,Single-ply
5,Michael Kürbis,Masters 2,M,1958-05-23,88.4,93,180,195,-210,195,130,-140,-140,130,180,-200,200,200,525,SBD,Single-ply
1,Lutz Schuricht,Masters 3,M,1951-09-01,89.7,93,205,220,230,230,165,175,,175,205,220,-230,220,625,SBD,Single-ply
2,Klaus-Dieter Jakob,Masters 2,M,1961-10-21,90.2,93,200,220,240,240,180,190,,190,205,230,245,245,675,SBD,Single-ply
4,Wolfgang Weidemeier,Masters 2,M,1954-11-30,90.5,93,210,225,232.5,232.5,-125,125,-130,125,225,235,245,245,602.5,SBD,Single-ply
3,Henryk Sulik,Masters 2,M,1959-05-08,90.5,93,230,240,250,250,160,165,-170,165,220,240,245,245,660,SBD,Single-ply
DQ,Herbert Leser,Masters 2,M,1961-06-21,91.6,93,-190,-192.5,-195,,-135,135,-137.5,135,175,-180,,175,,SBD,Single-ply
3,Jochen Stöver,Masters 1,M,1965-05-26,91.9,93,-205,205,220,220,137.5,-150,150,150,250,260,-272.5,260,630,SBD,Single-ply
1,Peer Hänsicke,Masters 2,M,1961-10-02,92.6,93,-260,270,-285,270,-210,210,217.5,217.5,222.5,240,252.5,252.5,740,SBD,Single-ply
2,Michael Pyritz,Masters 1,M,1971-12-01,92.7,93,210,-290,-310,210,-170,-180,180,180,235,-250,252.5,252.5,642.5,SBD,Single-ply
1,Mario Schnurr,Masters 1,M,1966-07-28,92.9,93,280,305,315,315,165,-175,-182.5,165,-280,280,285,285,765,SBD,Single-ply
1,Lothar Borisch,Masters 3,M,1944-06-07,93.9,105,155,-170,175,175,117.5,125,-130,125,185,200,210,210,510,SBD,Single-ply
2,Günther Vogt,Masters 3,M,1950-05-14,96.9,105,170,180,-185,180,130,-140,140,140,160,180,-185,180,500,SBD,Single-ply
1,Dominik Taupinard,Masters 1,M,1967-07-04,97,105,250,270,-290,270,180,195,202.5,202.5,290,305,325,325,797.5,SBD,Single-ply
1,Klaus Feldmann,Masters 4,M,1936-12-16,98.9,105,100,-110,110,110,117.5,-122.5,122.5,122.5,140,150,-160,150,382.5,SBD,Single-ply
3,Ralf Wagner,Masters 2,M,1959-07-05,99.6,105,140,-150,150,150,95,-105,-105,95,170,190,-200,190,435,SBD,Single-ply
5,Pierre Wurch,Masters 1,M,1969-09-17,99.7,105,250,-265,-270,250,-175,-182.5,182.5,182.5,250,-270,-270,250,682.5,SBD,Single-ply
2,Reiner Heinrich,Masters 1,M,1971-02-26,99.7,105,250,-270,275,275,175,-185,-185,175,250,275,282.5,282.5,732.5,SBD,Single-ply
DQ,Markus Hinz,Masters 1,M,1971-10-11,101.7,105,290,310,-330,310,-230,-230,-230,,-260,,,,,SBD,Single-ply
1,Reinhard Melzig,Masters 2,M,1955-11-09,102.5,105,280,300,,300,150,-180,,150,280,-300,300,300,750,SBD,Single-ply
4,Thomas Ziegler,Masters 1,M,1967-08-01,103,105,260,-270,270,270,-185,-185,187.5,187.5,250,-257.5,-257.5,250,707.5,SBD,Single-ply
2,Klaus Cech,Masters 2,M,1960-09-27,103.1,105,180,190,200,200,110,120,-127.5,120,180,190,200,200,520,SBD,Single-ply
3,Josef Grießl,Masters 1,M,1967-12-17,104.3,105,270,-285,290,290,152.5,-160,-160,152.5,275,282.5,-285,282.5,725,SBD,Single-ply
DQ,Jens Christalle,Masters 1,M,1970-05-22,109,120,275,285,-290,285,-270,-270,-280,,,,,,,SBD,Single-ply
1,Xaver Kennerknecht,Masters 3,M,1946-11-19,110.4,120,-190,190,200,200,100,107.5,112.5,112.5,210,235,-250,235,547.5,SBD,Single-ply
2,Martin Fischer,Masters 1,M,1966-05-19,110.4,120,280,300,305,305,180,-190,-200,180,280,300,-315,300,785,SBD,Single-ply
DQ,Hans-Peter Falk,Masters 3,M,1951-12-10,111.7,120,-235,-235,-235,,,,,,,,,,,SBD,Single-ply
1,Krystian Slosarek,Masters 2,M,1958-09-16,113.3,120,250,265,,265,190,-202.5,-202.5,190,250,260,-275,260,715,SBD,Single-ply
3,Michael Rasch,Masters 1,M,1966-04-04,114.7,120,217.5,-225,-227.5,217.5,190,195,200,200,217.5,-222.5,-227.5,217.5,635,SBD,Single-ply
3,Rudolf Küster,Masters 2,M,1955-04-07,117.4,120,260,270,275,275,105,112.5,-120,112.5,260,270,275,275,662.5,SBD,Single-ply
1,Mario Schwanke,Masters 1,M,1971-05-18,119.1,120,270,292.5,302.5,302.5,242.5,-250,252.5,252.5,245,260,-270,260,815,SBD,Single-ply
2,Bernd Meyer,Masters 2,M,1961-03-16,119.6,120,200,220,250,250,220,230,,230,190,215,-225,215,695,SBD,Single-ply
3,Bernd Helfenbein,Masters 2,M,1955-01-27,120.1,120+,210,230,245,245,170,180,,180,200,220,235,235,660,SBD,Single-ply
1,Horst-Ulrich Abels,Masters 3,M,1944-09-08,124.1,120+,140,-160,-182.5,140,-115,-125,140,140,185,205,,205,485,SBD,Single-ply
1,Frank Girrulat,Masters 2,M,1959-06-23,128.3,120+,250,260,-265,260,-245,245,250,250,270,292.5,300,300,810,SBD,Single-ply
2,Andreas Koch,Masters 1,M,1964-08-22,131.1,120+,300,-325,-325,300,210,225,-230,225,265,275,-280,275,800,SBD,Single-ply
DQ,Maik Kleidt,Masters 1,M,1968-01-23,139.7,120+,-345,-355,-360,,,,,,,,,,,SBD,Single-ply
2,Eberhard Schwanke,Masters 2,M,1953-09-07,140.3,120+,260,282.5,-300,282.5,-250,-255,255,255,240,265,272.5,272.5,810,SBD,Single-ply
1,Kay Haasler,Masters 1,M,1971-06-04,144.6,120+,-330,-330,340,340,215,225,235,235,270,290,310,310,885,SBD,Single-ply
