Division,WeightClassKg,Place,Name,Team,BodyweightKg,Best3SquatKg,Best3BenchKg,Best3DeadliftKg,TotalKg,Equipment,Event,Sex
Boys,51.71,1,Blake Smith,Kerens,46.27,79.38,45.36,104.33,229.06,Single-ply,SBD,M
Boys,51.71,2,Alex Stough,Rice,48.99,79.38,47.63,83.91,210.92,Single-ply,SBD,M
Boys,51.71,3,Ivan Navarro,Corsicana Mildred,49.44,68.04,47.63,79.38,195.04,Single-ply,SBD,M
Boys,51.71,DQ,Ezra Zepeda,Red Oak Life,51.71,88.45,,,,Single-ply,SBD,M
Boys,55.79,1,Jaime Luna,Palmer,52.62,142.88,52.16,127.01,322.05,Single-ply,SBD,M
Boys,55.79,2,Max Snodgrass,Blooming Grove,55.34,113.4,65.77,142.88,322.05,Single-ply,SBD,M
Boys,55.79,3,Christian Frost,Blooming Grove,55.79,113.4,70.31,136.08,319.78,Single-ply,SBD,M
Boys,59.87,1,Xavier Scott,Red Oak Life,56.7,122.47,70.31,122.47,315.25,Single-ply,SBD,M
Boys,59.87,2,Tristin LaChapple,Rice,58.06,115.67,77.11,108.86,301.64,Single-ply,SBD,M
Boys,59.87,3,Graham Coker,Corsicana Mildred,56.7,88.45,72.57,124.74,285.76,Single-ply,SBD,M
Boys,59.87,4,Chandler Gordon,Hillsboro,59.87,99.79,68.04,106.59,274.42,Single-ply,SBD,M
Boys,59.87,5,Nathan Childress,Corsicana Mildred,59.87,88.45,52.16,113.4,254.01,Single-ply,SBD,M
Boys,59.87,DQ,Salvador Perez,Palmer,57.61,142.88,,,,Single-ply,SBD,M
Boys,67.13,1,Stephen Lehew,Maypearl,66.68,181.44,124.74,174.63,480.81,Single-ply,SBD,M
Boys,67.13,2,David Colixtor,Teague,63.05,158.76,95.25,158.76,412.77,Single-ply,SBD,M
Boys,67.13,3,Rody Seilheimer,Corsicana Mildred,66.9,149.69,104.33,158.76,412.77,Single-ply,SBD,M
Boys,67.13,4,Alex Ruiz,Dawson,65.77,156.49,65.77,176.9,399.16,Single-ply,SBD,M
Boys,67.13,5,Brazos Sepert,Maypearl,66.22,149.69,68.04,170.1,387.82,Single-ply,SBD,M
Boys,67.13,6,Hector Zamarippa,Palmer,64.86,127.01,90.72,136.08,353.8,Single-ply,SBD,M
Boys,67.13,7,Bradley Walker,Hubbard,62.6,127.01,83.91,133.81,344.73,Single-ply,SBD,M
Boys,67.13,8,Donam Johnson,Hubbard,60.78,129.27,65.77,147.42,342.46,Single-ply,SBD,M
Boys,67.13,9,Alec Wilson,Red Oak Life,61.23,129.27,77.11,133.81,340.19,Single-ply,SBD,M
Boys,67.13,10,Jeremey Ballard,Corsicana Mildred,65.09,124.74,70.31,142.88,337.93,Single-ply,SBD,M
Boys,67.13,11,Oscar Bonilla,Corsicana Mildred,66,120.2,68.04,149.69,337.93,Single-ply,SBD,M
Boys,67.13,12,Dalton Wassinger,Blooming Grove,67.13,129.27,70.31,124.74,324.32,Single-ply,SBD,M
Boys,67.13,13,Luis Domingus,Rice,61.23,108.86,68.04,138.35,315.25,Single-ply,SBD,M
Boys,67.13,14,Shaquille Fields,Rice,61.23,108.86,61.23,136.08,306.17,Single-ply,SBD,M
Boys,67.13,15,Travis Whiteside,Blooming Grove,66.22,102.06,77.11,127.01,306.17,Single-ply,SBD,M
Boys,67.13,16,Jamel Jones,Hubbard,62.6,113.4,56.7,133.81,303.91,Single-ply,SBD,M
Boys,67.13,17,Osvaldo Solis,Rice,63.96,131.54,70.31,102.06,303.91,Single-ply,SBD,M
Boys,67.13,18,LaMarcus Newsome,Oakwood,65.77,104.33,81.65,111.13,297.1,Single-ply,SBD,M
Boys,67.13,19,Bode Shore,Red Oak Life,67.13,86.18,72.57,127.01,285.76,Single-ply,SBD,M
Boys,67.13,20,Trevor Morgan,Red Oak Life,62.6,92.99,72.57,117.93,283.5,Single-ply,SBD,M
Boys,67.13,21,Seth Librado,Hillsboro,67.13,102.06,68.04,106.59,276.69,Single-ply,SBD,M
Boys,67.13,DQ,Charles Norris,Oakwood,63.5,74.84,,,,Single-ply,SBD,M
Boys,67.13,DQ,Ben Nicholson,Blooming Grove,60.78,124.74,,,,Single-ply,SBD,M
Boys,67.13,DQ,Blake Whisenant,Wortham,67.13,129.27,,,,Single-ply,SBD,M
Boys,74.84,1,Logan Shelton,Corsicana Mildred,69.85,183.7,88.45,163.29,435.45,Single-ply,SBD,M
Boys,74.84,2,Coy Jorden,Teague,70.31,145.15,104.33,158.76,408.23,Single-ply,SBD,M
Boys,74.84,3,Louis Collins,Oakwood,74.39,147.42,102.06,142.88,392.36,Single-ply,SBD,M
Boys,74.84,4,Kenneth Hart,Rice,68.49,113.4,108.86,158.76,381.02,Single-ply,SBD,M
Boys,74.84,5,David Stanelle,Red Oak Life,74.84,133.81,90.72,154.22,378.75,Single-ply,SBD,M
Boys,74.84,6,Jayson Jordan,Rice,68.04,136.08,88.45,145.15,369.68,Single-ply,SBD,M
Boys,74.84,7,David Busby,Wortham,74.84,136.08,79.38,154.22,369.68,Single-ply,SBD,M
Boys,74.84,8,Zach Starkey,Kerens,73.48,136.08,81.65,149.69,367.41,Single-ply,SBD,M
Boys,74.84,9,Jason Burgette,Palmer,71.21,142.88,70.31,145.15,358.34,Single-ply,SBD,M
Boys,74.84,10,Joe Ritter,Corsicana Mildred,72.35,104.33,72.57,136.08,312.98,Single-ply,SBD,M
Boys,74.84,11,Haven Proulx,Wortham,74.84,79.38,65.77,122.47,267.62,Single-ply,SBD,M
Boys,74.84,DQ,Dakota Callahan,Corsicana Mildred,69.4,,,,,Single-ply,SBD,M
Boys,82.1,1,Caide Southard,Corsicana Mildred,80.29,172.37,120.2,185.97,478.54,Single-ply,SBD,M
Boys,82.1,2,Dylan Woods,Kerens,81.65,158.76,86.18,174.63,419.57,Single-ply,SBD,M
Boys,82.1,3,Vernon Busby,Wortham,77.56,102.06,92.99,163.29,358.34,Single-ply,SBD,M
Boys,82.1,DQ,Christain Henson,Teague,78.02,142.88,,,,Single-ply,SBD,M
Boys,89.81,1,Dj Woods,Kerens,86.18,224.53,131.54,226.8,582.87,Single-ply,SBD,M
Boys,89.81,2,Jody Bernal,Rice,84.37,163.29,115.67,195.04,474,Single-ply,SBD,M
Boys,89.81,3,Ben Torres,Rice,86.64,183.7,115.67,172.37,471.74,Single-ply,SBD,M
Boys,89.81,4,Ty Tunstall,Teague,89.36,181.44,102.06,181.44,464.93,Single-ply,SBD,M
Boys,89.81,5,Josh Wooten,Kerens,88,145.15,102.06,197.31,444.52,Single-ply,SBD,M
Boys,89.81,6,Ty Chambers,Blooming Grove,89.36,176.9,99.79,163.29,439.98,Single-ply,SBD,M
Boys,89.81,7,Josh Freeman,Hubbard,86.18,174.63,90.72,165.56,430.91,Single-ply,SBD,M
Boys,89.81,8,Brock McFarland,Blooming Grove,83.46,163.29,72.57,172.37,408.23,Single-ply,SBD,M
Boys,89.81,9,Averil Royal,Red Oak Life,88,154.22,97.52,156.49,408.23,Single-ply,SBD,M
Boys,89.81,10,Quintin Weaver,Corsicana Mildred,88.45,124.74,104.33,158.76,387.82,Single-ply,SBD,M
Boys,89.81,11,Ashton Carter,Oakwood,83.46,124.74,97.52,156.49,378.75,Single-ply,SBD,M
Boys,89.81,12,Rustin Feaster,Blooming Grove,88,142.88,81.65,149.69,374.21,Single-ply,SBD,M
Boys,89.81,13,Justin Smith,Rice,87.09,117.93,79.38,142.88,340.19,Single-ply,SBD,M
Boys,89.81,14,Daniel Perez,Wortham,85.73,97.52,61.23,124.74,283.5,Single-ply,SBD,M
Boys,89.81,15,Chris Bernal,Rice,88,108.86,68.04,104.33,281.23,Single-ply,SBD,M
Boys,89.81,DQ,Alan Harden,Palmer,87.09,,,,,Single-ply,SBD,M
Boys,99.79,1,Kelton Henderson,Teague,92.99,226.8,140.61,222.26,589.67,Single-ply,SBD,M
Boys,99.79,2,Joshaua Ashlock,Maypearl,96.16,179.17,99.79,215.46,494.42,Single-ply,SBD,M
Boys,99.79,3,Leonard Smith,Wortham,91.17,188.24,106.59,192.78,487.61,Single-ply,SBD,M
Boys,99.79,4,Chris Perez,Wortham,99.34,161.03,113.4,188.24,462.66,Single-ply,SBD,M
Boys,99.79,5,Dalton Carter,Hillsboro,91.17,147.42,106.59,188.24,442.25,Single-ply,SBD,M
Boys,99.79,6,Aaron Abrego,Hillsboro,99.79,151.95,106.59,161.03,419.57,Single-ply,SBD,M
Boys,99.79,7,Tracy Hightower,Red Oak Life,96.62,149.69,102.06,163.29,415.04,Single-ply,SBD,M
Boys,99.79,8,Dustin Simpson,Hubbard,98.88,142.88,97.52,149.69,390.09,Single-ply,SBD,M
Boys,99.79,9,Taylor Barlow,Corsicana Mildred,93.44,142.88,88.45,147.42,378.75,Single-ply,SBD,M
Boys,99.79,10,Issachar Librado,Hillsboro,91.17,133.81,81.65,147.42,362.87,Single-ply,SBD,M
Boys,99.79,11,Shawn McCord,Palmer,92.08,83.91,77.11,111.13,272.16,Single-ply,SBD,M
Boys,99.79,DQ,Dustin Kemp,Palmer,97.07,,,,,Single-ply,SBD,M
Boys,99.79,DQ,Jake Strother,Dawson,94.35,136.08,,,,Single-ply,SBD,M
Boys,99.79,DQ,Gary Dyer,Teague,99.79,176.9,,,,Single-ply,SBD,M
Boys,99.79,DQ,Ben Long,Teague,98.88,158.76,,,,Single-ply,SBD,M
Boys,109.77,1,Greg Orminston,Maypearl,102.06,217.72,113.4,204.12,535.24,Single-ply,SBD,M
Boys,109.77,2,Noah Pennell,Corsicana Mildred,105.91,204.12,115.67,204.12,523.9,Single-ply,SBD,M
Boys,109.77,3,Johnny Johnson,Teague,107.05,192.78,127.01,195.04,514.83,Single-ply,SBD,M
Boys,109.77,4,Alfredo Librado,Hillsboro,108.41,195.04,117.93,176.9,489.88,Single-ply,SBD,M
Boys,109.77,5,Tanner Reynolds,Corsicana Mildred,108.41,154.22,95.25,170.1,419.57,Single-ply,SBD,M
Boys,109.77,6,Danny Hanna,Corsicana Mildred,102.06,149.69,99.79,165.56,415.04,Single-ply,SBD,M
Boys,109.77,7,Kyle Golden,Dawson,107.95,149.69,113.4,147.42,410.5,Single-ply,SBD,M
Boys,109.77,8,Brandon Abrego,Hillsboro,101.15,142.88,83.91,154.22,381.02,Single-ply,SBD,M
Boys,109.77,9,Nathan Harris,Corsicana Mildred,101.15,142.88,72.57,165.56,381.02,Single-ply,SBD,M
Boys,109.77,10,Dustin Raxter,Blooming Grove,106.14,129.27,83.91,158.76,371.95,Single-ply,SBD,M
Boys,109.77,11,Adam Sherbert,Wortham,104.33,124.74,68.04,136.08,328.85,Single-ply,SBD,M
Boys,124.74,1,Lee Demmings,Dawson,123.83,219.99,136.08,217.72,573.79,Single-ply,SBD,M
Boys,124.74,2,Roddy Williams,Hubbard,118.39,179.17,117.93,199.58,496.68,Single-ply,SBD,M
Boys,124.74,3,Thomas Finigmow,Corsicana Mildred,112.94,192.78,99.79,197.31,489.88,Single-ply,SBD,M
Boys,124.74,4,Chris Hobbs,Kerens,117.48,181.44,104.33,190.51,476.27,Single-ply,SBD,M
Boys,124.74,5,Alex Ellis,Teague,114.31,179.17,113.4,181.44,474,Single-ply,SBD,M
Boys,124.74,6,Pedro Salvador,Hillsboro,115.21,165.56,120.2,188.24,474,Single-ply,SBD,M
Boys,124.74,7,Ej Madrigal,Red Oak Life,115.67,142.88,95.25,151.95,390.09,Single-ply,SBD,M
Boys,124.74,8,Garrett Lane,Blooming Grove,116.12,113.4,79.38,124.74,317.51,Single-ply,SBD,M
Boys,124.74,DQ,Raul Torres,Palmer,115.21,,,,,Single-ply,SBD,M
Boys,124.74,DQ,Scott Sykora,Wortham,111.13,127.01,,,,Single-ply,SBD,M
Boys,124.74,DQ,Donovan Freeman,Wortham,115.67,136.08,,,,Single-ply,SBD,M
Boys,124.74,DQ,Camren Lewis,Wortham,124.28,127.01,,,,Single-ply,SBD,M
Boys,124.74+,1,Shawn McKinney,Hubbard,170.55,249.48,167.83,244.94,662.24,Single-ply,SBD,M
Boys,124.74+,2,Alias Sardanetta,Oakwood,126.1,231.33,104.33,217.72,553.38,Single-ply,SBD,M
Boys,124.74+,3,Allen Hodge,Hillsboro,125.19,199.58,136.08,215.46,551.11,Single-ply,SBD,M
Boys,124.74+,4,Edgar Salvador,Hillsboro,134.72,188.24,113.4,174.63,476.27,Single-ply,SBD,M
Boys,124.74+,5,Blake Spears,Teague,139.25,183.7,102.06,183.7,469.47,Single-ply,SBD,M
