Division,WeightClassKg,Place,Name,Team,BodyweightKg,Best3SquatKg,Best3BenchKg,Best3DeadliftKg,TotalKg,Equipment,Event,Sex
Boys,51.71,1,Patrick Herfurth,Orange Little Cypress-Mauriceville,48.08,106.59,52.16,136.08,294.84,Single-ply,SBD,M
Boys,51.71,2,Regan Ficken,Orangefield,50.8,95.25,54.43,99.79,249.48,Single-ply,SBD,M
Boys,51.71,3,Travis White,Orange Little Cypress-Mauriceville,47.85,86.18,43.09,83.91,213.19,Single-ply,SBD,M
Boys,51.71,4,Spencer Martin,Orange Little Cypress-Mauriceville,41.73,52.16,36.29,70.31,158.76,Single-ply,SBD,M
Boys,55.79,1,Tony Hart,Silsbee,55.79,120.2,83.91,138.35,342.46,Single-ply,SBD,M
Boys,55.79,2,Joey Greer,Orangefield,55.79,115.67,63.5,115.67,294.84,Single-ply,SBD,M
Boys,55.79,DQ,Zach Thomas,Orange Little Cypress-Mauriceville,54.43,,79.38,117.93,,Single-ply,SBD,M
Boys,59.87,1,David Tsan,Orangefield,58.06,147.42,74.84,172.37,394.63,Single-ply,SBD,M
Boys,59.87,2,Tremaine Anderson,West Orange-Stark,58.97,117.93,65.77,145.15,328.85,Single-ply,SBD,M
Boys,67.13,1,Chase Hamshire,Silsbee,65.77,158.76,79.38,170.1,408.23,Single-ply,SBD,M
Boys,67.13,2,Casey Raley,Orangefield,65.32,140.61,108.86,156.49,405.97,Single-ply,SBD,M
Boys,67.13,3,Tanner Potter,Orange Little Cypress-Mauriceville,66.9,127.01,97.52,120.2,344.73,Single-ply,SBD,M
Boys,67.13,4,Kendrick Scott,Silsbee,62.14,113.4,81.65,138.35,333.39,Single-ply,SBD,M
Boys,67.13,5,Brad Bergeron,Orange Little Cypress-Mauriceville,66.22,120.2,77.11,124.74,322.05,Single-ply,SBD,M
Boys,74.84,1,Nick Dockens,Orange Little Cypress-Mauriceville,68.95,226.8,129.27,226.8,582.87,Single-ply,SBD,M
Boys,74.84,2,Britton Lindsey,West Orange-Stark,68.72,222.26,113.4,240.4,576.06,Single-ply,SBD,M
Boys,74.84,3,Joe Lynch,West Orange-Stark,73.94,165.56,113.4,181.44,460.4,Single-ply,SBD,M
Boys,74.84,4,Colin Janice,West Orange-Stark,73.48,163.29,102.06,183.7,449.06,Single-ply,SBD,M
Boys,74.84,5,Jackson Calhoun,Orangefield,70.31,163.29,99.79,181.44,444.52,Single-ply,SBD,M
Boys,74.84,6,Dustin Selman,Orangefield,73.03,174.63,97.52,163.29,435.45,Single-ply,SBD,M
Boys,74.84,7,Abear Simien,West Orange-Stark,71.89,136.08,92.99,188.24,417.3,Single-ply,SBD,M
Boys,74.84,8,Julius Knolley,West Orange-Stark,73.03,136.08,70.31,179.17,385.55,Single-ply,SBD,M
Boys,74.84,9,Matthew Lackey,West Orange-Stark,72.57,124.74,83.91,174.63,383.29,Single-ply,SBD,M
Boys,74.84,10,Anthony Roark,Silsbee,71.21,120.2,88.45,151.95,360.61,Single-ply,SBD,M
Boys,74.84,11,Hunter Puckett,Orangefield,71.21,136.08,79.38,142.88,358.34,Single-ply,SBD,M
Boys,74.84,12,Dylan Gray,Orangefield,70.31,129.27,77.11,140.61,347,Single-ply,SBD,M
Boys,74.84,13,Anthony Kirkendoll,Silsbee,69.85,102.06,88.45,108.86,299.37,Single-ply,SBD,M
Boys,74.84,14,Elijah Miller,Silsbee,74.84,102.06,74.84,108.86,285.76,Single-ply,SBD,M
Boys,82.1,1,Coleton Boudreaux,Orange Little Cypress-Mauriceville,81.42,199.58,124.74,190.51,514.83,Single-ply,SBD,M
Boys,82.1,2,Ladarius Wilkes,West Orange-Stark,75.52,179.17,111.13,165.56,455.86,Single-ply,SBD,M
Boys,82.1,3,Damon Burton,Orangefield,82.1,165.56,108.86,161.03,435.45,Single-ply,SBD,M
Boys,82.1,4,Floyd Spearman,Silsbee,81.65,154.22,104.33,170.1,428.64,Single-ply,SBD,M
Boys,82.1,5,Jacob Keefer,Silsbee,80.74,154.22,102.06,156.49,412.77,Single-ply,SBD,M
Boys,82.1,6,Derrick Pagel,Orangefield,75.75,136.08,83.91,136.08,356.07,Single-ply,SBD,M
Boys,89.81,1,Jonathon Fontenot,Orange Little Cypress-Mauriceville,89.36,254.01,154.22,240.4,648.64,Single-ply,SBD,M
Boys,89.81,2,Ian Putman,Orangefield,84.37,183.7,120.2,167.83,471.74,Single-ply,SBD,M
Boys,89.81,3,Trevor Johnson,Silsbee,88.9,156.49,102.06,208.65,467.2,Single-ply,SBD,M
Boys,89.81,4,Ross Gilchriest,Silsbee,88.45,167.83,113.4,172.37,453.59,Single-ply,SBD,M
Boys,89.81,5,Daniel Woodson,West Orange-Stark,82.78,154.22,90.72,179.17,424.11,Single-ply,SBD,M
Boys,89.81,6,Dylan Brackens,West Orange-Stark,83.23,142.88,77.11,154.22,374.21,Single-ply,SBD,M
Boys,89.81,7,Gerardo Santos,Orangefield,89.36,142.88,81.65,113.4,337.93,Single-ply,SBD,M
Boys,99.79,1,Mitchell Jennings,Orange Little Cypress-Mauriceville,99.11,219.99,158.76,179.17,557.92,Single-ply,SBD,M
Boys,99.79,2,Lawrence Gilmore,West Orange-Stark,94.35,167.83,117.93,238.14,523.9,Single-ply,SBD,M
Boys,99.79,3,David Hollyfield,Silsbee,98.88,185.97,136.08,197.31,519.36,Single-ply,SBD,M
Boys,99.79,4,Andrew Meyers,Orange Little Cypress-Mauriceville,94.8,183.7,106.59,183.7,474,Single-ply,SBD,M
Boys,99.79,5,Tanner Humble,Silsbee,93.21,149.69,92.99,151.95,394.63,Single-ply,SBD,M
Boys,99.79,6,Brandon Nash,Orange Little Cypress-Mauriceville,98.43,129.27,88.45,158.76,376.48,Single-ply,SBD,M
Boys,99.79,7,Dillon Morgan,Silsbee,95.25,113.4,83.91,145.15,342.46,Single-ply,SBD,M
Boys,109.77,1,Bret Treadway,Silsbee,105.69,204.12,149.69,206.38,560.19,Single-ply,SBD,M
Boys,109.77,2,Seth Adams,Silsbee,105.91,174.63,115.67,163.29,453.59,Single-ply,SBD,M
Boys,109.77,3,Jerquis Beasley,West Orange-Stark,107.05,161.03,111.13,156.49,428.64,Single-ply,SBD,M
Boys,109.77,4,Bryan Lopez,Orangefield,104.33,181.44,86.18,113.4,381.02,Single-ply,SBD,M
Boys,124.74,1,Cameron Allen,Orange Little Cypress-Mauriceville,122.24,224.53,151.95,242.67,619.15,Single-ply,SBD,M
Boys,124.74,2,Ian Jenkins,West Orange-Stark,110.22,215.46,147.42,226.8,589.67,Single-ply,SBD,M
Boys,124.74,3,Doc Maricle,Silsbee,121.11,174.63,131.54,204.12,510.29,Single-ply,SBD,M
Boys,124.74,4,Justin Petry,West Orange-Stark,111.13,154.22,111.13,204.12,469.47,Single-ply,SBD,M
Boys,124.74,5,Terrance Dennis,West Orange-Stark,120.43,156.49,92.99,190.51,439.98,Single-ply,SBD,M
Boys,124.74+,1,Ryan Allen,West Orange-Stark,145.15,240.4,136.08,254.01,630.49,Single-ply,SBD,M
Boys,124.74+,2,Tyler Howlett,Orange Little Cypress-Mauriceville,138.35,142.88,88.45,163.29,394.63,Single-ply,SBD,M
Boys,124.74+,3,Ryan Burns,Orange Little Cypress-Mauriceville,128.14,120.2,83.91,151.95,356.07,Single-ply,SBD,M
