Division,WeightClassKg,Place,Name,Team,BodyweightKg,Best3SquatKg,Best3BenchKg,Best3DeadliftKg,TotalKg,Equipment,Event,Sex
Boys,51.71,1,Matthew Thomas,Decatur,50.35,83.91,38.56,97.52,219.99,Single-ply,SBD,M
Boys,55.79,1,Renier Reyes,Decatur,53.07,122.47,83.91,124.74,331.12,Single-ply,SBD,M
Boys,59.87,1,Isaac Pacheco,Decatur,58.06,129.27,65.77,142.88,337.93,Single-ply,SBD,M
Boys,59.87,2,Ruben Gonzalez,Bridgeport,59.87,97.52,52.16,104.33,254.01,Single-ply,SBD,M
Boys,59.87,3,Zane White,Bridgeport,58.06,88.45,52.16,106.59,247.21,Single-ply,SBD,M
Boys,59.87,4,Blake Sutherland,Bridgeport,58.51,79.38,52.16,106.59,238.14,Single-ply,SBD,M
Boys,67.13,1,Landon Herring,Bridgeport,64.86,138.35,70.31,147.42,356.07,Single-ply,SBD,M
Boys,67.13,2,Jack Huff,Mineral Wells,66.22,124.74,77.11,124.74,326.59,Single-ply,SBD,M
Boys,67.13,3,Hunter Huggins,Decatur,66.68,133.81,61.23,124.74,319.78,Single-ply,SBD,M
Boys,67.13,4,Dayton Lawson,Bridgeport,67.13,124.74,61.23,120.2,306.17,Single-ply,SBD,M
Boys,67.13,5,Clayton Christian,Decatur,66.22,97.52,74.84,113.4,285.76,Single-ply,SBD,M
Boys,74.84,1,Zachary Schneider,Weatherford,71.67,170.1,95.25,158.76,424.11,Single-ply,SBD,M
Boys,74.84,2,Colton Ligon,Graham,73.03,158.76,83.91,158.76,401.43,Single-ply,SBD,M
Boys,74.84,3,Kyle Markum,Weatherford,70.76,138.35,81.65,149.69,369.68,Single-ply,SBD,M
Boys,74.84,4,Matthew Morales,Bridgeport,71.67,136.08,79.38,136.08,351.53,Single-ply,SBD,M
Boys,74.84,5,Garen Webster,Decatur,68.04,142.88,72.57,124.74,340.19,Single-ply,SBD,M
Boys,82.1,1,Landon Hebert,Graham,82.1,199.58,106.59,188.24,494.42,Single-ply,SBD,M
Boys,82.1,2,Blaine Shaw,Weatherford,80.29,154.22,108.86,163.29,426.38,Single-ply,SBD,M
Boys,82.1,3,Cole Wright,Weatherford,82.1,140.61,113.4,151.95,405.97,Single-ply,SBD,M
Boys,82.1,4,Jackson Carroll,Decatur,78.47,140.61,99.79,156.49,396.89,Single-ply,SBD,M
Boys,82.1,5,Karter Houchin,Decatur,81.19,133.81,74.84,149.69,358.34,Single-ply,SBD,M
Boys,82.1,6,Damian Williams,Bridgeport,79.38,74.84,68.04,90.72,233.6,Single-ply,SBD,M
Boys,89.81,1,Isaiah Galvan,Mineral Wells,87.09,158.76,102.06,170.1,430.91,Single-ply,SBD,M
Boys,89.81,2,Tommy Mercer,Graham,89.36,158.76,108.86,142.88,410.5,Single-ply,SBD,M
Boys,89.81,3,Derek Martinez,Bridgeport,84.37,117.93,79.38,136.08,333.39,Single-ply,SBD,M
Boys,99.79,1,Logan Bond,Graham,92.53,174.63,92.99,172.37,439.98,Single-ply,SBD,M
Boys,99.79,2,Hunter Rice,Mineral Wells,96.16,163.29,99.79,165.56,428.64,Single-ply,SBD,M
Boys,99.79,3,Gage Barrett,Decatur,90.72,158.76,90.72,154.22,403.7,Single-ply,SBD,M
Boys,99.79,4,Carson Wicker,Decatur,95.71,158.76,86.18,158.76,403.7,Single-ply,SBD,M
Boys,99.79,5,Boston Brewer,Graham,99.79,136.08,90.72,142.88,369.68,Single-ply,SBD,M
Boys,99.79,6,Logan Marshall,Bridgeport,92.08,111.13,83.91,147.42,342.46,Single-ply,SBD,M
Boys,99.79,7,Kaden Newsome,Mineral Wells,93.89,136.08,56.7,136.08,328.85,Single-ply,SBD,M
Boys,99.79,8,Douglas Teter,Bridgeport,92.99,111.13,70.31,120.2,301.64,Single-ply,SBD,M
Boys,109.77,1,Brant Coley,Graham,106.59,215.46,142.88,190.51,548.85,Single-ply,SBD,M
Boys,109.77,2,Cayden Markus,Weatherford,109.77,195.04,131.54,195.04,521.63,Single-ply,SBD,M
Boys,109.77,3,Dylan Choates,Weatherford,104.33,185.97,113.4,181.44,480.81,Single-ply,SBD,M
Boys,109.77,4,Gary Obanon,Mineral Wells,105.23,151.95,70.31,183.7,405.97,Single-ply,SBD,M
Boys,109.77,5,Kayden Linehan,Weatherford,105.23,79.38,68.04,102.06,249.48,Single-ply,SBD,M
Boys,124.74,1,Brian Stricklin,Weatherford,113.85,142.88,92.99,161.03,396.89,Single-ply,SBD,M
Boys,124.74,2,Cameron Beard,Weatherford,116.57,149.69,83.91,154.22,387.82,Single-ply,SBD,M
Boys,124.74,3,Teshawn Heaton,Bridgeport,116.12,111.13,88.45,142.88,342.46,Single-ply,SBD,M
Boys,124.74,4,Ian Sanchez,Mineral Wells,112.49,15.88,88.45,142.88,247.21,Single-ply,SBD,M
Boys,124.74+,1,Hayden Philpot,Decatur,129.73,181.44,124.74,172.37,478.54,Single-ply,SBD,M
