Division,WeightClassKg,Place,Name,Team,BodyweightKg,Best3SquatKg,Best3BenchKg,Best3DeadliftKg,TotalKg,Equipment,Event,Sex
Boys,51.71,1,Jessie Jarmillo,Smithville,51.62,129.27,83.91,142.88,356.07,Single-ply,SBD,M
Boys,51.71,2,Miguel Contreras,Robinson,50.71,149.69,68.04,129.27,347,Single-ply,SBD,M
Boys,55.79,3,Bryan Martinez,Taylor,51.8,154.22,61.23,127.01,342.46,Single-ply,SBD,M
Boys,55.79,4,Dominique Mallard,Navasota,51.8,127.01,65.77,136.08,328.85,Single-ply,SBD,M
Boys,55.79,5,Gilbert Velasquez,Taylor,51.89,104.33,77.11,122.47,303.91,Single-ply,SBD,M
Boys,51.71,6,Antonio Ponce,Glen Rose,46.54,108.86,49.9,136.08,294.84,Single-ply,SBD,M
Boys,51.71,7,Sam Brock,China Spring,51.26,104.33,63.5,113.4,281.23,Single-ply,SBD,M
Boys,51.71,8,Chirs Abbot,Navasota,44.54,86.18,47.63,113.4,247.21,Single-ply,SBD,M
Boys,51.71,9,Cody Halcom,Glen Rose,44.27,86.18,43.09,99.79,229.06,Single-ply,SBD,M
Boys,51.71,DQ,Kyle Ramsey,Navasota,50.35,127.01,,,,Single-ply,SBD,M
Boys,55.79,1,Marcos Mendoza,Salado,55.79,172.37,92.99,174.63,439.98,Single-ply,SBD,M
Boys,59.87,2,Darius Mallard,Navasota,55.97,156.49,90.72,179.17,426.38,Single-ply,SBD,M
Boys,55.79,3,Tanner Blackwell,Gatesville,54.98,147.42,74.84,158.76,381.02,Single-ply,SBD,M
Boys,55.79,4,Grady Rhoden,Alvarado,55.07,140.61,70.31,151.95,362.87,Single-ply,SBD,M
Boys,55.79,5,Kyle Stafford,Navasota,54.98,140.61,74.84,140.61,356.07,Single-ply,SBD,M
Boys,55.79,6,Will Meng,Liberty Hill,55.79,142.88,79.38,133.81,356.07,Single-ply,SBD,M
Boys,59.87,7,Austin Blalock,Burleson Centennial,55.97,129.27,74.84,145.15,349.27,Single-ply,SBD,M
Boys,55.79,8,Jesus Tonche,Waco Connally,54.52,131.54,70.31,145.15,347,Single-ply,SBD,M
Boys,55.79,9,Cameron Wisonwski,Navasota,55.52,102.06,63.5,122.47,288.03,Single-ply,SBD,M
Boys,59.87,1,Victor Aguilar,Caldwell,57.06,217.72,124.74,170.1,512.56,Single-ply,SBD,M
Boys,59.87,2,Josh McCraw,Gatesville,57.42,197.31,99.79,181.44,478.54,Single-ply,SBD,M
Boys,59.87,3,Hunter Work,Robinson,59.06,170.1,115.67,181.44,467.2,Single-ply,SBD,M
Boys,59.87,4,Conner Barrett,Llano,58.51,167.83,86.18,165.56,419.57,Single-ply,SBD,M
Boys,59.87,5,Juan Hernandez,Mexia,58.51,142.88,83.91,181.44,408.23,Single-ply,SBD,M
Boys,59.87,6,Melvin Flores,Lampasas,59.69,142.88,79.38,174.63,396.89,Single-ply,SBD,M
Boys,59.87,7,Manuel Rodriguez,Robinson,58.79,154.22,77.11,163.29,394.63,Single-ply,SBD,M
Boys,59.87,8,Erick Navaro,Navasota,59.42,149.69,81.65,161.03,392.36,Single-ply,SBD,M
Boys,59.87,9,Brad Gravitt,China Spring,58.69,142.88,74.84,163.29,381.02,Single-ply,SBD,M
Boys,59.87,DQ,Michael McIntire,Taylor,59.6,215.46,,,,Single-ply,SBD,M
Boys,59.87,DQ,Joseph Marmolejo,Taylor,58.88,136.08,,,,Single-ply,SBD,M
Boys,67.13,1,Alex Leos,Robinson,66.77,235.87,117.93,219.99,573.79,Single-ply,SBD,M
Boys,67.13,2,Zach Konieczny,Sealy,65.86,208.65,129.27,199.58,537.51,Single-ply,SBD,M
Boys,67.13,3,Rene Rivas,Venus,66.13,192.78,104.33,226.8,523.9,Single-ply,SBD,M
Boys,67.13,4,Chase McGhee,Gatesville,65.59,210.92,117.93,190.51,519.36,Single-ply,SBD,M
Boys,67.13,5,David Salazar,Taylor,66.04,204.12,115.67,195.04,514.83,Single-ply,SBD,M
Boys,67.13,6,Jong Hoon Lim,Gatesville,66.32,183.7,124.74,195.04,503.49,Single-ply,SBD,M
Boys,74.84,7,Brandon Marsh,Burleson Centennial,67.22,183.7,108.86,204.12,496.68,Single-ply,SBD,M
Boys,67.13,8,Lane Fikes,Robinson,66.86,172.37,106.59,215.46,494.42,Single-ply,SBD,M
Boys,67.13,DQ,Coy Hart,Venus,64.59,181.44,,,,Single-ply,SBD,M
Boys,67.13,DQ,Royal Lucas,Taylor,67.04,206.38,,,,Single-ply,SBD,M
Boys,74.84,1,Kendrick Armstead,Navasota,72.76,281.23,145.15,215.46,641.83,Single-ply,SBD,M
Boys,74.84,2,Travis Cooke,China Spring,72.3,217.72,151.95,219.99,589.67,Single-ply,SBD,M
Boys,74.84,3,DeRon Bullard,Giddings,74.84,213.19,142.88,208.65,564.72,Single-ply,SBD,M
Boys,74.84,4,Tracy Washington,Mexia,69.94,172.37,108.86,217.72,498.95,Single-ply,SBD,M
Boys,74.84,5,Sotero Lara,Giddings,74.84,190.51,108.86,199.58,498.95,Single-ply,SBD,M
Boys,74.84,6,Brandon Fortune,Alvarado,73.84,181.44,99.79,208.65,489.88,Single-ply,SBD,M
Boys,74.84,7,Ramiro Fraire,West,72.03,199.58,104.33,181.44,485.34,Single-ply,SBD,M
Boys,74.84,8,Juan Lince,Hillsboro,74.48,174.63,99.79,174.63,449.06,Single-ply,SBD,M
Boys,74.84,DQ,Cameron Terrell,Waco Connally,70.13,179.17,95.25,,,Single-ply,SBD,M
Boys,74.84,DQ,Zach Robinson,Salado,72.57,,,,,Single-ply,SBD,M
Boys,82.1,1,Martin Balderas,Groesbeck,81.83,238.14,142.88,254.01,635.03,Single-ply,SBD,M
Boys,82.1,2,Thomas Ewing,Giddings,79.92,204.12,117.93,219.99,542.04,Single-ply,SBD,M
Boys,82.1,3,Ben Mungia,Glen Rose,80.47,226.8,113.4,199.58,539.77,Single-ply,SBD,M
Boys,82.1,4,Blake Dunham,Burleson Centennial,79.83,217.72,115.67,204.12,537.51,Single-ply,SBD,M
Boys,82.1,5,Cole Barrett,Llano,81.83,213.19,117.93,181.44,512.56,Single-ply,SBD,M
Boys,82.1,6,Ben Parrish,Groesbeck,80.65,213.19,108.86,185.97,508.02,Single-ply,SBD,M
Boys,82.1,DQ,Nathan Cornett,Alvarado,80.83,217.72,136.08,,,Single-ply,SBD,M
Boys,82.1,DQ,Jonah Pearson,Liberty Hill,79.11,208.65,,,,Single-ply,SBD,M
Boys,82.1,DQ,Jarred Goedeke,Robinson,79.92,176.9,106.59,,,Single-ply,SBD,M
Boys,89.81,1,Justin Oestreich,Llano,89.36,215.46,122.47,235.87,573.79,Single-ply,SBD,M
Boys,89.81,2,Howard Horn,Navasota,85,210.92,131.54,226.8,569.26,Single-ply,SBD,M
Boys,89.81,3,Rashaad Miller,China Spring,83.46,197.31,131.54,235.87,564.72,Single-ply,SBD,M
Boys,89.81,4,Gerald Horne II,Waco La Vega,89.27,215.46,140.61,208.65,564.72,Single-ply,SBD,M
Boys,89.81,5,DaAaron Jackson,Smithville,87.91,226.8,115.67,208.65,551.11,Single-ply,SBD,M
Boys,89.81,6,Mikey Sellers,Salado,86.27,240.4,124.74,181.44,546.58,Single-ply,SBD,M
Boys,89.81,DQ,Laurence Cisneros,Burleson Centennial,89.36,,,,,Single-ply,SBD,M
Boys,89.81,DQ,Robert Robinson,Mexia,88.63,,,,,Single-ply,SBD,M
Boys,89.81,DQ,Jamie Czajkowski,Rockdale,88.09,233.6,,,,Single-ply,SBD,M
Boys,89.81,DQ,Justin Maldonado,Lampasas,88,208.65,,,,Single-ply,SBD,M
Boys,99.79,1,Deon Hutchinson,Giddings,95.62,254.01,149.69,254.01,657.71,Single-ply,SBD,M
Boys,99.79,2,Shaq Walker,Waco La Vega,98.25,249.48,129.27,258.55,637.3,Single-ply,SBD,M
Boys,99.79,3,Juan Nunez,Caldwell,97.98,249.48,151.95,233.6,635.03,Single-ply,SBD,M
Boys,99.79,4,Heath Antwan,Caldwell,96.43,224.53,136.08,244.94,605.55,Single-ply,SBD,M
Boys,99.79,5,Secody Howard,Lampasas,99.34,226.8,117.93,240.4,585.13,Single-ply,SBD,M
Boys,99.79,6,Chris Robinson,Waco Connally,93.62,226.8,122.47,226.8,576.06,Single-ply,SBD,M
Boys,109.77,7,Guadalupe Munzo,Waco La Vega,99.88,215.46,140.61,190.51,546.58,Single-ply,SBD,M
Boys,99.79,8,Matt Gerik,West,92.26,215.46,115.67,204.12,535.24,Single-ply,SBD,M
Boys,99.79,9,Dalton Symm,China Spring,94.89,199.58,136.08,188.24,523.9,Single-ply,SBD,M
Boys,99.79,DQ,Shawn Dehart,Liberty Hill,94.89,210.92,,,,Single-ply,SBD,M
Boys,109.77,1,Billy Golding,Salado,108.14,267.62,142.88,226.8,637.3,Single-ply,SBD,M
Boys,109.77,2,Seth White,Alvarado,104.78,265.35,142.88,224.53,632.76,Single-ply,SBD,M
Boys,109.77,3,Aj Castillo,Alvarado,101.15,233.6,147.42,226.8,607.81,Single-ply,SBD,M
Boys,109.77,4,Josh Carroll,Waco La Vega,103.06,224.53,129.27,240.4,594.21,Single-ply,SBD,M
Boys,109.77,5,Vincent Hernandez,Liberty Hill,107.77,258.55,117.93,206.38,582.87,Single-ply,SBD,M
Boys,109.77,6,Peter Wimberly,China Spring,106.59,231.33,142.88,201.85,576.06,Single-ply,SBD,M
Boys,109.77,DQ,Alfredo Librado,Hillsboro,109.04,240.4,,,,Single-ply,SBD,M
Boys,109.77,DQ,Diontre Oliver,Mexia,101.79,231.33,113.4,,,Single-ply,SBD,M
Boys,109.77,DQ,Dan Goldman,Salado,107.86,,,,,Single-ply,SBD,M
Boys,109.77,DQ,D'Andra Minnitt,Waco La Vega,103.24,249.48,131.54,,,Single-ply,SBD,M
Boys,109.77,DQ,Ryan de la Garza,Waco Connally,104.24,,,,,Single-ply,SBD,M
Boys,124.74,1,Jared Thames,Glen Rose,122.38,285.76,204.12,249.48,739.36,Single-ply,SBD,M
Boys,124.74,2,Autra Maxey,Navasota,116.48,276.69,154.22,272.16,703.07,Single-ply,SBD,M
Boys,124.74,3,Brian Pullen,China Spring,118.84,290.3,163.29,229.06,682.66,Single-ply,SBD,M
Boys,124.74,4,Dwight Holder,Waco La Vega,119.2,254.01,142.88,229.06,625.96,Single-ply,SBD,M
Boys,124.74,5,Colton Ridley,Gatesville,118.57,263.08,151.95,204.12,619.15,Single-ply,SBD,M
Boys,124.74,6,Jordan Wells,Navasota,118.3,222.26,154.22,231.33,607.81,Single-ply,SBD,M
Boys,124.74,7,Andy McNew,Robinson,117.03,238.14,142.88,219.99,601.01,Single-ply,SBD,M
Boys,124.74,8,Anthony Barraza,Groesbeck,114.76,244.94,127.01,219.99,591.94,Single-ply,SBD,M
Boys,124.74,DQ,Ivan Garciduenas,Burleson Centennial,119.84,267.62,151.95,,,Single-ply,SBD,M
Boys,124.74,DQ,Geno Whitt,Burleson Centennial,123.1,251.74,129.27,,,Single-ply,SBD,M
Boys,124.74+,1,Zac Perez,Glen Rose,128.28,322.05,185.97,217.72,725.75,Single-ply,SBD,M
Boys,124.74+,2,Allen Hodge,Hillsboro,141.25,285.76,199.58,235.87,721.21,Single-ply,SBD,M
Boys,124.74+,3,Shane Murphy,Robinson,160.75,267.62,199.58,226.8,694,Single-ply,SBD,M
Boys,124.74+,4,Reggie Williams,Burleson Centennial,127.82,247.21,131.54,256.28,635.03,Single-ply,SBD,M
Boys,124.74+,5,Marcelo Ramirez,Waco La Vega,133.63,242.67,122.47,249.48,614.62,Single-ply,SBD,M
Boys,124.74+,6,Jake Dibble,Lampasas,134.99,204.12,111.13,213.19,528.44,Single-ply,SBD,M
Boys,124.74+,DQ,Pedro Salvador,Hillsboro,126.37,229.06,,,,Single-ply,SBD,M
Boys,124.74+,DQ,Edgar Salvador,Hillsboro,145.6,249.48,145.15,,,Single-ply,SBD,M
Boys,124.74+,DQ,Jonathon Ramirez,Giddings,148.6,,,,,Single-ply,SBD,M
Boys,124.74+,DQ,Tyler White,Navasota,138.98,204.12,,,,Single-ply,SBD,M
