Division,WeightClassKg,Place,Name,Team,BodyweightKg,Best3SquatKg,Best3BenchKg,Best3DeadliftKg,TotalKg,Equipment,Event,Sex
Boys,51.71,1,Jermaine Mendiola,Somerset,51.39,181.44,88.45,163.29,433.18,Single-ply,SBD,M
Boys,51.71,2,Angel Bermundez,Poteet,50.48,158.76,99.79,156.49,415.04,Single-ply,SBD,M
Boys,51.71,3,Pete Olivarez,Orange Grove,51.12,163.29,92.99,151.95,408.23,Single-ply,SBD,M
Boys,51.71,4,Julian Ortega,Rio Hondo,51.66,142.88,92.99,163.29,399.16,Single-ply,SBD,M
Boys,51.71,5,Isaiah Lucio,Pearsall,50.89,133.81,88.45,140.61,362.87,Single-ply,SBD,M
Boys,51.71,6,Ramiro Mendez,Raymondville,51.71,111.13,77.11,156.49,344.73,Single-ply,SBD,M
Boys,51.71,7,Brian Villarreal,Geronimo Navarro,46.9,113.4,65.77,142.88,322.05,Single-ply,SBD,M
Boys,55.79,8,Jose Gomez,Crystal City,51.94,122.47,52.16,140.61,315.25,Single-ply,SBD,M
Boys,51.71,9,Ivan Rosales,Columbus,47.49,111.13,65.77,124.74,301.64,Single-ply,SBD,M
Boys,55.79,DQ,Rudy Rios,Devine,51.75,,,,,Single-ply,SBD,M
Boys,55.79,1,Ralph Zapata,Rio Hondo,54.88,172.37,92.99,174.63,439.98,Single-ply,SBD,M
Boys,59.87,2,Jm Elizondo,Pearsall,55.84,170.1,79.38,172.37,421.84,Single-ply,SBD,M
Boys,55.79,3,Dimas Tenorio,Crystal City,54.66,136.08,104.33,167.83,408.23,Single-ply,SBD,M
Boys,55.79,4,Jesus Trevino,Zapata,55.29,145.15,90.72,172.37,408.23,Single-ply,SBD,M
Boys,55.79,5,AJ Ramirez,Raymondville,55.75,136.08,83.91,156.49,376.48,Single-ply,SBD,M
Boys,55.79,6,Sebastian Estrada,Somerset,55.43,124.74,74.84,140.61,340.19,Single-ply,SBD,M
Boys,55.79,DQ,Jonathan Loveall,Rockport-Fulton,55.16,,,,,Single-ply,SBD,M
Boys,55.79,DQ,Eder Contreras,Hidalgo Early College,55.7,,,,,Single-ply,SBD,M
Boys,55.79,DQ,Mike Barajas,Hidalgo Early College,55.11,,,,,Single-ply,SBD,M
Boys,55.79,DQ,Raul Guerra,Poteet,55.47,,,,,Single-ply,SBD,M
Boys,59.87,1,Ricky Guerra,Poteet,58.51,199.58,131.54,199.58,530.7,Single-ply,SBD,M
Boys,59.87,2,Rudy Martinez,Carrizo Springs,59.33,199.58,102.06,204.12,505.76,Single-ply,SBD,M
Boys,59.87,3,Jason Harries,Orange Grove,58.47,181.44,102.06,176.9,460.4,Single-ply,SBD,M
Boys,59.87,4,Raul Cruz,Carrizo Springs,59.06,167.83,95.25,183.7,446.79,Single-ply,SBD,M
Boys,59.87,5,Alex Ortiz,Gonzales,59.47,181.44,97.52,165.56,444.52,Single-ply,SBD,M
Boys,67.13,6,Maclovio Gomez,Zapata,59.96,158.76,95.25,185.97,439.98,Single-ply,SBD,M
Boys,59.87,7,Artemio Garcia,Zapata,59.74,158.76,99.79,158.76,417.3,Single-ply,SBD,M
Boys,59.87,8,Adrain Torres,La Feria,58.33,158.76,81.65,170.1,410.5,Single-ply,SBD,M
Boys,59.87,9,Matthew Medrano,Pearsall,58.74,142.88,81.65,174.63,399.16,Single-ply,SBD,M
Boys,59.87,DQ,Steffan Brown,Columbus,58.74,170.1,,,,Single-ply,SBD,M
Boys,67.13,1,James Zaragoza,Raymondville,64.95,226.8,127.01,206.38,560.19,Single-ply,SBD,M
Boys,67.13,2,Kutter Schmidt,Devine,66.72,224.53,136.08,195.04,555.65,Single-ply,SBD,M
Boys,67.13,3,Felix Gutierrez,Crystal City,63.96,192.78,142.88,215.46,551.11,Single-ply,SBD,M
Boys,67.13,4,Alan Alfaro,Rio Hondo,66.13,208.65,111.13,231.33,551.11,Single-ply,SBD,M
Boys,67.13,5,Julio Rodriguez,Raymondville,66.13,190.51,129.27,224.53,544.31,Single-ply,SBD,M
Boys,67.13,6,Heliseo Guerrero,Rio Hondo,65.18,188.24,124.74,199.58,512.56,Single-ply,SBD,M
Boys,67.13,7,Juan Gonzales,Yoakum,66.59,190.51,140.61,179.17,510.29,Single-ply,SBD,M
Boys,67.13,8,Julian Flores,Rio Hondo,65.5,181.44,122.47,183.7,487.61,Single-ply,SBD,M
Boys,67.13,9,Travis Ramos,Lyford,66.72,183.7,108.86,181.44,474,Single-ply,SBD,M
Boys,67.13,DQ,Guillermo Sac,Hidalgo Early College,64.82,,,,,Single-ply,SBD,M
Boys,74.84,1,Nathan Medrano,Lytle,71.67,249.48,136.08,204.12,589.67,Single-ply,SBD,M
Boys,74.84,2,Jesse Leyva,Raymondville,74.43,210.92,136.08,226.8,573.79,Single-ply,SBD,M
Boys,74.84,3,Andrew Ray,Columbus,73.98,219.99,120.2,226.8,566.99,Single-ply,SBD,M
Boys,74.84,4,Chris McGlaun,Ingleside,74.48,231.33,111.13,210.92,553.38,Single-ply,SBD,M
Boys,74.84,5,Chain Camacho,Port Isabel,70.17,188.24,133.81,204.12,526.17,Single-ply,SBD,M
Boys,74.84,6,Taylor Nguyen,Rockport-Fulton,73.66,179.17,106.59,197.31,483.08,Single-ply,SBD,M
Boys,74.84,7,Joey Guzman,Rio Hondo,74.39,174.63,117.93,19.96,312.53,Single-ply,SBD,M
Boys,82.1,DQ,Antonio Martnez,Lytle,74.89,,,,,Single-ply,SBD,M
Boys,74.84,DQ,Tristen Taylor,Rockport-Fulton,73.94,,,,,Single-ply,SBD,M
Boys,74.84,DQ,Jared Garza,Yoakum,71.26,,,,,Single-ply,SBD,M
Boys,74.84,DQ,John Ray Martinez,Port Isabel,73.48,,,,,Single-ply,SBD,M
Boys,82.1,1,Adan Cantu,Rio Grande City Grulla,80.01,263.08,142.88,224.53,630.49,Single-ply,SBD,M
Boys,82.1,2,German Uscanga,Robstown,80.33,229.06,154.22,229.06,612.35,Single-ply,SBD,M
Boys,82.1,3,Jamie Tellez,Gonzales,80.97,240.4,133.81,238.14,612.35,Single-ply,SBD,M
Boys,82.1,4,Abram Ramirez,Rio Hondo,79.47,238.14,145.15,224.53,607.81,Single-ply,SBD,M
Boys,82.1,5,Christopher Vinton,Pearsall,81.65,238.14,145.15,208.65,591.94,Single-ply,SBD,M
Boys,82.1,6,Orlando Medrano,Lytle,79.61,226.8,147.42,215.46,589.67,Single-ply,SBD,M
Boys,82.1,7,Thomas Trevino,Pleasanton,79.56,235.87,131.54,215.46,582.87,Single-ply,SBD,M
Boys,82.1,8,AJ Camacho,Hondo,80.88,242.67,122.47,197.31,562.45,Single-ply,SBD,M
Boys,82.1,9,Jay Leal,Geronimo Navarro,79.24,206.38,117.93,235.87,560.19,Single-ply,SBD,M
Boys,82.1,10,Jonathan Darby,Lytle,80.33,204.12,106.59,235.87,546.58,Single-ply,SBD,M
Boys,89.81,1,Ramon Sauceda,La Feria,89.36,272.16,190.51,276.69,739.36,Single-ply,SBD,M
Boys,89.81,2,Domingo Gonzalez,Rockport-Fulton,89.81,229.06,131.54,269.89,630.49,Single-ply,SBD,M
Boys,89.81,3,Isaiah Heredia,Rio Hondo,87.09,226.8,138.35,233.6,598.74,Single-ply,SBD,M
Boys,89.81,4,Stephen Dorado,Rio Hondo,85.64,224.53,158.76,208.65,591.94,Single-ply,SBD,M
Boys,89.81,5,Demetri Molina,Somerset,86.64,233.6,131.54,222.26,587.4,Single-ply,SBD,M
Boys,89.81,6,Silvero Trejo,Pearsall,88.77,229.06,138.35,217.72,585.13,Single-ply,SBD,M
Boys,89.81,7,Dylan Aguinaga,Lytle,83.28,219.99,124.74,233.6,578.33,Single-ply,SBD,M
Boys,89.81,8,John Valdez,Somerset,85.14,215.46,151.95,210.92,578.33,Single-ply,SBD,M
Boys,89.81,9,Jason Paterson,Kingsville King,88.68,217.72,129.27,215.46,562.45,Single-ply,SBD,M
Boys,89.81,10,Tyler Crisp,Poteet,88.18,217.72,97.52,204.12,519.36,Single-ply,SBD,M
Boys,99.79,1,Justin Lomas,Crystal City,95.12,285.76,142.88,240.4,669.05,Single-ply,SBD,M
Boys,99.79,2,Leo Perez,Devine,98.07,272.16,158.76,215.46,646.37,Single-ply,SBD,M
Boys,99.79,3,Jesus Ruiz,Rio Grande City Grulla,96.84,249.48,181.44,210.92,641.83,Single-ply,SBD,M
Boys,99.79,4,Joe de la Cruz,Rio Grande City Grulla,98.84,260.82,154.22,217.72,632.76,Single-ply,SBD,M
Boys,99.79,5,Jose Contreras,Gonzales,97.43,238.14,131.54,244.94,614.62,Single-ply,SBD,M
Boys,99.79,6,Conner Roe,Geronimo Navarro,96.34,231.33,149.69,222.26,603.28,Single-ply,SBD,M
Boys,99.79,7,Israel Torres,La Feria,97.07,217.72,138.35,226.8,582.87,Single-ply,SBD,M
Boys,99.79,8,Nick Delgado,Pleasanton,92.76,204.12,149.69,213.19,566.99,Single-ply,SBD,M
Boys,99.79,9,Fabian Huerta,Crystal City,97.34,226.8,102.06,226.8,555.65,Single-ply,SBD,M
Boys,99.79,DQ,Zachary Kwiatkowski,Corpus Christi West Oso,98.43,240.4,131.54,,,Single-ply,SBD,M
Boys,109.77,1,Michael Rodriguez,Kingsville King,109.59,376.48,256.28,297.1,929.86,Single-ply,SBD,M
Boys,109.77,2,Gabriel García,Yoakum,106.78,290.3,156.49,240.4,687.19,Single-ply,SBD,M
Boys,109.77,3,Benny Cisneros,Devine,108.32,272.16,170.1,217.72,659.98,Single-ply,SBD,M
Boys,109.77,4,Jeremy Rodriguez,Geronimo Navarro,108.5,269.89,172.37,217.72,659.98,Single-ply,SBD,M
Boys,109.77,5,Tyler Sedlacek,Columbus,102.83,244.94,158.76,226.8,630.49,Single-ply,SBD,M
Boys,109.77,6,Caleb Robertson,Rio Hondo,106,258.55,136.08,233.6,628.23,Single-ply,SBD,M
Boys,109.77,7,Marco Gutierrez,La Feria,105.51,244.94,165.56,210.92,621.42,Single-ply,SBD,M
Boys,109.77,8,Silvestre Bustamante,Zapata,108.32,242.67,156.49,204.12,603.28,Single-ply,SBD,M
Boys,109.77,9,Kyle Wilson,Bandera,107.05,222.26,142.88,229.06,594.21,Single-ply,SBD,M
Boys,124.74,1,Bobby Gonzalez,Raymondville,118.07,369.68,240.4,260.82,870.9,Single-ply,SBD,M
Boys,124.74,2,Bryce Dowda,Bandera,121.25,290.3,172.37,242.67,705.34,Single-ply,SBD,M
Boys,124.74,3,Robert Cervantes,Raymondville,116.07,272.16,167.83,217.72,657.71,Single-ply,SBD,M
Boys,124.74,4,Leo Gonzalez,Robstown,119.84,272.16,163.29,219.99,655.44,Single-ply,SBD,M
Boys,124.74,5,Gonzalo Alegria,La Feria,118.71,290.3,142.88,213.19,646.37,Single-ply,SBD,M
Boys,124.74,6,Joshua Macat,Lytle,111.4,263.08,140.61,233.6,637.3,Single-ply,SBD,M
Boys,124.74,7,Manuel Navarro,Zapata,123.24,249.48,165.56,206.38,621.42,Single-ply,SBD,M
Boys,124.74,8,Bj Frieda,Somerset,117.66,263.08,142.88,204.12,610.08,Single-ply,SBD,M
Boys,124.74,DQ,Nazario Garza,Rio Grande City Grulla,123.42,256.28,170.1,,,Single-ply,SBD,M
Boys,124.74,DQ,Zac Clack,Gonzales,121.34,276.69,151.95,,,Single-ply,SBD,M
Boys,124.74+,1,John Reyes,Rio Hondo,141.57,317.51,210.92,249.48,777.91,Single-ply,SBD,M
Boys,124.74+,2,Francisco Moreno,Zapata,132.81,322.05,167.83,242.67,732.55,Single-ply,SBD,M
Boys,124.74+,3,Eduardo Sanchez,Zapata,142.56,281.23,192.78,258.55,732.55,Single-ply,SBD,M
Boys,124.74+,4,Mario DeLeon,La Feria,136.44,278.96,158.76,217.72,655.44,Single-ply,SBD,M
Boys,124.74+,5,Michael Esparza,Rockport-Fulton,127.05,258.55,163.29,219.99,641.83,Single-ply,SBD,M
Boys,124.74+,6,Mike Garza,Crystal City,125.19,276.69,145.15,210.92,632.76,Single-ply,SBD,M
Boys,124.74+,7,Jacob Garnand,Rockport-Fulton,126.1,247.21,131.54,249.48,628.23,Single-ply,SBD,M
Boys,124.74+,8,Daniel Ramirez,Somerset,127.96,260.82,124.74,238.14,623.69,Single-ply,SBD,M
Boys,124.74+,9,Ronnie Lucio,Poteet,144.38,226.8,131.54,208.65,566.99,Single-ply,SBD,M
Boys,124.74+,10,Michael Balderas,Poteet,126.69,265.35,102.06,188.24,555.65,Single-ply,SBD,M
