Division,WeightClassKg,Place,Name,Team,BodyweightKg,Best3SquatKg,Best3BenchKg,Best3DeadliftKg,TotalKg,Equipment,Event,Sex
Boys,51.71,1,Jonathan Esquivel,Melissa,49.35,99.79,65.77,104.33,269.89,Single-ply,SBD,M
Boys,51.71,2,Jacob Kemp,Bonham,50.53,83.91,47.63,117.93,249.48,Single-ply,SBD,M
Boys,51.71,3,Matthew Palmer,Bonham,49.08,81.65,56.7,104.33,242.67,Single-ply,SBD,M
Boys,51.71,4,Kenieth Dodson,Pottsboro,46.72,90.72,56.7,90.72,238.14,Single-ply,SBD,M
Boys,51.71,5,Cj McKinzie,Whitesboro,50.89,95.25,43.09,92.99,231.33,Single-ply,SBD,M
Boys,51.71,6,Justin Bilbrey,Howe,51.48,54.43,56.7,81.65,192.78,Single-ply,SBD,M
Boys,51.71,7,Peyton Raymer,Blue Ridge,45.45,56.7,34.02,74.84,165.56,Single-ply,SBD,M
Boys,51.71,DQ,Parker Sneed,Whitesboro,43.27,,,,,Single-ply,SBD,M
Boys,51.71,DQ,Tristan Barber,Sadler S & S Cons,37.1,,,,,Single-ply,SBD,M
Boys,55.79,1,Ethan Brooks,Bonham,55.7,140.61,72.57,165.56,378.75,Single-ply,SBD,M
Boys,59.87,2,Jonathan Juarez,Celina,55.97,113.4,68.04,147.42,328.85,Single-ply,SBD,M
Boys,55.79,3,Trevor Agan,Blue Ridge,55.79,113.4,61.23,124.74,299.37,Single-ply,SBD,M
Boys,55.79,4,Koby Parker,Pottsboro,54.34,97.52,65.77,90.72,254.01,Single-ply,SBD,M
Boys,55.79,5,Nick Tarango,Lucas Lovejoy,52.62,72.57,38.56,86.18,197.31,Single-ply,SBD,M
Boys,59.87,1,Stephen Nelson,Pottsboro,56.43,158.76,88.45,163.29,410.5,Single-ply,SBD,M
Boys,59.87,2,Solomon Titus,Leonard,56.88,138.35,72.57,147.42,358.34,Single-ply,SBD,M
Boys,67.13,3,Stephen Steele,Pottsboro,59.96,124.74,70.31,140.61,335.66,Single-ply,SBD,M
Boys,59.87,4,Dylan Serna,Krum,58.79,124.74,68.04,129.27,322.05,Single-ply,SBD,M
Boys,59.87,5,Bubba Weaver,Leonard,59.06,113.4,70.31,136.08,319.78,Single-ply,SBD,M
Boys,59.87,6,Jake Vest,Blue Ridge,57.88,97.52,81.65,120.2,299.37,Single-ply,SBD,M
Boys,59.87,7,Gio Soto,Leonard,59.06,104.33,61.23,131.54,297.1,Single-ply,SBD,M
Boys,59.87,8,Jacob Blagburn,Blue Ridge,59.24,90.72,65.77,111.13,267.62,Single-ply,SBD,M
Boys,59.87,9,Roger Bryant,Krum,59.42,120.2,49.9,90.72,260.82,Single-ply,SBD,M
Boys,59.87,10,David Bowling,Blue Ridge,57.61,72.57,45.36,83.91,201.85,Single-ply,SBD,M
Boys,67.13,1,Garrett Syfert,Pottsboro,66.13,199.58,97.52,181.44,478.54,Single-ply,SBD,M
Boys,67.13,2,Jordan Smith,Bonham,61.05,181.44,83.91,201.85,467.2,Single-ply,SBD,M
Boys,67.13,3,Jeremy Croney,Sadler S & S Cons,65.32,183.7,99.79,183.7,467.2,Single-ply,SBD,M
Boys,67.13,4,Jarrell Washington,Leonard,63.96,149.69,92.99,170.1,412.77,Single-ply,SBD,M
Boys,67.13,5,Tony Solis,Krum,65.23,161.03,81.65,170.1,412.77,Single-ply,SBD,M
Boys,67.13,6,Chance Willits,Howe,61.42,142.88,79.38,158.76,381.02,Single-ply,SBD,M
Boys,67.13,7,Hunter Hall,Gainesville,64.59,136.08,68.04,142.88,347,Single-ply,SBD,M
Boys,67.13,8,Chris Rhinehart,Celina,66.86,133.81,61.23,136.08,331.12,Single-ply,SBD,M
Boys,67.13,9,Holden Keenan,Pottsboro,66.41,124.74,56.7,142.88,324.32,Single-ply,SBD,M
Boys,67.13,10,Cullen Brasuell,Northwest Nelson,65.41,124.74,83.91,113.4,322.05,Single-ply,SBD,M
Boys,67.13,11,Danny Nunez,Blue Ridge,66.41,106.59,63.5,140.61,310.71,Single-ply,SBD,M
Boys,67.13,DQ,Kyle Rhinehart,Celina,61.05,,,,,Single-ply,SBD,M
Boys,67.13,DQ,Cody Hughs,Gainesville,61.96,136.08,,,,Single-ply,SBD,M
Boys,67.13,DQ,Brennan Ellis,Krum,65.68,133.81,,,,Single-ply,SBD,M
Boys,67.13,DQ,Jason Hitt,Northwest Nelson,66.04,140.61,,,,Single-ply,SBD,M
Boys,74.84,1,Nathan Markiewics,Bonham,70.31,208.65,122.47,199.58,530.7,Single-ply,SBD,M
Boys,74.84,2,Tyler Bailey,Lucas Lovejoy,73.84,190.51,108.86,192.78,492.15,Single-ply,SBD,M
Boys,74.84,3,Sebastian Spencer,Anna,70.76,197.31,108.86,174.63,480.81,Single-ply,SBD,M
Boys,74.84,4,Dustin Richards,Krum,74.39,165.56,90.72,183.7,439.98,Single-ply,SBD,M
Boys,74.84,5,Brian Hesson,Lucas Lovejoy,68.49,156.49,92.99,181.44,430.91,Single-ply,SBD,M
Boys,74.84,6,Blake Vest,Krum,74.48,151.95,97.52,170.1,419.57,Single-ply,SBD,M
Boys,74.84,7,Andrew Smith,Anna,68.86,147.42,77.11,170.1,394.63,Single-ply,SBD,M
Boys,74.84,8,Darrick Mata,Whitesboro,71.3,161.03,83.91,147.42,392.36,Single-ply,SBD,M
Boys,74.84,9,Isaac Olvera,Anna,70.76,142.88,102.06,136.08,381.02,Single-ply,SBD,M
Boys,74.84,10,Matt Jones,Northwest Nelson,72.48,133.81,95.25,136.08,365.14,Single-ply,SBD,M
Boys,74.84,11,Dakota Burchfield,Van Alstyne,71.21,124.74,92.99,127.01,344.73,Single-ply,SBD,M
Boys,74.84,12,Gabe Duron,Northwest Nelson,74.48,133.81,77.11,113.4,324.32,Single-ply,SBD,M
Boys,74.84,DQ,Connor Oldham,Van Alstyne,72.85,165.56,,,,Single-ply,SBD,M
Boys,74.84,DQ,Nathan Saenz,Northwest Nelson,74.84,136.08,,,,Single-ply,SBD,M
Boys,74.84,DQ,Kolten Lofton,Gainesville,69.49,,,,,Single-ply,SBD,M
Boys,82.1,1,Marcus Vera,Howe,76.2,231.33,111.13,215.46,557.92,Single-ply,SBD,M
Boys,82.1,2,Dru Hull,Sadler S & S Cons,77.75,197.31,117.93,204.12,519.36,Single-ply,SBD,M
Boys,82.1,3,Dustin Williams,Anna,78.2,192.78,122.47,190.51,505.76,Single-ply,SBD,M
Boys,89.81,4,Anthony Garcia,Celina,82.28,185.97,111.13,208.65,505.76,Single-ply,SBD,M
Boys,82.1,5,Cody Alexander,Bonham,77.75,197.31,104.33,190.51,492.15,Single-ply,SBD,M
Boys,82.1,6,Dakota Barnes,Bonham,81.01,183.7,86.18,215.46,485.34,Single-ply,SBD,M
Boys,82.1,7,Chance Bratcher,Sadler S & S Cons,80.92,192.78,102.06,174.63,469.47,Single-ply,SBD,M
Boys,82.1,8,Justin Haggard,Bonham,76.57,181.44,95.25,181.44,458.13,Single-ply,SBD,M
Boys,82.1,9,Curtis Sims,Leonard,80.83,158.76,72.57,181.44,412.77,Single-ply,SBD,M
Boys,82.1,10,Tyler Clemens,Van Alstyne,80.38,151.95,106.59,151.95,410.5,Single-ply,SBD,M
Boys,82.1,11,Arnold Contreras,Leonard,79.29,172.37,83.91,142.88,399.16,Single-ply,SBD,M
Boys,82.1,12,Garrett Lansford,Anna,80.56,158.76,79.38,154.22,392.36,Single-ply,SBD,M
Boys,82.1,13,Jordan Buckaloo,Leonard,77.2,145.15,83.91,158.76,387.82,Single-ply,SBD,M
Boys,82.1,14,Austin Savage,Northwest Nelson,75.57,138.35,90.72,142.88,371.95,Single-ply,SBD,M
Boys,82.1,15,Jacob Olivarez,Krum,75.84,154.22,72.57,145.15,371.95,Single-ply,SBD,M
Boys,82.1,16,Gabriel Rivera,Gainesville,78.02,102.06,90.72,129.27,322.05,Single-ply,SBD,M
Boys,82.1,17,Nick Liccione,Howe,76.84,99.79,61.23,106.59,267.62,Single-ply,SBD,M
Boys,82.1,DQ,Jesus Vargus,Celina,77.56,213.19,,,,Single-ply,SBD,M
Boys,82.1,DQ,John Norrell,Anna,79.38,,,,,Single-ply,SBD,M
Boys,82.1,DQ,Lance Honeycutt,Northwest Nelson,80.29,,,,,Single-ply,SBD,M
Boys,89.81,1,Shelby Long,Anna,84.46,226.8,106.59,224.53,557.92,Single-ply,SBD,M
Boys,89.81,2,Cameron Litzkow,Van Alstyne,88.09,213.19,120.2,210.92,544.31,Single-ply,SBD,M
Boys,89.81,3,Dj Fields,Bonham,86.91,222.26,120.2,181.44,523.9,Single-ply,SBD,M
Boys,89.81,4,Brandon Love,Pottsboro,84.73,204.12,106.59,204.12,514.83,Single-ply,SBD,M
Boys,89.81,5,Casey Davis,Howe,85.64,181.44,124.74,188.24,494.42,Single-ply,SBD,M
Boys,89.81,6,Levi Haggard,Bonham,84.73,192.78,117.93,167.83,478.54,Single-ply,SBD,M
Boys,89.81,7,Mason LaTure,Lucas Lovejoy,87.45,195.04,86.18,195.04,476.27,Single-ply,SBD,M
Boys,89.81,8,Dj Hollis,Melissa,87.54,156.49,131.54,181.44,469.47,Single-ply,SBD,M
Boys,89.81,9,Slayton Shiels,Lucas Lovejoy,88.36,158.76,117.93,188.24,464.93,Single-ply,SBD,M
Boys,89.81,10,Dawson Stewart,Howe,89.63,158.76,102.06,181.44,442.25,Single-ply,SBD,M
Boys,89.81,11,Dakota Pickrell,Pottsboro,86.73,163.29,92.99,181.44,437.72,Single-ply,SBD,M
Boys,89.81,12,Ekson Hernandez,Sadler S & S Cons,86.27,136.08,86.18,176.9,399.16,Single-ply,SBD,M
Boys,89.81,13,Hunter Howard,Krum,89.72,133.81,79.38,154.22,367.41,Single-ply,SBD,M
Boys,89.81,14,Ty Laird,Krum,87.09,131.54,90.72,142.88,365.14,Single-ply,SBD,M
Boys,89.81,15,Jd Patterson,Howe,89.81,133.81,72.57,127.01,333.39,Single-ply,SBD,M
Boys,99.79,1,Scott Blair,Anna,98.52,213.19,111.13,219.99,544.31,Single-ply,SBD,M
Boys,99.79,2,Javier Padilla,Bonham,95.8,197.31,142.88,199.58,539.77,Single-ply,SBD,M
Boys,99.79,3,Chrystian Molina,Lucas Lovejoy,95.53,181.44,97.52,199.58,478.54,Single-ply,SBD,M
Boys,99.79,4,Thomas Schwab,Lucas Lovejoy,98.61,158.76,106.59,183.7,449.06,Single-ply,SBD,M
Boys,99.79,5,Shane Tilden,Krum,95.44,147.42,97.52,161.03,405.97,Single-ply,SBD,M
Boys,99.79,6,Robert Miller,Anna,93.8,145.15,90.72,167.83,403.7,Single-ply,SBD,M
Boys,99.79,7,Jd Poe,Lucas Lovejoy,90.54,147.42,97.52,129.27,374.21,Single-ply,SBD,M
Boys,99.79,8,Dakota Smith,Leonard,98.88,142.88,86.18,124.74,353.8,Single-ply,SBD,M
Boys,99.79,9,Aaron Gilmore,Krum,99.79,113.4,77.11,149.69,340.19,Single-ply,SBD,M
Boys,99.79,DQ,Eric Reed,Pottsboro,96.07,,,,,Single-ply,SBD,M
Boys,99.79,DQ,Chandler Bass,Van Alstyne,98.34,,,,,Single-ply,SBD,M
Boys,99.79,DQ,Landon Woolridge,Northwest Nelson,92.99,,,,,Single-ply,SBD,M
Boys,99.79,DQ,Nigel Spencer,Northwest Nelson,95.07,151.95,,,,Single-ply,SBD,M
Boys,109.77,1,Manuel Monge,Van Alstyne,106.96,188.24,124.74,206.38,519.36,Single-ply,SBD,M
Boys,109.77,2,Brad Shatto,Sadler S & S Cons,105.51,199.58,122.47,188.24,510.29,Single-ply,SBD,M
Boys,109.77,3,Nate Rainey,Lucas Lovejoy,106.41,183.7,99.79,213.19,496.68,Single-ply,SBD,M
Boys,109.77,4,Heber Hernandez,Sadler S & S Cons,108.41,170.1,106.59,199.58,476.27,Single-ply,SBD,M
Boys,109.77,5,Adam Stapleton,Whitesboro,101.6,170.1,108.86,161.03,439.98,Single-ply,SBD,M
Boys,109.77,6,Billy Doyle,Pottsboro,101.7,181.44,95.25,163.29,439.98,Single-ply,SBD,M
Boys,109.77,7,Adam Williams,Melissa,106.87,154.22,90.72,163.29,408.23,Single-ply,SBD,M
Boys,109.77,8,Mitch Hunt,Lucas Lovejoy,103.51,140.61,90.72,172.37,403.7,Single-ply,SBD,M
Boys,109.77,9,Jose Tapia,Howe,100.43,142.88,102.06,138.35,383.29,Single-ply,SBD,M
Boys,109.77,10,Jordan Hall,Gainesville,105.69,136.08,88.45,158.76,383.29,Single-ply,SBD,M
Boys,109.77,DQ,Collin Borcik,Northwest Nelson,104.05,,,,,Single-ply,SBD,M
Boys,109.77,DQ,Hiram Muhammad,Lucas Lovejoy,107.68,,,,,Single-ply,SBD,M
Boys,124.74,1,Tanner Pelham,Anna,122.2,199.58,142.88,217.72,560.19,Single-ply,SBD,M
Boys,124.74,2,Randel Furey,Sadler S & S Cons,120.38,201.85,122.47,206.38,530.7,Single-ply,SBD,M
Boys,124.74,3,Gavin Buckaloo,Leonard,111.86,208.65,136.08,174.63,519.36,Single-ply,SBD,M
Boys,124.74,4,Alex Mayes,Van Alstyne,115.3,165.56,111.13,176.9,453.59,Single-ply,SBD,M
Boys,124.74,5,Tyler Edwards,Pottsboro,112.13,181.44,83.91,174.63,439.98,Single-ply,SBD,M
Boys,124.74,DQ,Aj Washington,Northwest Nelson,110.86,,,,,Single-ply,SBD,M
Boys,124.74+,1,Joe Merino,Anna,136.8,240.4,154.22,219.99,614.62,Single-ply,SBD,M
Boys,124.74+,2,Dylan Bain,Lucas Lovejoy,137.8,183.7,127.01,176.9,487.61,Single-ply,SBD,M
Boys,124.74+,3,Connor Mayes,Van Alstyne,145.06,161.03,120.2,158.76,439.98,Single-ply,SBD,M
Boys,124.74+,4,Wes Fulce,Sadler S & S Cons,143.34,167.83,102.06,147.42,417.3,Single-ply,SBD,M
Boys,124.74+,5,Cameron Adkins,Leonard,126.1,147.42,90.72,170.1,408.23,Single-ply,SBD,M
