Place,WeightClassKg,Sex,Division,Name,CyrillicName,BirthYear,BodyweightKg,Bench1Kg,Bench2Kg,Bench3Kg,Bench4Kg,Best3BenchKg,TotalKg,Event,Equipment
1,48,M,Paralympics,Ildar Bedderdinov,Ильдар Беддердинов,1984,47.5,120,122.5,125,,125,125,B,Single-ply
2,48,M,Paralympics,Vladislav Gerasimov,Владислав Герасимов,1970,46.2,115,120,122.5,,122.5,122.5,B,Single-ply
DQ,48,M,Paralympics,Sergey Posnov,Сергей Поснов,1975,47.8,-55,-55,-55,,,,B,Single-ply
1,52,M,Paralympics,Igor Sorokin,Игорь Сорокин,1959,48.5,100,105,-110,,105,105,B,Single-ply
2,52,M,Paralympics,Vladimir Sheremet,Владимир Шеремет,1982,50.5,92.5,100,-107.5,,100,100,B,Single-ply
3,52,M,Paralympics,Fedor Dzeblinskiy,Федор Дзеблинский,1983,52,65,70,-80,,70,70,B,Single-ply
4,52,M,Paralympics,Aleksandr Rezyapov,Александр Резяпов,1986,51.3,55,60,62.5,,62.5,62.5,B,Single-ply
5,52,M,Paralympics,Sergey Kitenko,Сергей Китенко,1949,50.2,55,-60,-62.5,,55,55,B,Single-ply
1,56,M,Paralympics,Andrey Podpalnyy,Андрей Подпальный,1968,55.7,130,135,140,,140,140,B,Single-ply
2,56,M,Paralympics,Andrey Eremeev,Андрей Еремеев,1983,56,95,105,107.5,,107.5,107.5,B,Single-ply
3,56,M,Paralympics,Sergey Andreev,Сергей Андреев,1975,55,72.5,-80,-80,,72.5,72.5,B,Single-ply
1,60,M,Paralympics,Andrey Lapakov,Андрей Лапаков,1982,59.4,102.5,-110,115,,115,115,B,Single-ply
2,60,M,Paralympics,Dmitriy Kuksov,Дмитрий Куксов,1976,57,100,-115,-115,,100,100,B,Single-ply
3,60,M,Paralympics,Sergey Bakanov,Сергей Баканов,1965,59.6,75,77.5,80,,80,80,B,Single-ply
4,60,M,Paralympics,Aleksandr Egunov,Александр Егунов,1960,58.5,70,75,77.5,,77.5,77.5,B,Single-ply
5,60,M,Paralympics,Konstantin Tupitsyn,Константин Тупицын,1984,59.6,62.5,67.5,70,,70,70,B,Single-ply
6,60,M,Paralympics,Aleksey Ulyanichev,Алексей Ульяничев,1977,58.3,62.5,67.5,-72.5,,67.5,67.5,B,Single-ply
7,60,M,Paralympics,Igor Maksimov,Игорь Максимов,1975,60,-45,45,-50,,45,45,B,Single-ply
1,67.5,M,Paralympics,Intal Galleev,Интал Галлеев,1956,66.9,162.5,-167.5,167.5,,167.5,167.5,B,Single-ply
2,67.5,M,Paralympics,Aleksandr Gurkin,Александр Гуркин,1973,67.4,150,155,-165,,155,155,B,Single-ply
3,67.5,M,Paralympics,Eduard Grigorev,Эдуард Григорьев,1975,66.4,140,145,-150,,145,145,B,Single-ply
4,67.5,M,Paralympics,Karen Abramyants,Карен Абрамянц,1977,62.7,125,-135,-135,,125,125,B,Single-ply
5,67.5,M,Paralympics,Yuriy Povetkin,Юрий Поветкин,1939,66.2,120,-130,-130,,120,120,B,Single-ply
6,67.5,M,Paralympics,Boris Sokolovskiy,Борис Соколовский,1961,66.2,110,-115,-115,,110,110,B,Single-ply
7,67.5,M,Paralympics,Dmitriy Kurzenyov,Дмитрий Курзенёв,1979,65.5,57.5,60,62.5,,62.5,62.5,B,Single-ply
1,75,M,Paralympics,Vadim Rakitin,Вадим Ракитин,1976,74,175,182.5,187.5,,187.5,187.5,B,Single-ply
2,75,M,Paralympics,Fanis Mullakhmetov,Фанис Муллахметов,1956,74.85,165,175,-177.5,,175,175,B,Single-ply
3,75,M,Paralympics,Aleksandr Dolzhenko,Александр Долженко,1959,71,105,-110,-110,,105,105,B,Single-ply
4,75,M,Paralympics,Sergey Elizarov,Сергей Елизаров,1972,72.5,95,100,-107.5,,100,100,B,Single-ply
5,75,M,Paralympics,Mikhail Sinitsin,Михаил Синицин,1972,72.9,70,77.5,-80,,77.5,77.5,B,Single-ply
1,82.5,M,Paralympics,Yuriy Kholyushkin,Юрий Холюшкин,1971,77.5,160,165,172.5,,172.5,172.5,B,Single-ply
2,82.5,M,Paralympics,Andrey Tuturov,Андрей Тутуров,1965,80.5,160,-170,-175,,160,160,B,Single-ply
3,82.5,M,Paralympics,Sergey Dyomin,Сергей Дёмин,1975,75.5,150,-155,-155,,150,150,B,Single-ply
4,82.5,M,Paralympics,Valeriy Bobylyov,Валерий Бобылёв,1953,82,142.5,145,147.5,,147.5,147.5,B,Single-ply
5,82.5,M,Paralympics,Sergey Shapovalov,Сергей Шаповалов,1972,81,120,130,-132.5,,130,130,B,Single-ply
6,82.5,M,Paralympics,Yuriy Volkov,Юрий Волков,1972,75.9,122.5,127.5,-130,,127.5,127.5,B,Single-ply
7,82.5,M,Paralympics,Aleksey Ermakov,Алексей Ермаков,1982,82.4,95,-100,100,,100,100,B,Single-ply
8,82.5,M,Paralympics,Valeriy Izhogin,Валерий Ижогин,1947,76.5,85,-90,-90,,85,85,B,Single-ply
1,90,M,Paralympics,Vladimir Larionov,Владимир Ларионов,1958,88,192.5,-200,-200,,192.5,192.5,B,Single-ply
2,90,M,Paralympics,Latifshakh Izmailov,Латифшах Измаилов,1972,86.5,185,-192.5,-192.5,,185,185,B,Single-ply
3,90,M,Paralympics,Andrey Kotov,Андрей Котов,1973,86.95,145,150,-152.5,,150,150,B,Single-ply
4,90,M,Paralympics,Andrey Yurkov,Андрей Юрков,1975,87.9,130,-135,135,,135,135,B,Single-ply
5,90,M,Paralympics,Mikhail Valeev,Михаил Валеев,1968,89.4,-115,115,120,,120,120,B,Single-ply
6,90,M,Paralympics,Vladimir Sereev,Владимир Сереев,1959,83.1,52.5,55,57.5,,57.5,57.5,B,Single-ply
1,100,M,Paralympics,Sergey Istomin,Сергей Истомин,1961,96,195,200,202.5,,202.5,202.5,B,Single-ply
2,100,M,Paralympics,Rifkat Nugaev,Рифкат Нугаев,1983,91.6,200,-202.5,-210,,200,200,B,Single-ply
3,100,M,Paralympics,Vyacheslav Kosov,Вячеслав Косов,1976,96.8,190,-197.5,-197.5,,190,190,B,Single-ply
4,100,M,Paralympics,Shikur Romashkin,Шикур Ромашкин,1954,90.2,120,127.5,-132.5,,127.5,127.5,B,Single-ply
5,100,M,Paralympics,Valeriy Polushin,Валерий Полушин,1954,94.3,100,105,110,,110,110,B,Single-ply
DQ,100,M,Paralympics,Sergey Bogomolov,Сергей Богомолов,1975,90.01,,,,,,,B,Single-ply
1,100+,M,Paralympics,Ilfat Mukhtarov,Ильфат Мухтаров,1971,102.2,195,202.5,205,,205,205,B,Single-ply
2,100+,M,Paralympics,Nikolay Marfin,Николай Марфин,1979,119,175,185,-192.5,,185,185,B,Single-ply
3,100+,M,Paralympics,Aleksey Golikov,Алексей Голиков,1975,116,160,165,167.5,,167.5,167.5,B,Single-ply
4,100+,M,Paralympics,Vitaliy Karpov,Виталий Карпов,1978,130.4,155,165,-167.5,,165,165,B,Single-ply
1,44,F,Paralympics,Elvira Kosareva,Эльвира Косарева,1961,43.95,40,42.5,45,,45,45,B,Single-ply
1,48,F,Paralympics,Tatyana Belousova,Татьяна Белоусова,1979,48,42.5,45,50,,50,50,B,Single-ply
2,48,F,Paralympics,Galina Suvorova,Галина Суворова,1969,47.9,42.5,45,47.5,,47.5,47.5,B,Single-ply
3,48,F,Paralympics,Anastasiya Malenkova,Анастасия Маленкова,1988,47.9,35,37.5,-40,,37.5,37.5,B,Single-ply
4,48,F,Paralympics,Zoya Ivanova,Зоя Иванова,1986,45,-25,-25,25,,25,25,B,Single-ply
1,52,F,Paralympics,Elena Kivileva,Елена Кивилева,1970,49,75,77.5,-80,,77.5,77.5,B,Single-ply
2,52,F,Paralympics,Razida Khalikova,Разида Халикова,1956,51.9,-50,50,-55,,50,50,B,Single-ply
3,52,F,Paralympics,Ekaterina Zagulyaeva,Екатерина Загуляева,1960,51.9,40,42.5,-45,,42.5,42.5,B,Single-ply
1,56,F,Paralympics,Tamara Podpalnaya,Тамара Подпальная,1972,55.5,130,135,140,,140,140,B,Single-ply
2,56,F,Paralympics,Yuliya Evseeva,Юлия Евсеева,1979,56,42.5,45,47.5,,47.5,47.5,B,Single-ply
3,56,F,Paralympics,Anna Mikhaylichenko,Анна Михайличенко,1981,52.1,25,35,-37.5,,35,35,B,Single-ply
1,60,F,Paralympics,Vera Muratova,Вера Муратова,1980,56.6,80,85,-90,,85,85,B,Single-ply
2,60,F,Paralympics,Tamara Kartasheva,Тамара Карташева,1962,56.3,65,67.5,70,,70,70,B,Single-ply
3,60,F,Paralympics,Larisa Borovinskaya,Лариса Боровинская,1968,59.75,55,60,-62.5,,60,60,B,Single-ply
4,60,F,Paralympics,Ekaterina Tolkachyova,Екатерина Толкачёва,1984,56.65,55,-62.5,-62.5,,55,55,B,Single-ply
1,67.5,F,Paralympics,Olga Sergienko,Ольга Сергиенко,1971,64.1,90,95,100,,100,100,B,Single-ply
2,67.5,F,Paralympics,Zinaida Emlina,Зинаида Емлина,1957,65.5,65,70,-75,,70,70,B,Single-ply
3,67.5,F,Paralympics,Lyubov Novozhilova,Любовь Новожилова,1941,66.5,50,52.5,55,,55,55,B,Single-ply
1,75,F,Paralympics,Olga Kiseleva,Ольга Киселева,1971,72.25,95,100,-105,,100,100,B,Single-ply
2,75,F,Paralympics,Natalya Manylova,Наталья Манылова,1963,70,40,42.5,45,,45,45,B,Single-ply
1,82.5,F,Paralympics,Larisa Ryadnova,Лариса Ряднова,1944,80,50,55,-57.5,,55,55,B,Single-ply
2,82.5,F,Paralympics,Iraida Aristova,Ираида Аристова,1942,75.2,30,32.5,-35,,32.5,32.5,B,Single-ply
1,82.5+,F,Paralympics,Marina Dyakonova,Марина Дьяконова,1950,89,105,110,-115,,110,110,B,Single-ply
1,52,M,Open,Igor Artemev,Игорь Артемьев,1971,51.8,125,130,-135,,130,130,B,Single-ply
2,52,M,Open,Aleksey Nasonov,Алексей Насонов,1986,50,90,-95,97.5,,97.5,97.5,B,Single-ply
1,56,M,Open,Sergey Martynov,Сергей Мартынов,1973,56,140,145,155,,155,155,B,Single-ply
2,56,M,Open,Oleg Artemev,Олег Артемьев,1971,56,137.5,142.5,-147.5,,142.5,142.5,B,Single-ply
3,56,M,Open,Igor Kuchin,Игорь Кучин,1967,55.5,115,-120,-120,,115,115,B,Single-ply
4,56,M,Open,Dmitriy Karelin,Дмитрий Карелин,1984,55.5,105,112.5,-117.5,,112.5,112.5,B,Single-ply
DD,56,M,Open,Evgeniy Samaevskiy,Евгений Самаевский,1984,52.8,117.5,120,122.5,,122.5,,B,Single-ply
1,60,M,Open,Evgeniy Trofimov,Евгений Трофимов,1978,59.9,150,155,160,,160,160,B,Single-ply
2,60,M,Open,Aleksandr Kolyshkin,Александр Колышкин,1981,60,140,150,152.5,,152.5,152.5,B,Single-ply
3,60,M,Open,Denis Rudakov,Денис Рудаков,1982,59.8,137.5,142.5,150,,150,150,B,Single-ply
4,60,M,Open,Aleksey Zazvonov,Алексей Зазвонов,1974,60,120,130,135,,135,135,B,Single-ply
5,60,M,Open,Anton Druzhkov,Антон Дружков,1981,56.2,-95,95,-107.5,,95,95,B,Single-ply
1,67.5,M,Open,Stanislav Petrushin,Станислав Петрушин,1972,67.3,175,182.5,187.5,,187.5,187.5,B,Single-ply
2,67.5,M,Open,Ilya Kokorev,Илья Кокорев,1973,67.1,175,182.5,185,,185,185,B,Single-ply
3,67.5,M,Open,Artem Pashiev,Артем Пашиев,1983,67.3,177.5,185,-190,,185,185,B,Single-ply
4,67.5,M,Open,Sergey Kolesnikov,Сергей Колесников,1974,67.5,175,185,-192.5,,185,185,B,Single-ply
5,67.5,M,Open,Anatoliy Proskurin,Анатолий Проскурин,1972,65.8,145,152.5,157.5,,157.5,157.5,B,Single-ply
DQ,67.5,M,Open,Valeriy Bogdanov,Валерий Богданов,1970,66.9,-207.5,-207.5,-207.5,,,,B,Single-ply
1,75,M,Open,Sergey Knyazev,Сергей Князев,1976,74.5,215,225,235,,235,235,B,Single-ply
2,75,M,Open,Aleksey Neveykov,Алексей Невейков,1966,75,180,195,200,,200,200,B,Single-ply
3,75,M,Open,Aleksandr Pepelyaev,Александр Пепеляев,1967,74.55,185,-190,-190,,185,185,B,Single-ply
DQ,75,M,Open,Ivan Bryzgalov,Иван Брызгалов,1985,74.3,-165,-165,-165,,,,B,Single-ply
1,82.5,M,Open,Aleksey Vorobev,Алексей Воробьев,1969,81.2,240,247.5,250,,250,250,B,Single-ply
2,82.5,M,Open,Sergey Nochnoy,Сергей Ночной,1967,82.35,-240,240,250,,250,250,B,Single-ply
3,82.5,M,Open,Pavel Sled,Павел Следь,1972,81.1,220,-227.5,227.5,,227.5,227.5,B,Single-ply
4,82.5,M,Open,Maksim Korotygin,Максим Коротыгин,1981,81.35,-225,-225,225,,225,225,B,Single-ply
5,82.5,M,Open,Igor Sergeev,Игорь Сергеев,1966,81.9,215,-222.5,222.5,,222.5,222.5,B,Single-ply
6,82.5,M,Open,Mikhail Nagovitsin,Михаил Наговицин,1980,80,215,222.5,-230,,222.5,222.5,B,Single-ply
7,82.5,M,Open,Kirill Redozubov,Кирилл Редозубов,1979,81,210,-217.5,220,,220,220,B,Single-ply
8,82.5,M,Open,Vladimir Vorontsov,Владимир Воронцов,1973,81.85,200,210,217.5,,217.5,217.5,B,Single-ply
9,82.5,M,Open,Sergey Shekurov,Сергей Шекуров,1981,81.5,205,212.5,-220,,212.5,212.5,B,Single-ply
10,82.5,M,Open,Aleksandr Varlamov,Александр Варламов,1978,82.15,-195,195,202.5,,202.5,202.5,B,Single-ply
11,82.5,M,Open,Aleksandr Kokornov,Александр Кокорнов,1964,81.9,190,200,-210.5,,200,200,B,Single-ply
1,90,M,Open,Ravil Abitov,Равиль Абитов,1975,89.3,230,242.5,252.5,,252.5,252.5,B,Single-ply
2,90,M,Open,Ilya Gorchakov,Илья Горчаков,1981,90,235,245,-250,,245,245,B,Single-ply
3,90,M,Open,Aleksey Osokin,Алексей Осокин,1979,82.7,235,242.5,-252.5,,242.5,242.5,B,Single-ply
4,90,M,Open,Evgeniy Nechaev,Евгений Нечаев,1978,83.4,235,242.5,-250,,242.5,242.5,B,Single-ply
5,90,M,Open,Andrey Ermachenko,Андрей Ермаченко,1973,89,215,225,-230,,225,225,B,Single-ply
6,90,M,Open,Sergey Popov,Сергей Попов,1977,89,-212.5,212.5,220,,220,220,B,Single-ply
7,90,M,Open,Eduard Vinogradov,Эдуард Виноградов,1974,89.7,195,207.5,212.5,,212.5,212.5,B,Single-ply
8,90,M,Open,Sergey Kurbatov,Сергей Курбатов,1984,89.5,195,205,210,,210,210,B,Single-ply
9,90,M,Open,Igor Kunts,Игорь Кунц,1979,87.8,190,205,-212.5,,205,205,B,Single-ply
10,90,M,Open,Aleksey Vecherov,Алексей Вечеров,1971,88.8,-205,-205,205,,205,205,B,Single-ply
11,90,M,Open,Igor Baykov,Игорь Байков,1965,87.7,187.5,-195,195,,195,195,B,Single-ply
12,90,M,Open,Aleksandr Novozhilov,Александр Новожилов,1972,86.5,170,180,190,,190,190,B,Single-ply
13,90,M,Open,Vladimir Malyshev,Владимир Малышев,1936,86.5,140,-147.5,147.5,,147.5,147.5,B,Single-ply
DQ,90,M,Open,Evgeniy Fogel,Евгений Фогель,1980,90,-240,-240,-240,,,,B,Single-ply
1,100,M,Open,Vladimir Volkov,Владимир Волков,1959,99,255,-265,265,,265,265,B,Single-ply
2,100,M,Open,Dmitriy Krasilnikov,Дмитрий Красильников,1975,97.5,242.5,250,255,,255,255,B,Single-ply
3,100,M,Open,Aleksey Ryzhov,Алексей Рыжов,1972,93.25,-240,245,250,,250,250,B,Single-ply
4,100,M,Open,Vladislav Kobelev,Владислав Кобелев,1968,97.85,-237.5,242.5,-247.5,,242.5,242.5,B,Single-ply
5,100,M,Open,Kazantsev,Казанцев,1975,99.1,230,240,-245,,240,240,B,Single-ply
6,100,M,Open,Igor Podelko,Игорь Поделко,1964,99.5,220,230,240,,240,240,B,Single-ply
7,100,M,Open,Andrey Poley,Андрей Полей,1961,96.8,-225,230,237.5,,237.5,237.5,B,Single-ply
8,100,M,Open,Viktor Manishin,Виктор Манишин,1979,94.1,210,220,230,,230,230,B,Single-ply
9,100,M,Open,Aleksandr Prokudenkov,Александр Прокуденков,1971,99.65,225,-235,-235,,225,225,B,Single-ply
10,100,M,Open,Aleksandr Salomatin,Александр Саломатин,1970,97.25,210,215,220,,220,220,B,Single-ply
11,100,M,Open,Anton Bogdanov,Антон Богданов,1973,97.1,205,-210,,,205,205,B,Single-ply
12,100,M,Open,Evgeniy Sidorin,Евгений Сидорин,1987,98.6,150,160,170,,170,170,B,Single-ply
1,110,M,Open,Oleg Kushnarev,Олег Кушнарев,1973,108.3,262.5,270,275,,275,275,B,Single-ply
2,110,M,Open,Aleksey Gankov,Алексей Ганьков,1970,108.3,255,265,272.5,,272.5,272.5,B,Single-ply
3,110,M,Open,Aleksey Babin,Алексей Бабин,1975,109.8,255,262.5,270,,270,270,B,Single-ply
4,110,M,Open,Vladislav Fatyanov,Владислав Фатьянов,1975,109,260,265,267.5,,267.5,267.5,B,Single-ply
5,110,M,Open,Dmitriy Gorbachev,Дмитрий Горбачев,,103.6,250,260,-267.5,,260,260,B,Single-ply
6,110,M,Open,Alexey Samsonov,Алексей Самсонов,1974,108,260,-267.5,-270,,260,260,B,Single-ply
7,110,M,Open,Aleksey Gorbachev,Алексей Горбачев,1979,110,250,257.5,-265,,257.5,257.5,B,Single-ply
8,110,M,Open,Sergey Abrosimov,Сергей Абросимов,1971,107.5,252.5,-257.5,-257.5,,252.5,252.5,B,Single-ply
9,110,M,Open,Yuriy Khuazhev,Юрий Хуажев,1970,110,240,-245,,,240,240,B,Single-ply
10,110,M,Open,Aleksandr Markin,Александр Маркин,1972,104.1,235,-250,-250,,235,235,B,Single-ply
11,110,M,Open,Aleksey Kozlov,Алексей Козлов,1970,103.7,222.5,227.5,-232.5,,227.5,227.5,B,Single-ply
12,110,M,Open,Maksim Chevernozhenko,Максим Чеверноженко,1977,108.9,210,220,-227.5,,220,220,B,Single-ply
13,110,M,Open,Konstantin Emets,Константин Емец,1968,109.8,-220,220,-227.5,,220,220,B,Single-ply
14,110,M,Open,Dmitriy Andreev,Дмитрий Андреев,1978,105.5,205,-215,-220,,205,205,B,Single-ply
15,110,M,Open,Andrey Maslyokhin,Андрей Маслёхин,1972,109.1,190,202.5,-210,,202.5,202.5,B,Single-ply
1,125,M,Open,Dmitriy Sapatov,Дмитрий Сапатов,1974,120.9,280,285,290,,290,290,B,Single-ply
2,125,M,Open,Sergey Kapusta,Сергей Капуста,1972,117.5,255,265,-272.5,,265,265,B,Single-ply
3,125,M,Open,Igor Kazantsev,Игорь Казанцев,1968,122.6,265,-270,-275,,265,265,B,Single-ply
4,125,M,Open,Sergey Grinyaev,Сергей Гриняев,1977,121.75,240,250,-265,,250,250,B,Single-ply
5,125,M,Open,Aleksandr Peredelskiy,Александр Передельский,1982,110.2,230,-240,242.5,,242.5,242.5,B,Single-ply
6,125,M,Open,Yuriy Ivanov,Юрий Иванов,1964,119.15,220,-240,240,,240,240,B,Single-ply
7,125,M,Open,Aleksandr Emelin,Александр Емелин,1973,113.3,225,235,-240,,235,235,B,Single-ply
8,125,M,Open,Oleg Dobrynin,Олег Добрынин,1969,119.6,215,225,235,,235,235,B,Single-ply
1,125+,M,Open,Vladimir Maksimov,Владимир Максимов,1966,131.5,310,-317.5,-317.5,,310,310,B,Single-ply
2,125+,M,Open,Viktor Shabanov,Виктор Шабанов,1976,130.4,-280,-280,280,,280,280,B,Single-ply
3,125+,M,Open,Vitaliy Mikheev,Виталий Михеев,1977,146.3,270,-280,280,,280,280,B,Single-ply
4,125+,M,Open,Yuriy Smirnov,Юрий Смирнов,1971,130.85,-265,-265,270,,270,270,B,Single-ply
5,125+,M,Open,Vyacheslav Solovyov,Вячеслав Соловьёв,1977,135.5,-250,255,267.5,,267.5,267.5,B,Single-ply
6,125+,M,Open,Dmitriy Chechurin,Дмитрий Чечурин,1977,125.35,257.5,265,-270,,265,265,B,Single-ply
7,125+,M,Open,Aleksey Golubtsov,Алексей Голубцов,1975,129.6,220,235,255,,255,255,B,Single-ply
8,125+,M,Open,Vladimir Simonenko,Владимир Симоненко,1960,131.9,-250,250,-260,,250,250,B,Single-ply
9,125+,M,Open,Aleksandr Baykalov,Александр Байкалов,1968,142.2,200,207.5,212.5,,212.5,212.5,B,Single-ply
1,44,F,Open,Olga Golubeva,Ольга Голубева,1970,43.7,85,90,92.5,,92.5,92.5,B,Single-ply
2,44,F,Open,Oksana Ryzhenko,Оксана Рыженко,1975,43.6,82.5,87.5,-90,,87.5,87.5,B,Single-ply
3,44,F,Open,Natalya Melnikova,Наталья Мельникова,1984,43.5,-82.5,82.5,-87.5,,82.5,82.5,B,Single-ply
1,48,F,Open,Oksana Sokovnina,Оксана Соковнина,1986,45.1,82.5,85,-87.5,,85,85,B,Single-ply
2,48,F,Open,Olga Kutina,Ольга Кутьина,1981,47.8,42.5,45,47.5,,47.5,47.5,B,Single-ply
1,52,F,Open,Irina Krylova,Ирина Крылова,1978,51.3,115,122.5,127.5,140,127.5,127.5,B,Single-ply
2,52,F,Open,Tatyana Petrova,Татьяна Петрова,1981,48.9,45,-50,-50,,45,45,B,Single-ply
1,56,F,Open,Larisa Kotkova,Лариса Коткова,1974,55.5,115,120,-122.5,,120,120,B,Single-ply
2,56,F,Open,Anzhela Kond,Анжела Конд,1975,55.6,115,-117.5,120,,120,120,B,Single-ply
3,56,F,Open,Elena Smolina,Елена Смолина,1973,55.9,117.5,-122.5,-122.5,,117.5,117.5,B,Single-ply
4,56,F,Open,Natalya Nebaeva,Наталья Небаева,1976,54.8,105,-110,-115,,105,105,B,Single-ply
5,56,F,Open,Tatyana Kartsevskaya,Татьяна Карцевская,1965,55.5,65,70,75,,75,75,B,Single-ply
1,60,F,Open,Valentina Nelyubova,Валентина Нелюбова,1966,59.3,117.5,125,-130,,125,125,B,Single-ply
2,60,F,Open,Elena Golovnya,Елена Головня,1965,59.3,110,115,-120,,115,115,B,Single-ply
3,60,F,Open,Tatyana Zubritskaya,Татьяна Зубрицкая,1978,58,100,-107.5,110,,110,110,B,Single-ply
1,67.5,F,Open,Galina Potselueva,Галина Поцелуева,1980,64.9,135,142.5,145,,145,145,B,Single-ply
2,67.5,F,Open,Elena Fomina,Елена Фомина,1969,64.7,135,140,142.5,,142.5,142.5,B,Single-ply
3,67.5,F,Open,Svetlana Korobeynikova,Светлана Коробейникова,1979,67,132.5,140,-145,,140,140,B,Single-ply
4,67.5,F,Open,Tatyana Yakovleva,Татьяна Яковлева,1969,67.2,135,-140,-142.5,,135,135,B,Single-ply
5,67.5,F,Open,Natalya Igosheva,Наталья Игошева,1981,64.4,117.5,125,-127.5,,125,125,B,Single-ply
6,67.5,F,Open,Svetlana Samokhina,Светлана Самохина,1975,67.2,110,120,-127.5,,120,120,B,Single-ply
7,67.5,F,Open,Yuliya Erogova,Юлия Ерогова,1982,66,90,95,100,,100,100,B,Single-ply
1,75,F,Open,Elena Sheverdina,Елена Шевердина,1968,74.7,-140,140,150,,150,150,B,Single-ply
2,75,F,Open,Olga Chuvilyova,Ольга Чувилёва,1979,67.6,120,127.5,132.5,,132.5,132.5,B,Single-ply
3,75,F,Open,Marina Karpova,Марина Карпова,1967,75,125,130,-132.5,,130,130,B,Single-ply
4,75,F,Open,Mariya Volkova,Мария Волкова,1972,68.8,125,127.5,-130,,127.5,127.5,B,Single-ply
5,75,F,Open,Marina Mikhaylova,Марина Михайлова,1981,70.1,112.5,122.5,-130,,122.5,122.5,B,Single-ply
6,75,F,Open,Svetlana Kulaeva,Светлана Кулаева,1983,70.3,100,107.5,-115,,107.5,107.5,B,Single-ply
DQ,75,F,Open,Svetlana Zolotova,Светлана Золотова,1981,70.8,-122.5,-122.5,-122.5,,,,B,Single-ply
1,82.5,F,Open,Anna Terentyeva,Анна Терентьева,1975,75.5,155,165,-172.5,,165,165,B,Single-ply
2,82.5,F,Open,Larisa Shchepina,Лариса Щепина,1970,76.9,115,120,130,,130,130,B,Single-ply
3,82.5,F,Open,Yuliya Kirienko,Юлия Кириенко,1977,75.5,105,-110,110,,110,110,B,Single-ply
4,82.5,F,Open,Elena Yarushina,Елена Ярушина,1975,81.6,110,-120,-120,,110,110,B,Single-ply
5,82.5,F,Open,Galina Tsukanova,Галина Цуканова,1964,79.3,80,85,90,,90,90,B,Single-ply
1,90,F,Open,Elena Yurik,Елена Юрик,1977,82.8,150,155,-160,,155,155,B,Single-ply
2,90,F,Open,Tamara Nekoshnova,Тамара Некошнова,1982,82.65,115,122.5,130,,130,130,B,Single-ply
3,90,F,Open,Evgeniya Shabanova,Евгения Шабанова,1977,86,107.5,117.5,-127.5,,117.5,117.5,B,Single-ply
4,90,F,Open,Tatyana Mardanova,Татьяна Марданова,1979,89.5,-95,95,100,,100,100,B,Single-ply
1,90+,F,Open,Irina Naskripnyak,Ирина Наскрипняк,1969,98,160,170,172.5,,172.5,172.5,B,Single-ply
2,90+,F,Open,Svetlana Paltseva,Светлана Пальцева,1969,101.6,157.5,165,172.5,,172.5,172.5,B,Single-ply
3,90+,F,Open,Elena Kurbakova,Елена Курбакова,1976,104.25,145,152.5,-160,,152.5,152.5,B,Single-ply
