Division,WeightClassKg,Place,Name,Team,BodyweightKg,Best3SquatKg,Best3BenchKg,Best3DeadliftKg,TotalKg,Equipment,Event,Sex
Boys,55.79,1,George Bankhead,Freeport Brazosport,51.8,145.15,63.5,170.1,378.75,Single-ply,SBD,M
Boys,51.71,2,Brandon Parish,Galveston Ball,49.99,129.27,81.65,129.27,340.19,Single-ply,SBD,M
Boys,51.71,3,Fabian Osoria,Pasadena Dobie,47.08,102.06,56.7,97.52,256.28,Single-ply,SBD,M
Boys,51.71,4,Michael Avelleneda,Stafford,45.99,61.23,36.29,83.91,181.44,Single-ply,SBD,M
Boys,51.71,DQ,Michael Collard,Santa Fe,50.17,,,,,Single-ply,SBD,M
Boys,59.87,1,Genaro Rangel,Santa Fe,59.24,131.54,74.84,140.61,347,Single-ply,SBD,M
Boys,59.87,DQ,N Hernandez,Texas City,59.15,129.27,,,,Single-ply,SBD,M
Boys,67.13,DQ,Christian Cain,Freeport Brazosport,60.06,,,,,Single-ply,SBD,M
Boys,59.87,DQ,Devin Allen,Hitchcock,59.87,122.47,,,,Single-ply,SBD,M
Boys,67.13,1,Jeffrey Franklin,Galveston Ball,62.96,156.49,90.72,165.56,412.77,Single-ply,SBD,M
Boys,67.13,2,Chris Boyd,Freeport Brazosport,61.23,151.95,88.45,151.95,392.36,Single-ply,SBD,M
Boys,67.13,3,Jasson Hernandez,Houston Chavez,64.5,113.4,92.99,158.76,365.14,Single-ply,SBD,M
Boys,67.13,4,JJ McDaniel,La Porte,64.14,113.4,83.91,138.35,335.66,Single-ply,SBD,M
Boys,67.13,5,Orlando Valdez,Houston Chavez,63.32,102.06,74.84,142.88,319.78,Single-ply,SBD,M
Boys,67.13,6,Marco Salas,Freeport Brazosport,65.23,124.74,68.04,127.01,319.78,Single-ply,SBD,M
Boys,67.13,DQ,Leslie Gray,Houston Chavez,61.33,113.4,,,,Single-ply,SBD,M
Boys,74.84,1,Brandon Jenkins,Houston Chavez,74.75,195.04,102.06,204.12,501.22,Single-ply,SBD,M
Boys,74.84,2,Josh George,Hitchcock,74.03,163.29,111.13,201.85,476.27,Single-ply,SBD,M
Boys,74.84,3,J McCardell,Texas City,72.03,172.37,106.59,183.7,462.66,Single-ply,SBD,M
Boys,74.84,4,J Calhoun,Texas City,72.76,174.63,122.47,165.56,462.66,Single-ply,SBD,M
Boys,74.84,5,Zac Schaffer,Santa Fe,74.48,154.22,90.72,181.44,426.38,Single-ply,SBD,M
Boys,74.84,6,Philip Benning,Freeport Brazosport,72.57,131.54,97.52,172.37,401.43,Single-ply,SBD,M
Boys,74.84,7,Juan Santos,Pasadena Dobie,74.03,136.08,97.52,147.42,381.02,Single-ply,SBD,M
Boys,74.84,8,Michael Briones,Pasadena Dobie,68.31,138.35,92.99,147.42,378.75,Single-ply,SBD,M
Boys,74.84,9,Viktor Pineda,Pasadena Dobie,72.03,99.79,92.99,142.88,335.66,Single-ply,SBD,M
Boys,74.84,10,Taylor Givens,Stafford,68.76,102.06,77.11,142.88,322.05,Single-ply,SBD,M
Boys,74.84,DQ,Dante Martin,Houston Chavez,74.84,,,,,Single-ply,SBD,M
Boys,82.1,1,JT McLawchlin,Santa Fe,81.37,190.51,145.15,226.8,562.45,Single-ply,SBD,M
Boys,82.1,2,De'Juan Bell,La Porte,77.75,170.1,113.4,183.7,467.2,Single-ply,SBD,M
Boys,82.1,3,Barry Authenreit,Pasadena Dobie,79.38,174.63,88.45,204.12,467.2,Single-ply,SBD,M
Boys,82.1,4,Fred Rodriguez,Santa Fe,81.01,156.49,124.74,179.17,460.4,Single-ply,SBD,M
Boys,82.1,5,Joseph Caligone,Galveston Ball,78.47,145.15,104.33,183.7,433.18,Single-ply,SBD,M
Boys,82.1,6,Mathew Walton,Santa Fe,78.56,158.76,92.99,165.56,417.3,Single-ply,SBD,M
Boys,89.81,7,D Hinton,Texas City,82.19,158.76,97.52,156.49,412.77,Single-ply,SBD,M
Boys,82.1,8,Brandon Busch,La Porte,79.83,133.81,106.59,165.56,405.97,Single-ply,SBD,M
Boys,82.1,9,Sean Peace,Pasadena Dobie,79.11,124.74,90.72,176.9,392.36,Single-ply,SBD,M
Boys,82.1,10,Jimmy Velero,La Porte,81.47,117.93,79.38,165.56,362.87,Single-ply,SBD,M
Boys,82.1,DQ,Jorge Fuentes,Pasadena Dobie,75.3,,,,,Single-ply,SBD,M
Boys,82.1,DQ,Alcin Hammon,Hitchcock,82.1,,,,,Single-ply,SBD,M
Boys,82.1,DQ,Bruce Eversole,Hitchcock,80.92,127.01,90.72,,,Single-ply,SBD,M
Boys,89.81,1,Joseph Valdez,Texas City,85,249.48,136.08,183.7,569.26,Single-ply,SBD,M
Boys,89.81,2,Tyrel Davis,Galveston Ball,89.36,183.7,120.2,210.92,514.83,Single-ply,SBD,M
Boys,89.81,3,Tj Combs,Hitchcock,86.45,183.7,104.33,204.12,492.15,Single-ply,SBD,M
Boys,89.81,4,Marcus Escobedo,Hitchcock,88.54,188.24,102.06,195.04,485.34,Single-ply,SBD,M
Boys,89.81,5,Johnny Reyes,Stafford,87.18,183.7,104.33,185.97,474,Single-ply,SBD,M
Boys,89.81,6,Chris Izaguirre,Houston Chavez,86,167.83,88.45,210.92,467.2,Single-ply,SBD,M
Boys,89.81,7,Jared Fletcher,Freeport Brazosport,89.36,181.44,106.59,174.63,462.66,Single-ply,SBD,M
Boys,89.81,8,Ario Holmen,Galveston Ball,85.28,147.42,120.2,192.78,460.4,Single-ply,SBD,M
Boys,89.81,9,M. Ramirez,Texas City,87.18,158.76,102.06,183.7,444.52,Single-ply,SBD,M
Boys,89.81,10,Jordan Milburm,Galveston Ball,83.91,142.88,77.11,183.7,403.7,Single-ply,SBD,M
Boys,89.81,11,Hunter Caldwell,Freeport Brazosport,85,151.95,83.91,158.76,394.63,Single-ply,SBD,M
Boys,89.81,DQ,Raheem Fontenot,Galveston Ball,84.28,113.4,97.52,154.22,,Single-ply,SBD,M
Boys,99.79,1,Savon Caldwell,Texas City,92.44,249.48,138.35,269.89,657.71,Single-ply,SBD,M
Boys,99.79,2,Dj Sweeney,Santa Fe,98.97,213.19,170.1,204.12,587.4,Single-ply,SBD,M
Boys,99.79,3,Jason Kline,La Porte,92.9,165.56,102.06,204.12,471.74,Single-ply,SBD,M
Boys,99.79,4,Cedric Edwards,Galveston Ball,90.36,142.88,97.52,204.12,444.52,Single-ply,SBD,M
Boys,99.79,5,Zac Love,La Porte,96.25,151.95,83.91,183.7,419.57,Single-ply,SBD,M
Boys,99.79,6,Noel Mendoza,Houston Chavez,99.52,142.88,99.79,165.56,408.23,Single-ply,SBD,M
Boys,99.79,7,Allen Hopkins,Galveston Ball,92.44,170.1,79.38,154.22,403.7,Single-ply,SBD,M
Boys,99.79,8,Cole Hardeman,Galveston Ball,92.17,124.74,74.84,111.13,310.71,Single-ply,SBD,M
Boys,109.77,1,Michael Alviar,Freeport Brazosport,106.41,235.87,124.74,195.04,555.65,Single-ply,SBD,M
Boys,109.77,2,Anthony Brown,Freeport Brazosport,102.6,197.31,117.93,192.78,508.02,Single-ply,SBD,M
Boys,109.77,3,Jon London,Houston Chavez,105.6,161.03,149.69,183.7,494.42,Single-ply,SBD,M
Boys,109.77,4,K. Robinson,Texas City,102.15,183.7,113.4,183.7,480.81,Single-ply,SBD,M
Boys,109.77,5,G Garza,Texas City,109.77,183.7,102.06,192.78,478.54,Single-ply,SBD,M
Boys,109.77,6,A. Burton,Texas City,100.61,208.65,108.86,158.76,476.27,Single-ply,SBD,M
Boys,109.77,7,Chris Rico,La Porte,107.68,176.9,113.4,183.7,474,Single-ply,SBD,M
Boys,109.77,8,Jerry Valdez,La Porte,108.86,165.56,124.74,176.9,467.2,Single-ply,SBD,M
Boys,109.77,DQ,Adrian Crockett,Galveston Ball,103.33,204.12,,,,Single-ply,SBD,M
Boys,124.74,1,Ray Madrigal,Freeport Brazosport,122.47,231.33,129.27,215.46,576.06,Single-ply,SBD,M
Boys,124.74,2,Seth La,Pasadena Dobie,113.4,222.26,147.42,181.44,551.11,Single-ply,SBD,M
Boys,124.74,3,Brodyrick Lomax,Hitchcock,124.1,219.99,111.13,204.12,535.24,Single-ply,SBD,M
Boys,124.74,4,J. Burke,Texas City,123.38,204.12,92.99,158.76,455.86,Single-ply,SBD,M
Boys,124.74,5,Markel Perry,La Porte,113.04,158.76,113.4,174.63,446.79,Single-ply,SBD,M
Boys,124.74,6,Ismael Zuniga,Houston Chavez,124.47,154.22,113.4,165.56,433.18,Single-ply,SBD,M
Boys,124.74,7,Eduardo Favela,Houston Chavez,119.11,161.03,102.06,147.42,410.5,Single-ply,SBD,M
Boys,124.74+,1,Trey Teague,Freeport Brazosport,150.77,294.84,147.42,263.08,705.34,Single-ply,SBD,M
Boys,124.74+,2,Maurice Morris,La Porte,159.57,219.99,156.49,226.8,603.28,Single-ply,SBD,M
Boys,124.74+,3,Gray Laskoskie,Hitchcock,143.61,197.31,136.08,204.12,537.51,Single-ply,SBD,M
Boys,124.74+,4,Marcos Reyes,Stafford,141.25,181.44,127.01,199.58,508.02,Single-ply,SBD,M
Boys,124.74+,5,Corey Lee,La Porte,136.62,215.46,124.74,165.56,505.76,Single-ply,SBD,M
Boys,124.74+,6,Eric Mills,Hitchcock,137.26,185.97,108.86,174.63,469.47,Single-ply,SBD,M
Boys,,NS,Jesse Canell,Stafford,,,,,,Single-ply,SBD,M
