Place,Name,Sex,Equipment,Event,BirthYear,Country,BodyweightKg,Best3SquatKg,Best3BenchKg,Best3DeadliftKg,TotalKg
1,Yevgen Yarymbash,M,Single-ply,SBD,1983,Ukraine,128.05,460,352.5,382.5,1195
2,Andrey Malanichev,M,Single-ply,SBD,1977,Russia,137.6,480,300,400,1180
3,Andrey Belyaev,M,Single-ply,SBD,1983,Russia,98.15,425,300,375,1100
4,Alexander Klyushev,M,Single-ply,SBD,1983,Russia,142.9,430,260,390,1080
5,Vidas Blekaitis,M,Single-ply,SBD,1972,Lithuania,147.2,430,280,370,1080
6,Anton Solodov,M,Single-ply,SBD,1985,Russia,148.25,440,300,327,1067.5
7,Vladimir Kalinichenko,M,Single-ply,SBD,1972,Russia,153,415,280,370,1065
DQ,Jonathon Bernor,M,Single-ply,SBD,1975,USA,142.2,425,130,,
