Name,WeightClassKg,BodyweightKg,Age,Best3BenchKg,Best3SquatKg,Best3DeadliftKg,TotalKg,Place,Sex,Event,Equipment,Tested
Bill Gillespie,140+,146.6,59,386,,249.5,635.5,1,M,BD,Multi-ply,Yes
Andre Mealy,125,123.8,24,222,,,222,1,M,B,Raw,Yes
