Division,WeightClassKg,Place,Name,Team,BodyweightKg,Best3SquatKg,Best3BenchKg,Best3DeadliftKg,TotalKg,Equipment,Event,Sex
Boys,51.71,1,Brian Self,Crandall,49.44,63.5,45.36,90.72,199.58,Single-ply,SBD,M
Boys,59.87,1,Jailon Armstrong,Kaufman,58.24,124.74,77.11,131.54,333.39,Single-ply,SBD,M
Boys,59.87,2,Cameron Nobles,Kaufman,57.97,127.01,65.77,136.08,328.85,Single-ply,SBD,M
Boys,59.87,3,Kole Hartis,Crandall,56.52,88.45,58.97,104.33,251.74,Single-ply,SBD,M
Boys,67.13,1,Niam Diego,Emory Rains,63.87,138.35,65.77,158.76,362.87,Single-ply,SBD,M
Boys,67.13,2,Trenton Worley,Emory Rains,65.32,122.47,83.91,133.81,340.19,Single-ply,SBD,M
Boys,67.13,3,Connor Petsch,Kaufman,65.95,111.13,81.65,124.74,317.51,Single-ply,SBD,M
Boys,67.13,4,Bernard Robinson,Emory Rains,61.6,108.86,61.23,124.74,294.84,Single-ply,SBD,M
Boys,67.13,5,Evan Wells,Crandall,61.14,20.41,63.5,65.77,149.69,Single-ply,SBD,M
Boys,67.13,DQ,Eric Brown,Wills Point,60.87,72.57,,,,Single-ply,SBD,M
Boys,74.84,1,Scott Mitchell,Kaufman,70.22,158.76,83.91,154.22,396.89,Single-ply,SBD,M
Boys,74.84,2,Chris Goforth,Emory Rains,74.39,145.15,92.99,149.69,387.82,Single-ply,SBD,M
Boys,74.84,3,Taylor Faris,Emory Rains,74.75,115.67,63.5,131.54,310.71,Single-ply,SBD,M
Boys,74.84,4,Joseph Miller,Emory Rains,72.76,108.86,68.04,124.74,301.64,Single-ply,SBD,M
Boys,74.84,5,Clayton Murphy,Crandall,67.77,106.59,61.23,131.54,299.37,Single-ply,SBD,M
Boys,74.84,DQ,Braxton Allen,Crandall,72.03,158.76,,,,Single-ply,SBD,M
Boys,89.81,1,Dru Prox,Kaufman,82.33,170.1,104.33,199.58,474,Single-ply,SBD,M
Boys,82.1,2,Hunter Ryan,Crandall,79.11,167.83,95.25,163.29,426.38,Single-ply,SBD,M
Boys,82.1,3,Chandler Hill,Crandall,81.1,172.37,81.65,163.29,417.3,Single-ply,SBD,M
Boys,89.81,4,Zach Eskridge,Crandall,82.28,163.29,95.25,158.76,417.3,Single-ply,SBD,M
Boys,82.1,5,Jacob Ghormley,Crandall,78.29,142.88,92.99,158.76,394.63,Single-ply,SBD,M
Boys,82.1,6,Jacob Thomas,Kaufman,79.47,147.42,81.65,149.69,378.75,Single-ply,SBD,M
Boys,82.1,7,Trent Mills,Crandall,81.47,127.01,92.99,136.08,356.07,Single-ply,SBD,M
Boys,82.1,8,Adam Myers,Quinlan Ford,81.83,113.4,90.72,115.67,319.78,Single-ply,SBD,M
Boys,82.1,9,Marco Reyes,Quinlan Ford,77.84,90.72,58.97,120.2,269.89,Single-ply,SBD,M
Boys,82.1,DQ,Grayson Burns,Emory Rains,76.66,,,,,Single-ply,SBD,M
Boys,82.1,DQ,Cameron Barron,Crandall,77.29,104.33,61.23,,,Single-ply,SBD,M
Boys,82.1,DQ,Oscar Camacho,Kaufman,81.28,192.78,97.52,,,Single-ply,SBD,M
Boys,89.81,1,Jackson Fritz,Kaufman,88.27,181.44,104.33,183.7,469.47,Single-ply,SBD,M
Boys,89.81,2,Brenden Blunt,Crandall,84.28,190.51,108.86,167.83,467.2,Single-ply,SBD,M
Boys,89.81,3,Dalton Bramhall,Crandall,83.82,185.97,90.72,167.83,444.52,Single-ply,SBD,M
Boys,89.81,4,Rigoberto Torres,Kaufman,89.18,156.49,77.11,170.1,403.7,Single-ply,SBD,M
Boys,89.81,5,Lansdon Yoakum,Crandall,84.55,124.74,68.04,145.15,337.93,Single-ply,SBD,M
Boys,99.79,1,Dylan Byington,Crandall,98.07,197.31,108.86,190.51,496.68,Single-ply,SBD,M
Boys,99.79,2,Corey Mullican,Kaufman,94.35,172.37,95.25,181.44,449.06,Single-ply,SBD,M
Boys,99.79,3,Kyle Schlee,Kaufman,93.44,158.76,99.79,172.37,430.91,Single-ply,SBD,M
Boys,99.79,4,Spencer Murrey,Kaufman,99.79,156.49,81.65,170.1,408.23,Single-ply,SBD,M
Boys,109.77,1,David Brown,Crandall,100.33,199.58,113.4,195.04,508.02,Single-ply,SBD,M
Boys,109.77,2,David Tapia,Emory Rains,106.32,181.44,86.18,172.37,439.98,Single-ply,SBD,M
Boys,124.74,1,Carlos Martinez,Kaufman,119.2,167.83,77.11,167.83,412.77,Single-ply,SBD,M
