Place,Name,Division,Country,BodyweightKg,Squat1Kg,Squat2Kg,Squat3Kg,Best3SquatKg,Squat4Kg,Bench1Kg,Bench2Kg,Bench3Kg,Best3BenchKg,Bench4Kg,Deadlift1Kg,Deadlift2Kg,Deadlift3Kg,Best3DeadliftKg,Deadlift4Kg,TotalKg,WeightClassKg,Sex,CyrillicName,BirthYear,Tested,Equipment,Event
1,Kristina Medintseva,J,Russia,43.9,50,55,-60,55,,25,30,-35,30,,50,60,70,70,,155,44,F,Кристина Мединцева,1991,Yes,Raw,SBD
1,Svetlana Maletskaya,O,Russia,52,80,90,-100,90,,60,63,65,65,-67.5,120,125,130,130,,285,52,F,Светлана Малецкая,1983,Yes,Raw,SBD
1,Ekaterina Plokhaya,J,Russia,54.5,70,75,-80,75,,45,47.5,50,50,,90,100,-105,100,,225,56,F,Екатерина Плохая,1989,Yes,Raw,SBD
1,Mariya Bunina,O,Russia,55.3,-80,80,-90,80,,50,-55,-55,50,,100,110,115,115,,245,56,F,Мария Бунина,1986,Yes,Raw,SBD
2,Ekaterina Plokhaya,O,Russia,54.5,70,75,-80,75,,45,47.5,50,50,,90,100,-105,100,,225,56,F,Екатерина Плохая,1989,Yes,Raw,SBD
1,Elizaveta Shinkareva,T1,Russia,63.7,-80,80,-90,80,,55,60,62.5,62.5,,95,105,-110,105,,247.5,67.5,F,Елизавета Шинкарева,1998,Yes,Raw,SBD
1,Marina Vishnevskaya,O,Russia,65.8,-90,90,-110,90,,45,50,55,55,,130,150,155,155,,300,67.5,F,Марина Вишневская,1985,Yes,Raw,SBD
1,Tamerlan Skhvitaridze,T1,Russia,40,30,35,45,45,,27.5,-32.5,32.5,32.5,,45,52.5,62.5,62.5,,140,52,M,Тамерлан Схвитаридзе,2001,Yes,Raw,SBD
1,Vladimir Chusov,T2,Russia,52,-120,120,125,125,,77.5,-82.5,-82.5,77.5,,120,-130,-130,120,,322.5,52,M,Владимир Чусов,1996,Yes,Raw,SBD
1,Arsen Merdenov,T1,Russia,59.4,95,100,-105,100,,50,52.5,55,55,,105,110,115,115,,270,60,M,Арсен Мерденов,2000,Yes,Raw,SBD
1,Albert Kurmanov,J,Russia,58.7,110,120,-130,120,,80,90,-95,90,,170,180,-185,180,,390,60,M,Альберт Курманов,1992,Yes,Raw,SBD
1,Maksim Sukhobok,M2,Russia,60,140,150,-160,150,,97.5,-105,-105,97.5,,185,-195,,185,,432.5,60,M,Максим Сухобок,1965,Yes,Raw,SBD
1,Aleksandr Bugaev,T2,Russia,65.6,90,100,-110,100,,100,-115,-115,100,,150,160,-170,160,,360,67.5,M,Александр Бугаев,1996,Yes,Raw,SBD
1,Zalim Khamgokov,T3,Russia,66.7,-110,110,135,135,,90,100,107.5,107.5,,160,180,190,190,,432.5,67.5,M,Залим Хамгоков,1994,Yes,Raw,SBD
DQ,Nikolay Tretyak,T3,Russia,63,-120,-120,-140,,,-80,,,,,-140,,,,,,67.5,M,Николай Третьяк,1994,Yes,Raw,SBD
DQ,Daniil Zaytsev,T3,Russia,65.8,140,150,-160,150,,100,107.5,-115,107.5,,-190,-190,-190,,,,67.5,M,Даниил Зайцев,1995,Yes,Raw,SBD
1,Evgeniy Kutsyy,J,Russia,66.1,140,150,160,160,,100,110,-115,110,,160,170,180,180,,450,67.5,M,Евгений Куцый,1993,Yes,Raw,SBD
1,Yuriy Nikitchenko,O,Russia,67.1,200,210,-217.5,210,,122.5,127.5,-132.5,127.5,,200,-210,210,210,,547.5,67.5,M,Юрий Никитченко,1977,Yes,Raw,SBD
2,Ivan Afanasyev,O,Russia,67.5,160,170,175,175,,120,127.5,132.5,132.5,,200,210,215,215,,522.5,67.5,M,Иван Афанасьев,1987,Yes,Raw,SBD
3,Aleksey Okunev,O,Russia,66.1,160,-170,175,175,,115,120,-125,120,,200,215,-222.5,215,,510,67.5,M,Алексей Окунев,1975,Yes,Raw,SBD
DQ,Andrey Redkozub,O,Russia,67.3,155,-165,-165,155,,-125,-125,-125,,,-190,,,,,,67.5,M,Андрей Редкозуб,1982,Yes,Raw,SBD
1,Sergey Alampiev,M4,Russia,66.6,140,155,-162.5,155,,90,100,-106,100,,180,205,215,215,,470,67.5,M,Сергей Алампиев,1957,Yes,Raw,SBD
1,Vladimir Sviderskiy,M5,Russia,67.5,125,-132.5,135,135,,85,90,92.5,92.5,,135,142.5,147.5,147.5,,375,67.5,M,Владимир Свидерский,1951,Yes,Raw,SBD
1,Mansur Magomedov,J,Russia,71,110,-120,-120,110,,85,90,-95,90,,160,-170,-170,160,,360,75,M,Мансур Магомедов,1989,Yes,Raw,SBD
2,Pavel Gontarev,J,Russia,74.4,100,-110,110,110,,70,-75,-75,70,,120,-130,-130,120,,300,75,M,Павел Гонтарев,1989,Yes,Raw,SBD
1,Dmitry Nasonov,O,Russia,73.7,180,195,202.5,202.5,,122.5,130,132.5,132.5,,250,265,277.5,277.5,,612.5,75,M,Дмитрий Насонов,1992,Yes,Raw,SBD
1,Vladimir Pryazhentsev,M2,Russia,73.5,170,182.5,187.5,187.5,,117.5,125,127.5,127.5,,190,217.5,-228,217.5,,532.5,75,M,Владимир Пряженцев,1965,Yes,Raw,SBD
1,Alan Chertkoev,T1,Russia,80.9,120,-135,135,135,,100,-105,-105,100,,140,155,165,165,,400,82.5,M,Алан Черткоев,1998,Yes,Raw,SBD
1,Nikita Podobnyy,T2,Russia,80.6,140,150,-155,150,,100,-105,-105,100,,185,200,205,205,,455,82.5,M,Никита Подобный,1995,Yes,Raw,SBD
1,Vitaliy Bugrimov,T3,Russia,80.5,180,190,-195,190,,140,-145,-145,140,,180,190,200,200,,530,82.5,M,Виталий Бугримов,1993,Yes,Raw,SBD
2,Nikolay Korshunov,T3,Russia,81.6,150,160,-167.5,160,,105,112.5,-117.5,112.5,,170,185,,185,,457.5,82.5,M,Николай Коршунов,1995,Yes,Raw,SBD
3,Andrey Migov,T3,Russia,82.5,135,145,150,150,,-95,95,100,100,,170,180,190,190,,440,82.5,M,Андрей Мигов,1995,Yes,Raw,SBD
1,Sergey Gurkovskiy,J,Russia,81.2,180,190,200,200,,140,145,150,150,,220,230,-240,230,,580,82.5,M,Сергей Гурковский,1990,Yes,Raw,SBD
1,Nikolay Shapovalov,O,Russia,80.4,175,180,197.5,197.5,,120,-127.5,-127.5,120,,190,-205,-205,190,,507.5,82.5,M,Николай Шаповалов,1977,Yes,Raw,SBD
2,Andrey Plyuta,O,Russia,82.5,-155,160,-165,160,,120,-130,-130,120,,200,210,-215,210,,490,82.5,M,Андрей Плюта,1982,Yes,Raw,SBD
3,Ivan Pakhomov,O,Russia,79,150,160,170,170,,110,115,,115,,170,180,-190,180,,465,82.5,M,Иван Пахомов,1986,Yes,Raw,SBD
1,Anatoliy Belyakov,T2,Russia,88.6,102.5,110,120,120,,60,70,-75,70,,150,165,,165,,355,90,M,Анатолий Беляков,1996,Yes,Raw,SBD
1,Amond Gigolaev,T3,Russia,85.2,-120,130,-140,130,,90,95,-100,95,,160,170,180,180,,405,90,M,Амонд Гиголаев,1995,Yes,Raw,SBD
DQ,Nikolay Buraev,T3,Russia,85.3,120,130,-140,130,,-100,-110,-110,,,-130,,,,,,90,M,Николай Бураев,1993,Yes,Raw,SBD
1,Aslan Dolov,J,Russia,87.4,-200,200,-215,200,,140,-145,145,145,,230,255,-260,255,,600,90,M,Аслан Долов,1990,Yes,Raw,SBD
2,Artur Bugaev,J,Russia,86.4,140,150,160,160,,-110,117.5,-122.5,117.5,,190,200,215,215,,492.5,90,M,Артур Бугаев,1993,Yes,Raw,SBD
3,Feliks Kasimov,J,Russia,85.5,140,155,165,165,,110,120,-122.5,120,,170,190,-230,190,,475,90,M,Феликс Касимов,1993,Yes,Raw,SBD
1,Vladimir Ivantsov,O,Russia,89.4,-210,210,230,230,,140,150,155,155,,230,250,-260,250,,635,90,M,Владимир Иванцов,1985,Yes,Raw,SBD
2,Dmitriy Samokhvalov,O,Russia,87.5,160,-170,170,170,,120,130,-132.5,130,,200,,,200,,500,90,M,Дмитрий Самохвалов,1973,Yes,Raw,SBD
1,Sergey Ladchenko,M1,Russia,89,130,140,150,150,,125,130,135,135,,160,170,180,180,,465,90,M,Сергей Ладченко,1972,Yes,Raw,SBD
1,Yuriy Kudelya,T2,Russia,96,-140,150,160,160,,120,-125,125,125,,190,205,-217.5,205,,490,100,M,Юрий Куделя,1995,Yes,Raw,SBD
2,Roman Cherepov,T2,Russia,93.7,150,-160,-165,150,,-100,105,-110,105,,190,-200,,190,,445,100,M,Роман Черепов,1995,Yes,Raw,SBD
1,Nikita Kozlov,T3,Russia,98.9,140,150,-160,150,,110,-120,-120,110,,130,140,-160,140,,400,100,M,Никита Козлов,1995,Yes,Raw,SBD
DQ,Sergey Marchenko,M3,Russia,99.7,-150,160,-165,160,,-130,-130,-130,,,-180,,,,,,100,M,Сергей Марченко,1959,Yes,Raw,SBD
1,Vladimir Zakharov,M4,Russia,99.7,170,180,190,190,,150,160,170,170,,170,185,195,195,,555,100,M,Владимир Захаров,1955,Yes,Raw,SBD
1,Aleksandr Danshin,J,Russia,105.6,220,240,-250,240,,150,-160,-160,150,,210,240,-255,240,,630,110,M,Александр Даньшин,1991,Yes,Raw,SBD
1,Vladimir Chernyshev,O,Russia,109.5,207.5,215,220,220,,117.5,122.5,125,125,,217.5,222.5,,222.5,,567.5,110,M,Владимир Чернышев,1948,Yes,Raw,SBD
1,Vladimir Chernyshev,M5,Russia,109.5,207.5,215,220,220,,117.5,122.5,125,125,,217.5,222.5,,222.5,,567.5,110,M,Владимир Чернышев,1948,Yes,Raw,SBD
1,Maksim Talalov,J,Russia,124,210,230,-250,230,,150,,,150,,220,240,250,250,,630,125,M,Максим Талалов,1989,Yes,Raw,SBD
1,Aleksey Dmitriev,O,Russia,119.3,-260,260,-275,260,,185,-190,,185,,275,290,300,300,,745,125,M,Алексей Дмитриев,1977,Yes,Raw,SBD
2,Roman Dombrovskiy,O,Russia,119.7,-190,190,-200,190,,-155,-160,160,160,,220,240,-250,240,,590,125,M,Роман Домбровский,1974,Yes,Raw,SBD
1,Arsen Baliev,J,Russia,135.7,240,-250,255,255,,160,165,-170,165,,250,275,-290,275,,695,140,M,Арсен Балиев,1989,Yes,Raw,SBD
1,Lilya Eminova,J,Russia,44,45,50,55,55,,27.5,-30,30,30,,75,80,85,85,,170,44,F,Лиля Эминова,1992,No,Raw,SBD
1,Galina Guteneva,J,Russia,50.7,65,67.5,70,70,,32.5,35,37.5,37.5,,75,80,82.5,82.5,,190,52,F,Галина Гутенева,1992,No,Raw,SBD
2,Alina Stepina,J,Russia,50.2,-40,50,-60,50,,30,-32.5,-32.5,30,,50,60,70,70,,150,52,F,Алина Степина,1992,No,Raw,SBD
1,Olga Mikhaylova,O,Russia,51.9,92.5,-100,100,100,,60,62.5,-65,62.5,,142.5,-150,-150,142.5,,305,52,F,Ольга Михайлова,1971,No,Raw,SBD
2,Elena Zadorozhnyaya,O,Russia,51.8,-65,-67.5,67.5,67.5,,35,-40,40,40,,75,80,85,85,,192.5,52,F,Елена Задорожняя,1982,No,Raw,SBD
1,Olga Mikhaylova,M,Russia,51.9,92.5,-100,100,100,,60,62.5,-65,62.5,,142.5,-150,-150,142.5,,305,52,F,Ольга Михайлова,1971,No,Raw,SBD
1,Lyubov Denisenko,J,Russia,58.7,70,85,-100,85,,50,55,-60,55,,100,115,130,130,,270,60,F,Любовь Денисенко,1991,No,Raw,SBD
1,Yuliya Bakhir,O,Russia,58.2,-117.5,117.5,120,120,,92.5,97.5,-100,97.5,,175,192.5,-200,192.5,,410,60,F,Юлия Бахир,1984,No,Raw,SBD
1,Tatyana Merezhko,O,Russia,81.8,195,205,210,210,-215.5,97.5,105,-110,105,,202.5,215,220,220,,535,82.5,F,Татьяна Мережко,1978,No,Raw,SBD
1,Igor Kuznetsov,J,Russia,67.3,195,-205,205,205,,135,145,150,150,,215,227.5,235,235,-240,590,67.5,M,Игорь Кузнецов,1989,No,Raw,SBD
1,Yuriy Popov,T3,Russia,70.9,115,125,-130,125,,70,75,-80,75,,130,140,150,150,,350,75,M,Юрий Попов,1994,No,Raw,SBD
DQ,Semen Efimtsov,O,Russia,72.5,-130,-130,-130,,,-85,,,,,-155,,,,,,75,M,Семен Ефимцов,1983,No,Raw,SBD
1,Vladimir Rybalko,O,Russia,80.5,170,180,200,200,,150,160,-165,160,,220,235,240,240,,600,82.5,M,Владимир Рыбалко,1987,No,Raw,SBD
2,Zaur Guseynov,O,Russia,82.1,185,200,-207.5,200,,135,142.5,-145,142.5,,220,240,-250,240,,582.5,82.5,M,Заур Гусейнов,1986,No,Raw,SBD
1,Valeriy Stoyanov,M4,Russia,81.6,140,150,160,160,170.5,110,115,-117.5,115,,170,185,200.5,200.5,,475.5,82.5,M,Валерий Стоянов,1957,No,Raw,SBD
1,Yuriy Chepets,M6,Russia,80.5,200,210,220,220,-230.5,142.5,147.5,-150,147.5,,200,210,215.5,215.5,,583,82.5,M,Юрий Чепец,1943,No,Raw,SBD
1,Denis Kulikov,J,Russia,86.4,105,125,150,150,,100,-112.5,-112.5,100,,130,165,180,180,,430,90,M,Денис Куликов,1991,No,Raw,SBD
1,Vladimir Bakshaliev,O,Russia,88.8,210,220,225,225,,155,160,165,165,,250,260,270,270,,660,90,M,Владимир Бакшалиев,1983,No,Raw,SBD
2,Andrey Nesterenko,O,Russia,89.3,-210,210,217.5,217.5,,142,150,152.5,152.5,,240,250,-257.5,250,,620,90,M,Андрей Нестеренко,1980,No,Raw,SBD
3,Artur Shuvaev,O,Russia,83.2,200,220,-235,220,,140,-152.5,155,155,,200,225,-250,225,,600,90,M,Артур Шуваев,1976,No,Raw,SBD
4,Timur Shakhmurzaev,O,Russia,86.3,180,190,200,200,,140,150,-160,150,,200,215,-232.5,215,,565,90,M,Тимур Шахмурзаев,1988,No,Raw,SBD
5,Denis Malkov,O,Russia,86.6,-130,130,150,150,,100,115,125,125,,130,155,175,175,,450,90,M,Денис Мальков,1984,No,Raw,SBD
1,Ilya Baranov,T3,Russia,92.1,150,170,-180,170,,105,115,125,125,,160,180,200,200,,495,100,M,Илья Баранов,1994,No,Raw,SBD
1,Maksim Korepin,J,Russia,98.5,220,232.5,-242.5,232.5,,160,170,-175,170,,220,237.5,250,250,,652.5,100,M,Максим Корепин,1991,No,Raw,SBD
2,Aleksandr Inzhievskiy,J,Russia,97.3,220,240,-260,240,,125,135,-145,135,,240,262.5,-277.5,262.5,,637.5,100,M,Александр Инжиевский,1992,No,Raw,SBD
3,Vladimir Babchenko,J,Russia,96.2,170,180,190,190,,120,130,135,135,,220,230,240,240,,565,100,M,Владимир Бабченко,1990,No,Raw,SBD
1,Aslambek Abayev,O,Russia,96.5,250,270,282.5,282.5,,190,-200,200,200,,250,270,-277.5,270,,752.5,100,M,Асламбек Абаев,1959,No,Raw,SBD
2,Artem Levchenko,O,Russia,98.2,205,220,230,230,,165,-170,,165,,220,235,-245,235,,630,100,M,Артем Левченко,1983,No,Raw,SBD
1,Aslambek Abayev,M3,Russia,96.5,250,270,282.5,282.5,,190,-200,200,200,,250,270,-277.5,270,,752.5,100,M,Асламбек Абаев,1959,No,Raw,SBD
1,Sergey Lir,J,Russia,105.6,250,260,270,270,,210,220,230,230,-235,270,285,-295,285,,785,110,M,Сергей Лир,1991,No,Raw,SBD
2,Aleksandr Kadzaev,J,Russia,108,-230,230,245,245,,150,160,175,175,,270,290,310,310,,730,110,M,Александр Кадзаев,1990,No,Raw,SBD
3,Artem Grechanov,J,Russia,108.9,220,240,250,250,,170,185,-195,185,,260,,,260,,695,110,M,Артем Гречанов,1991,No,Raw,SBD
1,Sergey Lir,O,Russia,105.6,250,260,270,270,,210,220,230,230,,270,285,-295,285,,785,110,M,Сергей Лир,1991,No,Raw,SBD
2,Yashar Shavoev,O,Russia,109.4,220,230,240,240,,180,-190,-190,180,,230,240,250,250,,670,110,M,Яшар Шавоев,1986,No,Raw,SBD
1,Stanislav Shvetsov,O,Russia,114.8,310,330,-350,330,,225,235,240,240,,310,330,,330,,900,125,M,Станислав Швецов,1988,No,Raw,SBD
2,Sergey Vinokurov,O,Russia,122.1,260,275,285,285,,190,200,205,205,,270,285,300,300,,790,125,M,Сергей Винокуров,1977,No,Raw,SBD
DQ,Andrey Pankov,O,Russia,111.8,-250,-250,-250,,,-150,,,,,-250,,,,,,125,M,Андрей Паньков,1977,No,Raw,SBD
1,Kirill Gulevskiy,O,Russia,128,250,260,-270,260,,150,165,-170,165,,270,285,295,295,,720,140,M,Кирилл Гулевский,1987,No,Raw,SBD
2,Evgeniy Kuchur,O,Russia,128.1,-220,220,240,240,,180,190,-200,190,,-220,220,230,230,,660,140,M,Евгений Кучур,1982,No,Raw,SBD
1,Sergey Tatarenko,M1,Russia,129.1,-170,170,-185,170,,120,,,120,,120,,,120,,410,140,M,Сергей Татаренко,1970,No,Raw,SBD
1,Kazbek Gogaev,T3,Russia,59.6,160,-170,170,170,,70,80,-85,80,,180,190,200,200,-205,450,60,M,Казбек Гогаев,1993,Yes,Multi-ply,SBD
1,Marat Kurdanov,T3,Russia,65.2,130,140,150,150,,90,95,102.5,102.5,,185,195,-205,195,,447.5,67.5,M,Марат Курданов,1993,Yes,Multi-ply,SBD
1,Eduard Lukyanov,J,Russia,66.1,170,-190,-190,170,,95,-120,-120,95,,170,-185,-185,170,,435,67.5,M,Эдуард Лукьянов,1992,Yes,Multi-ply,SBD
1,Sergey Alampiev,M4,Russia,66.6,180,201,210,210,,110,-115,-115,110,,180,200,210.5,210.5,,530.5,67.5,M,Сергей Алампиев,1957,Yes,Multi-ply,SBD
1,Vadim Krolovetskiy,T3,Russia,73.7,-225,235,-245,235,,150,160,,160,,202.5,210,-220,210,,605,75,M,Вадим Кроловецкий,1993,Yes,Multi-ply,SBD
2,Vladimir Vasilenko,T3,Russia,75,215,-225,-230,215,,100,110,117.5,117.5,,180,195,205,205,,537.5,75,M,Володимир Василенко,1994,Yes,Multi-ply,SBD
1,Alexander Karpenko,O,Russia,74.9,300,-320,320,320,,180,187.5,-195,187.5,,270,-285,-285,270,,777.5,75,M,Александр Карпенко,1992,Yes,Multi-ply,SBD
2,Vadim Krolovetskiy,O,Russia,73.7,-225,235,-245,235,,150,160,,160,,202.5,210,-220,210,,605,75,M,Вадим Кроловецкий,1993,Yes,Multi-ply,SBD
3,Ivan Bezrukov,O,Russia,72.4,180,190,-192.5,190,,100,105,110,110,,-190,200,207.5,207.5,,507.5,75,M,Иван Безруков,1989,Yes,Multi-ply,SBD
1,Dmitriy Manukhin,J,Russia,80.4,-200,200,-240,200,,100,120,-130,120,,180,200,-210,200,,520,82.5,M,Дмитрий Манухин,1992,Yes,Multi-ply,SBD
1,Roman Stupnikov,O,Russia,79.6,250,270,280,280,,160,165,170,170,,250,265,-280,265,,715,82.5,M,Роман Ступников,1988,Yes,Multi-ply,SBD
2,Timur Bogdanov,O,Russia,81.9,250,270,285,285,,150,160,-170,160,,220,-240,-240,220,,665,82.5,M,Тимур Богданов,1988,Yes,Multi-ply,SBD
1,Egor Musienko,T3,Russia,87,250,-280,-290,250,,135,145,-152.5,145,,240,260,-277.5,260,,655,90,M,Егор Мусиенко,1993,Yes,Multi-ply,SBD
2,Vasiliy Volishevskiy,T3,Russia,90,-200,200,-220,200,,100,-120,120,120,,180,-200,-210,180,,500,90,M,Василий Волишевский,1994,Yes,Multi-ply,SBD
1,Egor Musienko,O,Russia,87,250,-280,-290,250,,135,145,-152.5,145,,240,260,-277.5,260,,655,90,M,Егор Мусиенко,1993,Yes,Multi-ply,SBD
1,Sergey Medintsev,J,Russia,93.9,160,180,-200,180,,130,-140,-140,130,,180,200,-220,200,,510,100,M,Сергей Мединцев,1990,Yes,Multi-ply,SBD
1,Evgeniy Batorevich,O,Russia,91,-240,240,250,250,,170,-175,-180,170,,200,220,235,235,,655,100,M,Евгений Баторевич,1986,Yes,Multi-ply,SBD
1,Nikolay Adyukov,M4,Russia,95.9,-165,165,180,180,,115,125,127.5,127.5,,150,170,-180,170,,477.5,100,M,Николай Адюков,1954,Yes,Multi-ply,SBD
1,Vladimir Polivanov,O,Russia,115.2,200,220,,220,,180,190,-200,190,,265,270,,270,,680,125,M,Владимир Поливанов,1963,Yes,Multi-ply,SBD
1,Vladimir Polivanov,M3,Russia,115.2,200,220,,220,,180,190,-200,190,,265,270,,270,,680,125,M,Владимир Поливанов,1963,Yes,Multi-ply,SBD
1,Mariya Kalanina,O,Russia,71.8,-175,175,185,185,,100,-105,105,105,,170,185,195,195,,485,75,F,Мария Каланина,1982,No,Multi-ply,SBD
1,Roman Zuev,T3,Russia,65.9,130,140,150,150,,75,,,75,,150,170,-185,170,,395,67.5,M,Роман Зуев,1995,No,Multi-ply,SBD
1,Aleksey Shirobokov,J,Russia,67.5,180,200,210,210,,130,-150,150,150,,195,210,-237.5,210,,570,67.5,M,Алексей Широбоков,1991,No,Multi-ply,SBD
1,Roman Serov,T3,Russia,73.7,160,-170,-170,160,,90,,,90,,170,185,-190,185,,435,75,M,Роман Серов,1994,No,Multi-ply,SBD
2,Garik Kocharyan,T3,Russia,71.9,120,-130,-130,120,,85,,,85,,150,170,-175,170,,375,75,M,Гарик Кочарян,1994,No,Multi-ply,SBD
1,Grigoriy Enokyan,J,Russia,73.5,230,250,-265,250,,130,150,-160,150,,220,240,-250,240,,640,75,M,Григорий Енокян,1991,No,Multi-ply,SBD
1,Egor Siryak,T3,Russia,82.4,200,-220,220,220,,-150,150,160,160,,200,-215,215,215,,595,82.5,M,Егор Сиряк,1993,No,Multi-ply,SBD
1,Artem Sokolov,J,Russia,81.9,230,250,-270,250,,150,170,180,180,,200,225,-245,225,,655,82.5,M,Артем Соколов,1989,No,Multi-ply,SBD
1,Vladimir Beletskiy,O,Russia,80.3,-250,250,-280,250,,-150,150,-170,150,,220,-240,,220,,620,82.5,M,Владимир Белецкий,1988,No,Multi-ply,SBD
1,Ilya Lebedev,O,Russia,89.3,285,-310,310,310,,200,215,220,220,,260,290,-310,290,,820,90,M,Илья Лебедев,1972,No,Multi-ply,SBD
2,Vladimir Bakshaliev,O,Russia,88.8,270,285,290,290,,180,-190,-190,180,,270,280,,280,,750,90,M,Владимир Бакшалиев,1983,No,Multi-ply,SBD
DQ,Timur Shakhmurzaev,O,Russia,86.2,-200,-200,-200,,,-130,,,,,-200,,,,,,90,M,Тимур Шахмурзаев,1988,No,Multi-ply,SBD
1,Ilya Lebedev,M1,Russia,89.3,285,-310,310,310,,200,215,220,220,,260,290,-310,290,,820,90,M,Илья Лебедев,1972,No,Multi-ply,SBD
1,Kaplan Tlevtsezhev,M4,Russia,84.5,200,210,,210,,110,,,110,,210,,,210,,530,90,M,Каплан Тлевцежев,1956,No,Multi-ply,SBD
1,Aleksandr Ponyavin,J,Russia,94.7,250,270,,270,,165,-180,180,180,,230,250,-265,250,,700,100,M,Александр Понявин,1992,No,Multi-ply,SBD
1,Andrey Orlov,O,Russia,93.2,260,-280,-300,260,,150,-160,-170,150,,240,260,280,280,,690,100,M,Андрей Орлов,1988,No,Multi-ply,SBD
1,Mikhail Mikao,O,Russia,108.9,280,-290,-300,280,,-195,195,-200,195,,255,265,272.5,272.5,,747.5,110,M,Михаил Микао,1985,No,Multi-ply,SBD
1,Sergey Starodubskiy,O,Russia,111.9,350,380,-400,380,,280,300,310,310,,280,312.5,330,330,,1020,125,M,Сергей Стародубский,1977,No,Multi-ply,SBD
1,Aleksandr Ballod,O,Russia,140,-370,385,-400,385,,240,-260,260,260,,260,280,-300,280,,925,140,M,Александр Баллод,1979,No,Multi-ply,SBD
2,Sergey Novikov,O,Russia,133,300,325,335,335,,240,-260,-270,240,,250,270,277.5,277.5,,852.5,140,M,Сергей Новиков,1974,No,Multi-ply,SBD
1,Tatyana Bublikova,J,Russia,51,,,,,,52.5,57.5,-60,57.5,,,,,,,57.5,52,F,Татьяна Бубликова,1990,Yes,Raw,B
1,Svetlana Maletskaya,O,Russia,52,,,,,,62.5,65,-67.5,65,,,,,,,65,52,F,Светлана Малецкая,1983,Yes,Raw,B
2,Tatyana Dzhanpoladova,O,Russia,50.3,,,,,,60,-62.5,,60,,,,,,,60,52,F,Татьяна Джанполадова,1984,Yes,Raw,B
3,Natalya Pashkova,O,,48.7,,,,,,47.5,52.5,-57.5,52.5,,,,,,,52.5,52,F,Наталья Пашкова,1977,Yes,Raw,B
1,Ekaterina Plokhaya,J,Russia,54.7,,,,,,47.5,50,-52.5,50,,,,,,,50,56,F,Екатерина Плохая,1989,Yes,Raw,B
2,Oksana Bogdanchikova,J,Russia,56,,,,,,42.5,45,-47.5,45,,,,,,,45,56,F,Оксана Богданчикова,1990,Yes,Raw,B
1,Anastasiya Noskova,O,Russia,55.5,,,,,,52.5,-57.5,57.5,57.5,,,,,,,57.5,56,F,Анастасия Носкова,1984,Yes,Raw,B
2,Kristina Aynetdinova,O,Russia,54.9,,,,,,47.5,50,52.5,52.5,,,,,,,52.5,56,F,Кристина Айнетдинова,1986,Yes,Raw,B
3,Ekaterina Plokhaya,O,Russia,54.7,,,,,,47.5,50,-52.5,50,,,,,,,50,56,F,Екатерина Плохая,1989,Yes,Raw,B
1,Olga Golovacheva,O,Russia,58.6,,,,,,50,52.5,-55,52.5,,,,,,,52.5,60,F,Ольга Головачева,1985,Yes,Raw,B
2,Alina Arakelova,O,Russia,58.6,,,,,,-25,25,30,30,,,,,,,30,60,F,Алина Аракелова,1981,Yes,Raw,B
DQ,Lyubov Maltseva,O,Russia,59.4,,,,,,-75,-75,,,,,,,,,,60,F,Любовь Мальцева,1976,Yes,Raw,B
1,Elizaveta Shinkareva,T1,Russia,63.7,,,,,,55,60,-62.5,60,,,,,,,60,67.5,F,Елизавета Шинкарева,1998,Yes,Raw,B
2,Svetlana Kashirina,O,Russia,66.2,,,,,,-40,45,-47.5,45,,,,,,,45,67.5,F,Светлана Каширина,1988,Yes,Raw,B
3,Susanna Foksha,O,Russia,64.2,,,,,,30,-35,-35,30,,,,,,,30,67.5,F,Сусанна Фокша,1988,Yes,Raw,B
1,Irina Krasnova,O,,74.5,,,,,,75,80,-85,80,,,,,,,80,75,F,Ирина Краснова,1984,Yes,Raw,B
1,Elena Piskovaya,O,Russia,80.4,,,,,,55,60,-62.5,60,,,,,,,60,82.5,F,Елена Писковая,1969,Yes,Raw,B
1,Elena Piskovaya,M1,Russia,80.4,,,,,,55,60,-62.5,60,,,,,,,60,82.5,F,Елена Писковая,1969,Yes,Raw,B
1,Daniil Demchenko,T1,Russia,40,,,,,,20,25,27.5,27.5,,,,,,,27.5,52,M,Даниил Демченко,2003,Yes,Raw,B
2,Nikolay Grachev,M4,Russia,51.1,,,,,,65,67.5,70,70,,,,,,,70,52,M,Николай Грачев,1956,Yes,Raw,B
1,Shamil Apazaov,T3,Russia,55.6,,,,,,85,97.5,-102.5,97.5,,,,,,,97.5,56,M,Шамиль Апазаов,1994,Yes,Raw,B
1,Shamil Apazaov,O,Russia,55.6,,,,,,85,97.5,-102.5,97.5,,,,,,,97.5,56,M,Шамиль Апазаов,1994,Yes,Raw,B
1,Beslan Guchapshev,T2,Russia,59.7,,,,,,-85,85,-97.5,85,,,,,,,85,60,M,Беслан Гучапшев,1996,Yes,Raw,B
1,Andrey Larin,J,Russia,59.2,,,,,,92.5,-97.5,-97.5,92.5,,,,,,,92.5,60,M,Андрей Ларин,1992,Yes,Raw,B
DQ,Sergey Avakov,J,Russia,59.6,,,,,,-97.5,-100,-100,,,,,,,,,60,M,Сергей Аваков,1991,Yes,Raw,B
1,Andrey Larin,O,Russia,59.2,,,,,,92.5,-97.5,-97.5,92.5,,,,,,,92.5,60,M,Андрей Ларин,1992,Yes,Raw,B
1,Artem Voskresenskiy,T1,Russia,65.3,,,,,,65,-70,-70,65,,,,,,,65,67.5,M,Артем Воскресенский,1998,Yes,Raw,B
1,Vladimir Tonkoglaz,T2,Russia,66.9,,,,,,-117.5,-125,125,125,,,,,,,125,67.5,M,Владимир Тонкоглаз,1996,Yes,Raw,B
2,Arman Arutyunyan,T2,Russia,67.2,,,,,,102.5,107.5,-112.5,107.5,,,,,,,107.5,67.5,M,Арман Арутюнян,1995,Yes,Raw,B
3,Vladimir Marchenko,T2,Russia,65.7,,,,,,87.5,95,-97.5,95,,,,,,,95,67.5,M,Владимир Марченко,1996,Yes,Raw,B
1,Ivan Novitskiy,T3,Russia,66.9,,,,,,110,-112.5,-112.5,110,,,,,,,110,67.5,M,Иван Новицкий,1994,Yes,Raw,B
2,Anzor Shokuev,T3,Russia,66.4,,,,,,107.5,-117.5,-117.5,107.5,,,,,,,107.5,67.5,M,Анзор Шокуев,1994,Yes,Raw,B
3,Aleksandr Krylov,T3,Russia,60.7,,,,,,100,105,-107.5,105,,,,,,,105,67.5,M,Александр Крылов,1994,Yes,Raw,B
4,Sergey Divanyan,T3,Russia,61,,,,,,87.5,-92.5,-92.5,87.5,,,,,,,87.5,67.5,M,Сергей Диванян,1995,Yes,Raw,B
1,Osman Nagoev,J,Russia,66.8,,,,,,110,117.5,-125,117.5,,,,,,,117.5,67.5,M,Осман Нагоев,1992,Yes,Raw,B
2,Danil Samarskiy,J,Russia,66.1,,,,,,100,-107.5,-107.5,100,,,,,,,100,67.5,M,Даниил Самарский,1992,Yes,Raw,B
1,Yuriy Belotskiy,O,Russia,65,,,,,,-132.5,132.5,135,135,,,,,,,135,67.5,M,Юрий Белоцкий,1985,Yes,Raw,B
2,Andrey Redkozub,O,Russia,66.6,,,,,,125,-130,-130,125,,,,,,,125,67.5,M,Андрей Редкозуб,1982,Yes,Raw,B
3,Evgeniy Kavrigin,O,Russia,65.6,,,,,,115,120,-122.5,120,,,,,,,120,67.5,M,Евгений Ковригин,1988,Yes,Raw,B
4,Viktor Galchenkov,O,Russia,66.2,,,,,,110,-115,-115,110,,,,,,,110,67.5,M,Виктор Галченков,1987,Yes,Raw,B
1,Vladimir Sviderskiy,M5,Russia,67.5,,,,,,85,90,-92.5,90,,,,,,,90,67.5,M,Владимир Свидерский,1951,Yes,Raw,B
1,Zhanbulat Begiev,T1,Russia,74,,,,,,105,112.5,-117.5,112.5,,,,,,,112.5,75,M,Жанбулат Бегиев,1997,Yes,Raw,B
2,Vladislav Yakubina,T1,Russia,74,,,,,,90,-95,-95,90,,,,,,,90,75,M,Владислав Якубина,1997,Yes,Raw,B
1,Andranik Grigoryan,T2,Russia,74.2,,,,,,110,-115,117.5,117.5,,,,,,,117.5,75,M,Андраник Григорян,1996,Yes,Raw,B
2,Vladislav Pochtenko,T2,Russia,71.7,,,,,,95,-105,-105,95,,,,,,,95,75,M,Владислав Почтенко,1995,Yes,Raw,B
1,Andrey Noskov,T3,Russia,72.8,,,,,,140,145,-150,145,,,,,,,145,75,M,Андрей Носков,1993,Yes,Raw,B
2,Mikhail Bronnikov,T3,Russia,73.6,,,,,,110,117.5,125,125,,,,,,,125,75,M,Михаил Бронников,1993,Yes,Raw,B
1,Maksim Bogdanov,J,Russia,72.3,,,,,,165,-175,175,175,,,,,,,175,75,M,Максим Богданов,1992,Yes,Raw,B
2,Dmitriy Plyusnin,J,Russia,71.8,,,,,,125,135,140,140,,,,,,,140,75,M,Дмитрий Плюснин,1992,Yes,Raw,B
1,Evgeniy Simbirskiy,O,Russia,75,,,,,,165,175,-180,175,,,,,,,175,75,M,Евгений Симбирский,1988,Yes,Raw,B
2,Sergey Denisov,O,Russia,74.6,,,,,,172.5,-180,-180,172.5,,,,,,,172.5,75,M,Сергей Денисов,1988,Yes,Raw,B
3,Aleksey Bushuev,O,Russia,73,,,,,,-150,150,-155,150,,,,,,,150,75,M,Алексей Бушуев,1985,Yes,Raw,B
4,Stepan Pogosyan,O,Russia,75,,,,,,130,135,140,140,,,,,,,140,75,M,Степан Погосян,1985,Yes,Raw,B
5,Aleksandr Dotsenko,O,Russia,72.3,,,,,,110,120,125,125,,,,,,,125,75,M,Александр Доценко,1985,Yes,Raw,B
6,Aleksandr Ogly,O,Russia,70.8,,,,,,120,-125,-130,120,,,,,,,120,75,M,Александр Оглы,1986,Yes,Raw,B
7,Yuriy Scherenko,O,Russia,74.5,,,,,,112.5,-117.5,-117.5,112.5,,,,,,,112.5,75,M,Юрий Щеренко,1985,Yes,Raw,B
8,Stanislav Parkhachev,O,Russia,74.5,,,,,,110,-117.5,-120,110,,,,,,,110,75,M,Станислав Пархачев,1982,Yes,Raw,B
9,Vladimir Belikov,O,Russia,74.1,,,,,,90,-92.5,,90,,,,,,,90,75,M,Владимир Беликов,1979,Yes,Raw,B
1,Vladimir Kosmynin,M3,Russia,71.1,,,,,,110,120,130,130,,,,,,,130,75,M,Владимир Космынин,1960,Yes,Raw,B
1,Yuriy Dvizov,M6,Russia,74.9,,,,,,117.5,-122.5,-122.5,117.5,,,,,,,117.5,75,M,Юрий Двизов,1947,Yes,Raw,B
1,Ramil Rasulov,T1,Russia,80.5,,,,,,110,115,-120,115,,,,,,,115,82.5,M,Рамиль Расулов,1997,Yes,Raw,B
1,Sergey Tynyanskiy,T2,Russia,82.2,,,,,,120,-127.5,-127.5,120,,,,,,,120,82.5,M,Сергей Тынянский,1995,Yes,Raw,B
2,Andrey Gabuev,T2,Russia,82.5,,,,,,85,92.5,100,100,,,,,,,100,82.5,M,Андрей Габуев,1996,Yes,Raw,B
1,Bogdan Dronov,T3,Russia,79.9,,,,,,150,160,-167.5,160,,,,,,,160,82.5,M,Богдан Дронов,1994,Yes,Raw,B
2,Ruslan Vorokov,T3,Russia,78.6,,,,,,110,120,130,130,,,,,,,130,82.5,M,Руслан Вороков,1994,Yes,Raw,B
3,Admir Goev,T3,Russia,80.9,,,,,,110,125,-130,125,,,,,,,125,82.5,M,Адмир Гоев,1993,Yes,Raw,B
1,Aleksandr Bunin,J,Russia,81,,,,,,155,165,170,170,,,,,,,170,82.5,M,Александр Бунин,1990,Yes,Raw,B
2,Vladimir Vanyan,J,Russia,82,,,,,,160,167.5,-172.5,167.5,,,,,,,167.5,82.5,M,Владимир Ванян,1989,Yes,Raw,B
3,Leonid Koshlets,J,Russia,82.5,,,,,,140,150,-155,150,,,,,,,150,82.5,M,Леонид Кошлец,1991,Yes,Raw,B
4,Beslan Dorbazanov,J,Russia,78.3,,,,,,135,-145,-145,135,,,,,,,135,82.5,M,Беслан Дорбазанов,1991,Yes,Raw,B
5,David Yazydzhyan,J,Russia,77.1,,,,,,-95,95,105,105,,,,,,,105,82.5,M,Давид Языджян,1992,Yes,Raw,B
6,Ruslan Rakhimi,J,Russia,80.3,,,,,,95,-102.5,102.5,102.5,,,,,,,102.5,82.5,M,Руслан Рахими,1991,Yes,Raw,B
1,Mikhail Nagovitsyn,O,Russia,81.05,,,,,,180,185,-190,185,,,,,,,185,82.5,M,Михаил Наговицын,1980,Yes,Raw,B
2,Aleksandr Pozdnyakov,O,,82.2,,,,,,-162.5,167.5,172.5,172.5,,,,,,,172.5,82.5,M,Александр Поздняков,1979,Yes,Raw,B
3,Andrei Svidin,O,Russia,82.5,,,,,,150,160,167.5,167.5,,,,,,,167.5,82.5,M,Андрей Свидин,1980,Yes,Raw,B
4,Anatoliy Frolov,O,Russia,80.1,,,,,,-150,160,-167.5,160,,,,,,,160,82.5,M,Анатолий Фролов,1989,Yes,Raw,B
5,Vasiliy Efremenko,O,Russia,80.1,,,,,,137.5,145,-150,145,,,,,,,145,82.5,M,Василий Ефременко,1979,Yes,Raw,B
1,Sergey Rudenko,M3,Russia,79.7,,,,,,135,142.5,-150,142.5,,,,,,,142.5,82.5,M,Сергей Руденко,1959,Yes,Raw,B
1,Khetag Surkov,T2,Russia,90,,,,,,115,125,-132.5,125,,,,,,,125,90,M,Хетаг Сурков,1995,Yes,Raw,B
2,Daniil Terziyan,T2,Russia,89.3,,,,,,-115,122.5,,122.5,,,,,,,122.5,90,M,Даниил Терзиян,1996,Yes,Raw,B
3,Sergey Novitskiy,T2,Russia,87.3,,,,,,115,120,-122.5,120,,,,,,,120,90,M,Сергей Новицкий,1996,Yes,Raw,B
4,Vladislav Lyubchenko,T2,Russia,86.4,,,,,,112.5,117.5,-125,117.5,,,,,,,117.5,90,M,Владислав Любченко,1997,Yes,Raw,B
1,Khasan Yusupov,J,Russia,88.7,,,,,,170,177.5,-185,177.5,,,,,,,177.5,90,M,Хасан Юсупов,1989,Yes,Raw,B
2,Aleksandr Brichkov,J,Russia,86.8,,,,,,145,152.5,-155,152.5,,,,,,,152.5,90,M,Александр Бричков,1990,Yes,Raw,B
1,Yuriy Fedorov,O,Russia,88.2,,,,,,192.5,195,200,200,,,,,,,200,90,M,Юрий Федоров,1975,Yes,Raw,B
2,Vladimir Konchakov,O,Russia,88.6,,,,,,180,190,-202.5,190,,,,,,,190,90,M,Владимир Кончаков,1973,Yes,Raw,B
3,Khasan Yusupov,O,Russia,88.7,,,,,,170,177.5,-185,177.5,,,,,,,177.5,90,M,Хасан Юсупов,1989,Yes,Raw,B
4,Akhmed Baysumov,O,Russia,85.6,,,,,,155,160,-175,160,,,,,,,160,90,M,Ахмед Байсумов,1987,Yes,Raw,B
5,Ivan Mikhaylyuk,O,Russia,86.3,,,,,,150,160,-165,160,,,,,,,160,90,M,Иван Михайлюк,1977,Yes,Raw,B
6,Nikolay Khorovets,O,Russia,87.7,,,,,,147.5,152.5,-155,152.5,,,,,,,152.5,90,M,Николай Хоровец,1986,Yes,Raw,B
7,Fedor Scherbinin,O,Russia,83.1,,,,,,140,145,-147.5,145,,,,,,,145,90,M,Федор Щербинин,1983,Yes,Raw,B
8,Maksim Artemov,O,Russia,88.5,,,,,,145,-150,-152.5,145,,,,,,,145,90,M,Максим Артемов,1981,Yes,Raw,B
9,Egor Lekarkin,O,Russia,88.7,,,,,,132.5,137.5,-140,137.5,,,,,,,137.5,90,M,Егор Лекаркин,1988,Yes,Raw,B
10,Roman Sypkov,O,Russia,88.7,,,,,,125,132.5,-135,132.5,,,,,,,132.5,90,M,Роман Сыпков,1980,Yes,Raw,B
DQ,Timur Dzhioev,O,Russia,90,,,,,,-152.5,-152.5,-152.5,,,,,,,,,90,M,Тимур Джиоев,1985,Yes,Raw,B
1,Aleksey Novitskiy,M1,Russia,88.5,,,,,,165,170,-175,170,,,,,,,170,90,M,Алексей Новицкий,1971,Yes,Raw,B
1,Aleksey Prinev,M2,Russia,88.4,,,,,,120,132.5,-140,132.5,,,,,,,132.5,90,M,Алексей Принев,1968,Yes,Raw,B
1,Nikolay Reshetov,M3,Russia,88.5,,,,,,140,-145,,140,,,,,,,140,90,M,Николай Решетов,1959,Yes,Raw,B
2,Vasiliy Demchenko,M3,Russia,84.8,,,,,,87.5,90,-92.5,90,,,,,,,90,90,M,Василий Демченко,1962,Yes,Raw,B
1,Oleg Kaptsevich,T3,Russia,94.2,,,,,,125,-130,-130,125,,,,,,,125,100,M,Олег Капцевич,1994,Yes,Raw,B
1,Vladimir Pogrebnyak,J,Russia,96.3,,,,,,155,162.5,-167.5,162.5,,,,,,,162.5,100,M,Владимир Погребняк,1990,Yes,Raw,B
2,Daniil Kushvid,J,Russia,92.9,,,,,,90,95,-105,95,,,,,,,95,100,M,Даниил Кушвид,1993,Yes,Raw,B
1,Oleg Filimonov,O,Russia,97.8,,,,,,215,225,230,230,,,,,,,230,100,M,Олег Филимонов,1987,Yes,Raw,B
2,Nikolay Chekalin,O,Russia,96.8,,,,,,-190,190,-200,190,,,,,,,190,100,M,Николай Чекалин,1982,Yes,Raw,B
3,Ruslan Ostapenko,O,Russia,98.4,,,,,,-170,170,175,175,,,,,,,175,100,M,Руслан Остапенко,1982,Yes,Raw,B
4,Konstantin Nekoz,O,Russia,91.6,,,,,,165,167.5,170,170,,,,,,,170,100,M,Константин Некоз,1975,Yes,Raw,B
5,Rolan Lyumanov,O,Russia,98.4,,,,,,-150,160,-162.5,160,,,,,,,160,100,M,Ролан Люманов,1983,Yes,Raw,B
6,Anton Yatsunov,O,Russia,94.3,,,,,,145,150,155,155,,,,,,,155,100,M,Антон Яцунов,1987,Yes,Raw,B
7,Konstantin Pershin,O,Russia,96.9,,,,,,140,150,-162.5,150,,,,,,,150,100,M,Константин Першин,1984,Yes,Raw,B
8,Aleksey Veselov,O,Russia,91.3,,,,,,135,140,-142.5,140,,,,,,,140,100,M,Алексей Веселов,1979,Yes,Raw,B
DD,Dmitriy Gritsaenko,O,Russia,97.5,,,,,,162.5,-165,-165,162.5,,,,,,,,100,M,Дмитрий Грицаенко,1979,Yes,Raw,B
1,Andrey Pobatenko,M1,Russia,92.6,,,,,,150,155,157.5,157.5,,,,,,,157.5,100,M,Андрей Побатенко,1970,Yes,Raw,B
2,Vladimir Popov,M1,Russia,97.5,,,,,,150,155,157.5,157.5,,,,,,,157.5,100,M,Владимир Попов,1970,Yes,Raw,B
1,Vladimir Grigorovich,M3,Russia,98.5,,,,,,-145,-145,150,150,,,,,,,150,100,M,Владимир Григорович,1959,Yes,Raw,B
2,Sergey Marchenko,M3,Russia,99.7,,,,,,120,130,-140,130,,,,,,,130,100,M,Сергей Марченко,1959,Yes,Raw,B
1,Vladimir Zakharov,M4,Russia,99.6,,,,,,155,162.5,167.5,167.5,,,,,,,167.5,100,M,Владимир Захаров,1955,Yes,Raw,B
1,Aleksandr Chebotarev,O,Russia,105.9,,,,,,195,200,205,205,,,,,,,205,110,M,Александр Чеботарев,1988,Yes,Raw,B
2,Vitaliy Mordvinov,O,Russia,108.7,,,,,,205,-210,-210,205,,,,,,,205,110,M,Виталий Мордвинов,1987,Yes,Raw,B
3,Telman Aliev,O,Russia,109.1,,,,,,195,-202.5,-202.5,195,,,,,,,195,110,M,Тельман Алиев,1981,Yes,Raw,B
4,Sergey Sokolov,O,Russia,103.2,,,,,,175,180,185,185,,,,,,,185,110,M,Сергей Соколов,1969,Yes,Raw,B
5,Roman Bykov,O,Russia,108.6,,,,,,180,185,-187.5,185,,,,,,,185,110,M,Роман Быков,1979,Yes,Raw,B
6,Igor Evdokimov,O,Russia,108.9,,,,,,180,-187.5,,180,,,,,,,180,110,M,Игорь Евдокимов,1971,Yes,Raw,B
7,Evgeniy Uvarov,O,Russia,107.2,,,,,,165,172.5,,172.5,,,,,,,172.5,110,M,Евгений Уваров,1977,Yes,Raw,B
1,Sergey Sokolov,M1,Russia,103.2,,,,,,175,180,185,185,,,,,,,185,110,M,Сергей Соколов,1969,Yes,Raw,B
2,Igor Evdokimov,M1,Russia,108.9,,,,,,180,-187.5,,180,,,,,,,180,110,M,Игорь Евдокимов,1971,Yes,Raw,B
1,Georgy Pirtskhelava,J,Russia,119.3,,,,,,170,177.5,-182.5,177.5,,,,,,,177.5,125,M,Георгий Пирцхелава,1991,Yes,Raw,B
1,Artur Gulyan,O,Russia,118.8,,,,,,217.5,222.5,225,225,,,,,,,225,125,M,Артур Гулян,1982,Yes,Raw,B
2,Dmitriy Rezaykin,O,Russia,117.4,,,,,,205,-215,-215,205,,,,,,,205,125,M,Дмитрий Резайкин,1984,Yes,Raw,B
3,Evgeniy Sibilev,O,Russia,123.5,,,,,,185,195,-202.5,195,,,,,,,195,125,M,Евгений Сибилев,1970,Yes,Raw,B
4,Aleksandr Okhrimenko,O,Russia,117.3,,,,,,190,-205,-205,190,,,,,,,190,125,M,Александр Охрименко,1987,Yes,Raw,B
1,Evgeniy Sibilev,M1,Russia,123.5,,,,,,185,195,-202.5,195,,,,,,,195,125,M,Евгений Сибилев,1970,Yes,Raw,B
1,Viktor Artemchik,M2,Russia,114.5,,,,,,165,-170,175,175,,,,,,,175,125,M,Виктор Артемчик,1968,Yes,Raw,B
1,Anatoliy Pauyesov,M5,Russia,118.6,,,,,,155,160,,160,,,,,,,160,125,M,Анатолий Пауесов,1953,Yes,Raw,B
1,Oleg Ogienko,M1,Russia,138.3,,,,,,155,157.5,160,160,,,,,,,160,140,M,Олег Огиенко,1972,Yes,Raw,B
1,Igor Khutorov,M2,Russia,129.6,,,,,,205,-215,215,215,,,,,,,215,140,M,Игорь Хуторов,1963,Yes,Raw,B
1,Olga Potapova,O,Russia,54.8,,,,,,50,52.5,55,55,,,,,,,55,56,F,Ольга Потапова,1980,No,Raw,B
2,Ekaterina Chebotareva,O,Russia,55.9,,,,,,50,55,-57.5,55,,,,,,,55,56,F,Екатерина Чеботарева,1985,No,Raw,B
1,Svetlana Kivorkova,O,Russia,57,,,,,,40,-45,45,45,,,,,,,45,60,F,Светлана Киворкова,1967,No,Raw,B
1,Svetlana Kivorkova,M2,Russia,57,,,,,,40,-45,45,45,,,,,,,45,60,F,Светлана Киворкова,1967,No,Raw,B
1,Tatyana Postnova,O,Russia,70,,,,,,65,72.5,77.5,77.5,,,,,,,77.5,75,F,Татьяна Постнова,1979,No,Raw,B
1,Anna Turaeva,O,Russia,80.4,,,,,,127.5,135,140.5,140.5,,,,,,,140.5,82.5,F,Анна Тураева,1978,No,Raw,B
1,Grigoriy Fedorov,T1,Russia,59,,,,,,50,60,65,65,,,,,,,65,60,M,Григорий Федоров,1997,No,Raw,B
1,Andrey Govorov,J,Russia,58.8,,,,,,97.5,105,-112.5,105,,,,,,,105,60,M,Андрей Говоров,1992,No,Raw,B
1,Igor Krasnopeev,J,Russia,72.7,,,,,,135,140,145,145,,,,,,,145,75,M,Игорь Краснопеев,1991,No,Raw,B
2,Yan Zabrotskiy,J,Russia,75,,,,,,122.5,-127.5,127.5,127.5,,,,,,,127.5,75,M,Ян Заброцкий,1993,No,Raw,B
3,Yaroslav Kulikov,J,Russia,71.3,,,,,,120,-125,-125,120,,,,,,,120,75,M,Ярослав Куликов,1990,No,Raw,B
4,Artem Muradov,J,Russia,72.7,,,,,,120,-130,-130,120,,,,,,,120,75,M,Артем Мурадов,1992,No,Raw,B
5,Artem Oganesyan,J,Russia,73.2,,,,,,80,-90,95,95,,,,,,,95,75,M,Артем Оганесян,1989,No,Raw,B
1,Aleksey Abramov,O,Russia,73.9,,,,,,132.5,142.5,145,145,,,,,,,145,75,M,Алексей Абрамов,1984,No,Raw,B
2,Erik Arutyunyan,O,Russia,72.7,,,,,,120,130,137.5,137.5,,,,,,,137.5,75,M,Эрик Арутюнян,1986,No,Raw,B
3,Dmitriy Plokhoy,O,Russia,70.7,,,,,,115,-120,120,120,,,,,,,120,75,M,Дмитрий Плохой,1987,No,Raw,B
1,Sergey Lopatin,M3,Russia,74.5,,,,,,80,85,,85,,,,,,,85,75,M,Сергей Лопатин,1960,No,Raw,B
1,Igor Ryskin,J,Russia,81.9,,,,,,140,-145,-147.5,140,,,,,,,140,82.5,M,Игорь Рыскин,1990,No,Raw,B
2,Igor Platonov,J,Russia,80.9,,,,,,125,132.5,137.5,137.5,,,,,,,137.5,82.5,M,Игорь Платонов,1991,No,Raw,B
1,Dmitriy Kukharenko,O,Russia,77.9,,,,,,180,190,-200,190,,,,,,,190,82.5,M,,1969,No,Raw,B
2,Musa Cheremkhanov,O,Russia,80.4,,,,,,-175,175,-185,175,,,,,,,175,82.5,M,Муса Черемханов,1988,No,Raw,B
3,Danil Shagin,O,Russia,81.6,,,,,,175,-180,-182.5,175,,,,,,,175,82.5,M,Данил Шагин,1988,No,Raw,B
4,Denis Makarov,O,Russia,81.1,,,,,,145,155,162.5,162.5,,,,,,,162.5,82.5,M,Денис Макаров,1986,No,Raw,B
1,Dmitriy Kukharenko,M1,Russia,77.9,,,,,,180,190,-200,190,,,,,,,190,82.5,M,,1969,No,Raw,B
2,Sergey Krvashyan,M1,Russia,81.9,,,,,,145,-150,152.5,152.5,,,,,,,152.5,82.5,M,Сергей Крвашян,1973,No,Raw,B
3,Vladimir Shmelev,M1,Russia,81.6,,,,,,135,-140,140,140,,,,,,,140,82.5,M,Владимир Шмелев,1972,No,Raw,B
1,Valeriy Stoyanov,M4,Russia,80.8,,,,,,110,115,-120,115,,,,,,,115,82.5,M,Валерий Стоянов,1957,No,Raw,B
1,Yuriy Chepets,M6,Russia,80.5,,,,,,142.5,147.5,150,150,,,,,,,150,82.5,M,Юрий Чепец,1943,No,Raw,B
1,Sergey Chugunnyy,T3,Russia,86.4,,,,,,105,115,130,130,,,,,,,130,90,M,Сергей Чугунный,1994,No,Raw,B
1,Andrey Selivanov,J,Russia,89.2,,,,,,157.5,165,170,170,,,,,,,170,90,M,Андрей Селиванов,1991,No,Raw,B
2,Ilya Nidilko,J,Russia,90,,,,,,150,160,-172.5,160,,,,,,,160,90,M,Илья Нидилько,1992,No,Raw,B
1,Stanislav Lyzhin,O,Russia,90,,,,,,190,-200,-200,190,,,,,,,190,90,M,Станислав Лыжин,1982,No,Raw,B
2,Sergey Trishkin,O,Russia,89.5,,,,,,140,152.5,-160,152.5,,,,,,,152.5,90,M,Сергей Тришкин,1984,No,Raw,B
3,Aleksey Lukyanov,O,Russia,88.2,,,,,,140,150,-157.5,150,,,,,,,150,90,M,Алексей Лукьянов,1984,No,Raw,B
DQ,Sergey Grishko,O,Russia,86.5,,,,,,-200,,,,,,,,,,,90,M,Сергей Гришко,1980,No,Raw,B
1,Dmitriy Postnov,M1,Russia,90,,,,,,140,147.5,-152.5,147.5,,,,,,,147.5,90,M,Дмитрий Постнов,1971,No,Raw,B
1,Konstantin Petrov,T2,Russia,93.1,,,,,,100,110,-125,110,,,,,,,110,100,M,Константин Петров,1996,No,Raw,B
1,Aleksey Zababurkin,T3,Russia,94.2,,,,,,130,140,-150,140,,,,,,,140,100,M,Алексей Забабуркин,1994,No,Raw,B
DQ,Valeriy Churkin,J,Russia,96.9,,,,,,-160,-160,-160,,,,,,,,,100,M,Валерий Чуркин,1990,No,Raw,B
1,Grigoriy Slipchenko,O,Russia,96.4,,,,,,210,220,230,230,,,,,,,230,100,M,Григорий Слипченко,1982,No,Raw,B
2,Andrey Kramarenko,O,Russia,97.2,,,,,,170,-180,-180,170,,,,,,,170,100,M,Андрей Крамаренко,1987,No,Raw,B
DQ,Aleksandr Bedrentsev,O,Russia,95.9,,,,,,-190,-190,-190,,,,,,,,,100,M,Александр Бедренцев,1973,No,Raw,B
1,Aslambek Abayev,M3,Russia,100,,,,,,190,197.5,202.5,202.5,,,,,,,202.5,100,M,Асламбек Абаев,1959,No,Raw,B
1,Valeriy Akentyev,M4,Russia,99.3,,,,,,150,155,,155,,,,,,,155,100,M,Валерий Акентьев,1958,No,Raw,B
1,Aleksandr Sviloguzov,T3,Russia,107.2,,,,,,130,-140,-140,130,,,,,,,130,110,M,Александр Свилогузов,1994,No,Raw,B
1,Vyacheslav Chelyshev,J,,100.8,,,,,,190,205,207.5,207.5,-215,,,,,,207.5,110,M,Вячеслав Челышев,1989,No,Raw,B
1,Vasiliy Fedyaev,O,Russia,104.8,,,,,,-260,260,-262.5,260,,,,,,,260,110,M,Василий Федяев,1982,No,Raw,B
2,Andrey Likhman,O,Russia,107.8,,,,,,215,222.5,230,230,,,,,,,230,110,M,Андрей Лихман,1977,No,Raw,B
3,Aleksandr Mantserov,O,Russia,109.3,,,,,,210,-220,220,220,,,,,,,220,110,M,Александр Манцеров,1983,No,Raw,B
4,Ruben Odabashyan,O,Russia,107.8,,,,,,200,210,-215,210,,,,,,,210,110,M,Рубен Одабашян,1986,No,Raw,B
5,Anton Kostyukov,O,Russia,107.9,,,,,,190,195,200,200,,,,,,,200,110,M,Антон Костюков,1986,No,Raw,B
6,Sergey Gorbatov,O,Russia,102.8,,,,,,187.5,197.5,-202.5,197.5,,,,,,,197.5,110,M,Сергей Горбатов,1980,No,Raw,B
1,Andrey Korobitsin,M2,,109.7,,,,,,170,-185,-185,170,,,,,,,170,110,M,Андрей Коробицин,1965,No,Raw,B
1,Andrey Litvinenko,M3,Russia,108.6,,,,,,115,122.5,-127.5,122.5,,,,,,,122.5,110,M,Андрей Литвиненко,1962,No,Raw,B
1,Boris Grabovoy,M4,,109.4,,,,,,110,-120,-120,110,,,,,,,110,110,M,Борис Грабовой,1956,No,Raw,B
1,Grachik Egozaryan,M5,Russia,109.5,,,,,,180,-190,200.5,200.5,,,,,,,200.5,110,M,Грачик Егозарьян,1952,No,Raw,B
1,Yuriy Khalipa,O,Russia,119.7,,,,,,170,180,190,190,,,,,,,190,125,M,Юрий Халипа,1986,No,Raw,B
2,Vadim Bespalov,O,Russia,110.7,,,,,,175,-182.5,-182.5,175,,,,,,,175,125,M,Вадим Беспалов,1979,No,Raw,B
1,Nikolay Orlov,M1,Russia,125,,,,,,-200,200,-210,200,,,,,,,200,125,M,Николай Орлов,1971,No,Raw,B
1,Anna Turaeva,O,Russia,80.4,,,,,,170,180,-185,180,,,,,,,180,82.5,F,Анна Тураева,1978,No,Single-ply,B
1,Vladislav Kornikh,J,Russia,82,,,,,,150,157.5,162.5,162.5,,,,,,,162.5,82.5,M,Владислав Корних,1992,No,Multi-ply,B
1,Sergey Koshkin,O,Russia,82,,,,,,250,265,-275,265,,,,,,,265,82.5,M,Сергей Кошкин,1971,No,Multi-ply,B
2,Dmitriy Krutko,O,Russia,82.5,,,,,,210,-220,-220,210,,,,,,,210,82.5,M,Дмитрий Крутько,1989,No,Multi-ply,B
3,Zaur Guseynov,O,Russia,82.1,,,,,,-195,-200,200,200,,,,,,,200,82.5,M,Заур Гусейнов,1986,No,Multi-ply,B
DQ,Yuriy Korikov,O,Russia,82.2,,,,,,-210,-210,-210,,,,,,,,,82.5,M,Юрий Кориков,1962,No,Multi-ply,B
DQ,Yuriy Korikov,M3,Russia,82.2,,,,,,-210,-210,-210,,,,,,,,,82.5,M,Юрий Кориков,1962,No,Multi-ply,B
1,Ilya Lebedev,O,Russia,89.3,,,,,,200,220,,220,,,,,,,220,90,M,Илья Лебедев,1972,No,Multi-ply,B
2,Maksim Dvernikov,O,Russia,87.2,,,,,,170,180,-190,180,,,,,,,180,90,M,Максим Дверников,1986,No,Multi-ply,B
1,Ilya Lebedev,M1,Russia,89.3,,,,,,200,220,,220,,,,,,,220,90,M,Илья Лебедев,1972,No,Multi-ply,B
1,Evgeniy Chugunov,O,Russia,100,,,,,,225,235,-245,235,,,,,,,235,100,M,Евгений Чугунов,1983,No,Multi-ply,B
DQ,Valeriy Akentyev,M4,Russia,100,,,,,,-260,-260,-260,,,,,,,,,100,M,Валерий Акентьев,1958,No,Multi-ply,B
1,Ardavast Martirosyan,O,Russia,101.7,,,,,,260,-275,280,280,,,,,,,280,110,M,Ардаваст Мартиросян,1975,No,Multi-ply,B
2,Aleksandr Ivanov,O,Russia,107.9,,,,,,250,-270,-270,250,,,,,,,250,110,M,Александр Иванов,1976,No,Multi-ply,B
3,Aleksandr Tarasov,O,Russia,101.2,,,,,,-200,200,215,215,,,,,,,215,110,M,Александр Тарасов,1980,No,Multi-ply,B
1,Alexey Shlykov,O,Russia,117.4,,,,,,260,-275,-275,260,,,,,,,260,125,M,Алексей Шлыков,1984,No,Multi-ply,B
2,Aleksandr Manchenko,O,Russia,122.9,,,,,,250,-265,-265,250,,,,,,,250,125,M,Александр Манченко,1978,No,Multi-ply,B
DQ,Aleksey Tarasov,O,Russia,122.4,,,,,,-280,-280,-280,,,,,,,,,125,M,Алексей Тарасов,1976,No,Multi-ply,B
1,Anatoliy Talovasov,M3,Russia,120.2,,,,,,140,150,160,160,,,,,,,160,125,M,Анатолий Таловасов,1960,No,Multi-ply,B
1,Aleksandr Korshkov,O,Russia,130.8,,,,,,270,280,282.5,282.5,,,,,,,282.5,140,M,Александр Коршков,1986,No,Multi-ply,B
2,Sergey Golyush,O,Russia,129.4,,,,,,260,-277.5,-277.5,260,,,,,,,260,140,M,Сергей Голюш,1972,No,Multi-ply,B
1,Sergey Golyush,M1,Russia,129.4,,,,,,260,-277.5,-277.5,260,,,,,,,260,140,M,Сергей Голюш,1972,No,Multi-ply,B
1,Oleg Kozyrev,O,Russia,200,,,,,,320,,,320,,,,,,,320,140+,M,Олег Козырев,1975,No,Multi-ply,B
1,Svetlana Maletskaya,O,Russia,52,,,,,,,,,,,125,132.5,-140,132.5,,132.5,52,F,Светлана Малецкая,1983,Yes,Raw,D
2,Tatyana Dzhanpoladova,O,Russia,50.3,,,,,,,,,,,90,-95,,90,,90,52,F,Татьяна Джанполадова,1984,Yes,Raw,D
1,Anastasiya Noskova,O,Russia,55.5,,,,,,,,,,,122.5,132.5,-140,132.5,,132.5,56,F,Анастасия Носкова,1984,Yes,Raw,D
2,Ekaterina Plokhaya,O,Russia,54.7,,,,,,,,,,,100,105,-110,105,,105,56,F,Екатерина Плохая,1989,Yes,Raw,D
1,Olga Golovacheva,O,Russia,58.6,,,,,,,,,,,100,110,120,120,,120,60,F,Ольга Головачева,1985,Yes,Raw,D
1,Marina Vishnevskaya,O,Russia,64.5,,,,,,,,,,,130,140,150,150,,150,67.5,F,Марина Вишневская,1985,Yes,Raw,D
2,Svetlana Kashirina,O,Russia,66.2,,,,,,,,,,,122.5,135,-140,135,,135,67.5,F,Светлана Каширина,1988,Yes,Raw,D
1,Elena Povolotskaya,O,Russia,71.8,,,,,,,,,,,165,175,-185,175,,175,75,F,Елена Поволоцкая,1978,Yes,Raw,D
1,Darya Maltseva,O,Russia,78.5,,,,,,,,,,,110,117.5,-120,117.5,,117.5,82.5,F,Дарья Мальцева,1984,Yes,Raw,D
2,Elena Piskovaya,O,Russia,80.4,,,,,,,,,,,85,95,97.5,97.5,,97.5,82.5,F,Елена Писковая,1969,Yes,Raw,D
1,Nikolay Grachev,O,Russia,51.1,,,,,,,,,,,122.5,130,135,135,138,135,52,M,Николай Грачев,1956,Yes,Raw,D
1,Vladimir Kuzminov,O,Russia,55.4,,,,,,,,,,,125,142.5,145,145,-152.5,145,56,M,Владимир Кузьминов,1997,Yes,Raw,D
1,Maksim Sukhobok,O,Russia,59.6,,,,,,,,,,,185,195,-200,195,,195,60,M,Максим Сухобок,1965,Yes,Raw,D
2,Kirill Melnikov,O,Russia,59.9,,,,,,,,,,,172.5,187.5,-200,187.5,,187.5,60,M,Кирилл Мельников,1992,Yes,Raw,D
3,Albert Kurmanov,O,Russia,58.7,,,,,,,,,,,-180,-180,180,180,,180,60,M,Альберт Курманов,1992,Yes,Raw,D
4,Sergey Kotov,O,Russia,59.6,,,,,,,,,,,145,-152.5,152.5,152.5,,152.5,60,M,Сергей Котов,1995,Yes,Raw,D
5,Aleksandr Dambinov,O,Russia,60,,,,,,,,,,,145,-160,-160,145,,145,60,M,Александр Дамбинов,1936,Yes,Raw,D
DQ,Ivan Romusik,O,Russia,58.7,,,,,,,,,,,-145,-145,-145,,,,60,M,Иван Ромусик,1995,Yes,Raw,D
1,Sergey Alampiev,O,Russia,67.1,,,,,,,,,,,180,205,217.5,217.5,,217.5,67.5,M,Сергей Алампиев,1957,Yes,Raw,D
2,Marat Kurdanov,O,Russia,65.8,,,,,,,,,,,180,190,200,200,,200,67.5,M,Марат Курданов,1993,Yes,Raw,D
3,Zalim Khamgokov,O,Russia,66.1,,,,,,,,,,,165,175,190,190,,190,67.5,M,Залим Хамгоков,1994,Yes,Raw,D
4,Vladislav Gubanov,O,Russia,66.3,,,,,,,,,,,170,175,185,185,,185,67.5,M,Владислав Губанов,1994,Yes,Raw,D
5,Osman Nagoev,O,Russia,66.8,,,,,,,,,,,-170,180,-190,180,,180,67.5,M,Осман Нагоев,1992,Yes,Raw,D
6,Vladimir Lazarenko,O,Russia,64.5,,,,,,,,,,,-165,-170,170,170,,170,67.5,M,Владимир Лазаренко,1995,Yes,Raw,D
7,Nikolay Tretyak,O,Russia,63,,,,,,,,,,,140,165,-190,165,,165,67.5,M,Николай Третьяк,1994,Yes,Raw,D
8,Vladimir Sviderskiy,O,Russia,67.5,,,,,,,,,,,130,137.5,145,145,,145,67.5,M,Владимир Свидерский,1951,Yes,Raw,D
1,Dmitry Nasonov,O,Russia,74.1,,,,,,,,,,,250,265,270,270,,270,75,M,Дмитрий Насонов,1992,Yes,Raw,D
2,Ivan Bezrukov,O,Russia,70.7,,,,,,,,,,,202.5,207.5,-210,207.5,,207.5,75,M,Иван Безруков,1989,Yes,Raw,D
3,Aznaur Batchaev,O,Russia,73.2,,,,,,,,,,,200,205,-220,205,,205,75,M,Азнаур Батчаев,1987,Yes,Raw,D
1,Ruslan Vorokov,O,Russia,78.6,,,,,,,,,,,185,-195,215,215,,215,82.5,M,Руслан Вороков,1994,Yes,Raw,D
2,Vyacheslav Chernobrovyy,O,Russia,80.6,,,,,,,,,,,200,-210,-215,200,,200,82.5,M,Вячеслав Чернобровый,1984,Yes,Raw,D
3,Vasiliy Sidorov,O,Russia,82.5,,,,,,,,,,,185,200,-215,200,,200,82.5,M,Василий Сидоров,1981,Yes,Raw,D
4,Aleksandr Kulevskoy,O,Russia,79.6,,,,,,,,,,,170,185,190,190,,190,82.5,M,Александр Кулевской,1971,Yes,Raw,D
5,Admir Goev,O,Russia,80.9,,,,,,,,,,,170,-185,-200,170,,170,82.5,M,Адмир Гоев,1993,Yes,Raw,D
1,Aslan Dolov,O,Russia,87.8,,,,,,,,,,,240,-255,255,255,,255,90,M,Аслан Долов,1990,Yes,Raw,D
2,Aleksey Pleshakov,O,Russia,85.8,,,,,,,,,,,220,232.5,242.5,242.5,,242.5,90,M,Алексей Плешаков,1985,Yes,Raw,D
3,Andrey Scherban,O,Russia,89.7,,,,,,,,,,,222.5,230,235,235,,235,90,M,Андрей Щербань,1987,Yes,Raw,D
4,Aleksandr Gairbekov,O,Russia,85.5,,,,,,,,,,,210,222.5,230,230,,230,90,M,Александр Гаирбеков,1992,Yes,Raw,D
5,Dmitriy Samokhvalov,O,Russia,89,,,,,,,,,,,200,222.5,,222.5,,222.5,90,M,Дмитрий Самохвалов,1973,Yes,Raw,D
6,Aleksandr Kulyagin,O,Russia,88.2,,,,,,,,,,,205,215,-222.5,215,,215,90,M,Александр Кулягин,1984,Yes,Raw,D
7,Artur Bugaev,O,Russia,86.5,,,,,,,,,,,190,210,-222.5,210,,210,90,M,Артур Бугаев,1993,Yes,Raw,D
8,Feliks Kasimov,O,Russia,85.6,,,,,,,,,,,190,-200,-200,190,,190,90,M,Феликс Касимов,1993,Yes,Raw,D
1,Sergey Marchenko,O,Russia,99.7,,,,,,,,,,,177.5,190,-202.5,190,,190,100,M,Сергей Марченко,1959,Yes,Raw,D
1,Vladimir Chernyshev,O,Russia,109.6,,,,,,,,,,,222.5,232.5,-240,232.5,,232.5,110,M,Владимир Чернышев,1948,Yes,Raw,D
1,Sergey Shinkarev,O,Russia,150.7,,,,,,,,,,,150,,,150,,150,140+,M,Сергей Шинкарев,1993,Yes,Raw,D
1,Olga Mikhaylova,O,Russia,51.9,,,,,,,,,,,145,-155,,145,,145,52,F,Ольга Михайлова,1971,No,Raw,D
1,Irina Ignatovich,O,Russia,58,,,,,,,,,,,175,-185,-185,175,,175,60,F,Ирина Игнатович,1982,No,Raw,D
1,Ilya Lebedev,O,Russia,89.3,,,,,,,,,,,250,265,280,280,,280,90,M,Илья Лебедев,1972,No,Raw,D
2,Nikolay Omelchenko,O,Russia,89.6,,,,,,,,,,,240,255,,255,,255,90,M,Николай Омельченко,1987,No,Raw,D
1,Evgeniy Kurnosov,O,Russia,97,,,,,,,,,,,270,-285,-290,270,,270,100,M,Евгений Курносов,1991,No,Raw,D
1,Yuriy Dementyev,O,Russia,108,,,,,,,,,,,290,300,-310,300,,300,110,M,Юрий Дементьев,1983,No,Raw,D
2,Ruben Odabashyan,O,Russia,107.8,,,,,,,,,,,240,260,270,270,,270,110,M,Рубен Одабашян,1986,No,Raw,D
1,Andrey Pankov,O,Russia,113.5,,,,,,,,,,,240,250,260,260,,260,125,M,Андрей Паньков,1977,No,Raw,D
2,Yuriy Khalipa,O,Russia,119.7,,,,,,,,,,,220,240,-252.5,240,,240,125,M,Юрий Халипа,1986,No,Raw,D
DQ,Valeriy Bezborodov,O,Russia,118.2,,,,,,,,,,,-250,-250,-255,,,,125,M,Валерий Безбородов,1976,No,Raw,D
1,Dmitriy Bescherov,O,Russia,145.2,,,,,,,,,,,320,-330,-330,320,,320,140+,M,Дмитрий Бесчеров,1991,No,Raw,D
1,Tatyana Dzhanpoladova,O,Russia,50.3,,,,,,,,,,,-77.5,82.5,-90,82.5,,82.5,52,F,Татьяна Джанполадова,1984,Yes,Multi-ply,D
1,Artur Abdyushev,J,Russia,72.3,,,,,,,,,,,175,185,-192.5,185,,185,75,M,Артур Абдюшев,1993,Yes,Multi-ply,D
1,Armen Khachaturyan,O,Russia,74.5,,,,,,,,,,,175,-182.5,-182.5,175,,175,75,M,Армен Хачатурян,1978,Yes,Multi-ply,D
2,Andrey Ivankov,O,Russia,74,,,,,,,,,,,-130,130,147.5,147.5,,147.5,75,M,Андрей Иванков,1989,Yes,Multi-ply,D
1,Vladimir Tishkovskiy,O,Russia,82.2,,,,,,,,,,,-202.5,202.5,-207.5,202.5,,202.5,82.5,M,Владимир Тишковский,1986,Yes,Multi-ply,D
2,Aleksey Bryazgunov,O,,82.2,,,,,,,,,,,185,200,-205,200,,200,82.5,M,Алексей Брязгунов,1970,Yes,Multi-ply,D
DQ,Vyacheslav Chernobrovyy,O,Russia,80.6,,,,,,,,,,,-160,-170,-170,,,,82.5,M,Вячеслав Чернобровый,1984,Yes,Multi-ply,D
1,Aleksey Bryazgunov,M1,,82.2,,,,,,,,,,,185,200,-205,200,,200,82.5,M,Алексей Брязгунов,1970,Yes,Multi-ply,D
1,Sergey Vinnichenko,O,Russia,86,,,,,,,,,,,200,-215,-215,200,,200,90,M,Сергей Винниченко,1974,Yes,Multi-ply,D
2,Nikolay Reshetov,O,Russia,88.5,,,,,,,,,,,175,-185,-185,175,,175,90,M,Николай Решетов,1959,Yes,Multi-ply,D
1,Uruzmak Merdenov,M2,Russia,89.5,,,,,,,,,,,170,-175,175,175,,175,90,M,Урузмак Мерденов,1968,Yes,Multi-ply,D
1,Nikolay Reshetov,M3,Russia,88.5,,,,,,,,,,,175,-185,-185,175,,175,90,M,Николай Решетов,1959,Yes,Multi-ply,D
1,Ivan Likhovitskiy,J,Russia,97.9,,,,,,,,,,,-250,-250,250,250,,250,100,M,Иван Лиховицкий,1990,Yes,Multi-ply,D
1,Vadim Evtushenko,O,Russia,109,,,,,,,,,,,-220,220,232.5,232.5,,232.5,110,M,Вадим Евтушенко,1974,Yes,Multi-ply,D
2,Evgeniy Uvarov,O,Russia,107.2,,,,,,,,,,,220,-230,-250,220,,220,110,M,Евгений Уваров,1977,Yes,Multi-ply,D
3,Maksim Tatarin,O,Russia,107.6,,,,,,,,,,,170,180,190,190,,190,110,M,Максим Татарин,1988,Yes,Multi-ply,D
1,Anatoliy Panchenko,O,Russia,122.1,,,,,,,,,,,-225,225,,225,,225,125,M,Анатолій Панченко,1973,Yes,Multi-ply,D
DQ,Artem Sedov,O,Russia,117,,,,,,,,,,,-250,-260,-260,,,,125,M,Артем Седов,1979,Yes,Multi-ply,D
DQ,Vasiliy Shpodarev,O,Russia,118.9,,,,,,,,,,,-260,-260,-260,,,,125,M,Василий Шподарев,1989,Yes,Multi-ply,D
DQ,Grigoriy Fedorov,O,Russia,59,,,,,,,,,,,-120,,,,,,60,M,Григорий Федоров,1997,Yes,Single-ply,D
DQ,Sergey Alampiev,O,Russia,67.1,,,,,,,,,,,-180,,,,,,67.5,M,Сергей Алампиев,1957,Yes,Single-ply,D
1,Andrey Ivankov,O,Russia,74,,,,,,,,,,,185,195,-202.5,195,,195,75,M,Андрей Иванков,1989,Yes,Single-ply,D
2,Anton Komarov,O,Russia,70.5,,,,,,,,,,,160,175,-190,175,,175,75,M,Антон Комаров,1990,Yes,Single-ply,D
1,Nikolay Shapovalov,O,Russia,80.7,,,,,,,,,,,210,217.5,-235,217.5,,217.5,82.5,M,Николай Шаповалов,1977,Yes,Single-ply,D
1,Vitaliy Tereschenko,O,Russia,85,,,,,,,,,,,250,265,272.5,272.5,,272.5,90,M,Виталий Терещенко,1974,Yes,Single-ply,D
2,Anatoliy Belyakov,O,Russia,86.8,,,,,,,,,,,-150,160,,160,,160,90,M,Анатолий Беляков,1996,Yes,Single-ply,D
1,Vladimir Polivanov,O,Russia,116.2,,,,,,,,,,,280,-300,-300,280,,280,125,M,Владимир Поливанов,1963,Yes,Single-ply,D
1,Grigoriy Fedorov,T1,Russia,59,,,,,,,,,,,-120,130,140,140,,140,60,M,Григорий Федоров,1997,No,Single-ply,D
1,Vladimir Bakshaliev,O,Russia,88.9,,,,,,,,,,,270,-280,-290,270,,270,90,M,Владимир Бакшалиев,1983,No,Single-ply,D
1,Andrey Sizov,O,Russia,95.7,,,,,,,,,,,325,-340,-345,325,,325,100,M,Андрей Сизов,1968,No,Single-ply,D
2,Yuriy Ustinov,O,Russia,96.4,,,,,,,,,,,280,-300,,280,,280,100,M,Юрий Устинов,1975,No,Single-ply,D
1,Igor Nastynov,O,Russia,140.9,,,,,,,,,,,250,-285,-285,250,,250,140+,M,Игорь Настынов,1961,No,Single-ply,D
