Place,Name,BirthYear,WeightClassKg,BodyweightKg,Country,Best3SquatKg,Best3BenchKg,Best3DeadliftKg,TotalKg,Sex,Event,Equipment,Division
1,Sabine Guillaume,1963,48,47.4,France,122.5,62.5,150,335,F,SBD,Single-ply,Open
2,Silvia Rodriguez,1966,48,44.1,Spain,110,55,117.5,282.5,F,SBD,Single-ply,Open
1,Sophie Guilomat,1975,52,50.9,France,135,67.5,140,342.5,F,SBD,Single-ply,Open
2,Teresa Marriott,1963,52,51.2,UK,120,70,140,330,F,SBD,Single-ply,Open
DQ,Yveline Dujardin,1966,52,51.9,Belgium,,,,,F,SBD,Single-ply,Open
1,Carole Wagner,1976,56,55.3,Luxembourg,150,92.5,150,392.5,F,SBD,Single-ply,Open
2,Bernadet Taillard,1958,56,53.1,France,152.5,72.5,160,385,F,SBD,Single-ply,Open
3,Allison Hough,1966,56,55.9,UK,132.5,67.5,142.5,342.5,F,SBD,Single-ply,Open
1,Birgit Fischer,1963,60,58.5,Germany,152.5,82.5,190,425,F,SBD,Single-ply,Open
2,Cather Mezzafonte,1974,60,57.3,France,135,65,140,340,F,SBD,Single-ply,Open
3,K.Montse Gonzales,1980,60,59.3,Spain,130,45,150,325,F,SBD,Single-ply,Open
1,Cécile Jamin,1966,67.5,66.9,France,185,95,207.5,487.5,F,SBD,Single-ply,Open
2,Anke Wendt,1978,67.5,62.6,Germany,140,75,175,390,F,SBD,Single-ply,Open
3,Carmen Kronshagen,1962,67.5,67.2,Luxembourg,140,70,137.5,347.5,F,SBD,Single-ply,Open
4,Birgit Lenander,1973,67.5,63.6,Denmark,132.5,60,145,337.5,F,SBD,Single-ply,Open
5,Sabine Zangerle,1971,67.5,62.8,Austria,125,70,140,335,F,SBD,Single-ply,Open
1,Marion Hammang,1964,75,68.3,Luxembourg,162.5,115,187.5,465,F,SBD,Single-ply,Open
2,Eva-Maria Bachmaier,1970,75,68.6,Germany,147.5,110,195,452.5,F,SBD,Single-ply,Open
3,Jeanett Schriever,1976,75,74.2,Germany,150,85,135,370,F,SBD,Single-ply,Open
1,Jean Maton,1963,82.5,75.4,UK,147.5,85,167.5,400,F,SBD,Single-ply,Open
2,Brigitte Wampach,1956,82.5,82.2,Luxembourg,162.5,77.5,160,400,F,SBD,Single-ply,Open
3,Susanne Diter,1950,82.5,77.5,Denmark,132.5,67.5,127.5,327.5,F,SBD,Single-ply,Open
1,Carole Springett,1965,90,83,UK,155,70,175,400,F,SBD,Single-ply,Open
2,Lene Laursen,1972,90,87.5,Denmark,135,55,157.5,347.5,F,SBD,Single-ply,Open
1,Sandra Smith-Vokroj,1962,90+,90.9,UK,160,92.5,210,462.5,F,SBD,Single-ply,Open
2,Junge Pernille,1959,90+,90.5,Denmark,110,52.5,122.5,285,F,SBD,Single-ply,Open
1,Laurent Bach,1968,52,51.7,France,165,110,210,485,M,SBD,Single-ply,Open
2,K.Jeronimo Avila,1981,52,49.8,Spain,140,75,145,360,M,SBD,Single-ply,Open
1,Patrick LeGard,1959,56,56,France,205.5,115,205,525,M,SBD,Single-ply,Open
2,Alan Vith,1974,56,52.1,Denmark,170,122.5,170,462.5,M,SBD,Single-ply,Open
1,Bernard Vincent,1957,60,60,France,217.5,137.5,230,585,M,SBD,Single-ply,Open
2,Jürgen Nemeth,1972,60,57.3,Austria,205,122.5,245,572.5,M,SBD,Single-ply,Open
1,David Gray,1964,67.5,67.4,UK,237.5,140,260,637.5,M,SBD,Single-ply,Open
2,Eric Godo,1972,67.5,66.5,France,212.5,117.5,242.5,572.5,M,SBD,Single-ply,Open
1,Benny Verbeke,1965,75,74.9,Belgium,250,127.5,300,677.5,M,SBD,Single-ply,Open
2,Mike Nikolaizig,1965,75,74.5,Germany,250,182.5,242.5,675,M,SBD,Single-ply,Open
3,Victor Pereyra,1972,75,73.1,Portugal,210,137.5,240,587.5,M,SBD,Single-ply,Open
1,Jaswinder Singh,1976,82.5,81.5,UK,265,197.5,282.5,745,M,SBD,Single-ply,Open
2,Anibal Manuel Coimbra Marques,1972,82.5,81.1,Luxembourg,270,172.5,297.5,740,M,SBD,Single-ply,Open
3,Philippe Neto,1975,82.5,82.5,France,280,195,250,725,M,SBD,Single-ply,Open
4,Florindo Figueiredo Pinheiro,1973,82.5,80.6,Portugal,280,190,252.5,722.5,M,SBD,Single-ply,Open
5,Mario Schnurr,1966,82.5,79.8,Germany,265,142.5,275,682.5,M,SBD,Single-ply,Open
6,Jan Huysmans,1960,82.5,80.5,Belgium,220,147.5,235,602.5,M,SBD,Single-ply,Open
7,Ayman Kichi,1980,82.5,77.6,Spain,222.5,115,245,582.5,M,SBD,Single-ply,Open
8,Cristobal Moreno,1970,82.5,77.5,Spain,190,100,220,510,M,SBD,Single-ply,Open
1,John Porter,1968,90,89.3,UK,280,187.5,297.5,765,M,SBD,Single-ply,Open
2,Manuel Juliao,1974,90,88.2,Portugal,300,177.5,285,762.5,M,SBD,Single-ply,Open
3,Manuel Calderini,1963,90,89,Luxembourg,287.5,170,290,747.5,M,SBD,Single-ply,Open
4,Herve Recule,1973,90,88,France,270,180,290,740,M,SBD,Single-ply,Open
5,Tony Ardes,1974,90,89.6,France,275,167.5,295,737.5,M,SBD,Single-ply,Open
6,Kim Dahl Hansen,1971,90,87.2,Denmark,210,152.5,250,612.5,M,SBD,Single-ply,Open
DQ,Richard Singer,1963,90,85.1,Austria,,,,,M,SBD,Single-ply,Open
1,Frédéric Buttigieg,1964,100,98.6,France,320,225,305,850,M,SBD,Single-ply,Open
2,Paulo Rodriguez,1966,100,99,Portugal,295,145,315,755,M,SBD,Single-ply,Open
3,Kjeld Ingerslev,1966,100,91.2,Denmark,250,165,270,685,M,SBD,Single-ply,Open
1,Andrew Rodney,1965,110,100.8,UK,302.5,165,300,767.5,M,SBD,Single-ply,Open
2,Henrik Soerensen,1973,110,100.4,Denmark,290,172.5,292.5,755,M,SBD,Single-ply,Open
3,Berhard Gerold,1969,110,100.3,Austria,270,177.5,265,712.5,M,SBD,Single-ply,Open
DQ,Andre Dumontet,1946,110,101.5,France,,,,,M,SBD,Single-ply,Open
1,Josef Mayrhofer,1968,125,118.1,Austria,360,205,327.5,892.5,M,SBD,Single-ply,Open
2,Nuno Martins,1976,125,115.7,Portugal,315,222.5,275,812.5,M,SBD,Single-ply,Open
3,Andy Doerner,1976,125,116.4,Germany,330,175,290,795,M,SBD,Single-ply,Open
1,Aribert Forster,1967,125+,130.8,Germany,320,205,330,855,M,SBD,Single-ply,Open
2,Gerald Pilling,1974,125+,126.3,UK,302.5,195,312.5,810,M,SBD,Single-ply,Open
3,Achim Clausen,1960,125+,141.9,Germany,310,200,300,810,M,SBD,Single-ply,Open
