Place,WeightClassKg,Name,State,Sex,BodyweightKg,Best3SquatKg,Best3BenchKg,Best3DeadliftKg,TotalKg,Division,Event,Equipment
1,75,Randie Taylor,OH,F,74.8,137.5,80,185,402.5,open,SBD,Wraps
1,75,Randie Taylor,OH,F,74.8,137.5,80,185,402.5,pure,SBD,Wraps
1,75,Randie Taylor,OH,F,74.8,137.5,80,185,402.5,sm2,SBD,Wraps
1,75,Randie Taylor,OH,F,74.8,137.5,80,185,402.5,smp,SBD,Wraps
1,82.5,Katie Chadeayne,OH,F,78.29,142.5,72.5,152.5,367.5,sm1,SBD,Wraps
1,48,Melissa Jutras,KY,F,47.63,100,52.5,100,252.5,sm2,SBD,Wraps
1,60,Haley Moncsko,OH,F,58.29,112.5,57.5,122.5,292.5,jr,SBD,Wraps
2,60,Sierra Snodgrass,OH,F,57.97,107.5,60,120,287.5,jr,SBD,Wraps
1,82.5,Shayla Greer,OH,F,78.24,117.5,67.5,147.5,332.5,int,SBD,Wraps
1,82.5,Shayla Greer,OH,F,78.24,117.5,67.5,147.5,332.5,open,SBD,Wraps
1,82.5,Shayla Greer,OH,F,78.24,117.5,67.5,147.5,332.5,pure,SBD,Wraps
1,52,Shana Jones,OH,F,49.9,92.5,37.5,112.5,242.5,nov,SBD,Wraps
1,90+,Kayla Tabor,WV,F,97.3,137.5,75,142.5,355,sm1,SBD,Wraps
1,82.5,Elizabeth Ritzler,OH,F,79.38,115,55,142.5,312.5,jr,SBD,Wraps
1,90+,Nacole Stickle,OH,F,98.29,122.5,62.5,155,340,teen,SBD,Wraps
1,90+,Tammi Stickle,OH,F,95.25,107.5,60,150,317.5,m1,SBD,Wraps
1,67.5,Elizabeth Monfort,OH,F,66.81,87.5,42.5,120,250,pure,SBD,Wraps
1,90+,Brittany Sebok,WV,F,93.44,102.5,62.5,130,295,int,SBD,Wraps
1,90,Nina Guerrero,OH,F,83.6,90,47.5,125,262.5,int,SBD,Wraps
1,75,Misty Shaffer,OH,F,72.89,80,42.5,120,242.5,m2,SBD,Wraps
1,90+,Eleni Ritzler,OH,F,91.67,82.5,52.5,117.5,252.5,hs,SBD,Wraps
1,75,Dakota Pollock,OH,F,70.71,75,47.5,92.5,215,teen,SBD,Wraps
1,90,Elice Hoover,OH,F,87.09,67.5,50,100,217.5,sm1,SBD,Wraps
1,52,Janet Bauer,OH,F,51.17,40,25,77.5,142.5,m3,SBD,Wraps
1,90+,Tia Johnson,OH,F,107.14,,82.5,152.5,235,open,BD,Raw
1,90+,Kayla Tabor,WV,F,97.3,,75,142.5,217.5,sm1,BD,Raw
1,67.5,Tezra Bailey,OH,F,67.13,,57.5,107.5,165,m1,BD,Raw
1,82.5,Amy Mefford,OH,F,79.97,,42.5,122.5,165,sm2,BD,Raw
1,60,Kellye Hickman,OH,F,56.2,,40,90,130,m1,BD,Raw
1,90,Elisebeth Adams,OH,F,87.54,,45,117.5,162.5,sm1,BD,Raw
2,67.5,Tabitha Couch,OH,F,65.59,,40,87.5,127.5,m1,BD,Raw
1,75,Bonnie Brown,OH,F,72.03,,40,82.5,122.5,nov,BD,Raw
1,75,Sammie Davis,OH,F,68.17,,30,75,105,youth,BD,Raw
1,56,Olivia Johnson,OH,F,52.48,,27.5,57.5,85,teen,BD,Raw
1,67.5,Gloria Stir,OH,F,62.05,,32.5,47.5,80,m2,BD,Raw
1,140+,Mark Jarrell,WV,M,181.89,337.5,280,280,897.5,smp,SBD,Single-ply
1,110,Chad Straley,OH,M,109.63,,205,,205,open,B,Raw
1,110,Chad Straley,OH,M,109.63,,205,,205,sm1,B,Raw
1,140+,Mark Jarrell,WV,M,181.89,,280,,280,smp,B,Single-ply
1,110,Terence Jones,OH,M,102.06,,,260,260,open,D,Raw
1,90,Roger Haab,IL,M,89.09,,,192.5,192.5,m3,D,Raw
1,82.5,Raymond Adams,OH,M,75.43,,,160,160,m4,D,Raw
1,67.5,Michael Hanlein,KY,M,65.82,,130,207.5,337.5,jr,BD,Raw
1,67.5,Michael Hanlein,KY,M,65.82,,130,207.5,337.5,pure,BD,Raw
1,82.5,Robert Youngerman,OH,M,81.83,,145,227.5,372.5,open,BD,Raw
1,82.5,Robert Youngerman,OH,M,81.83,,145,227.5,372.5,pure,BD,Raw
1,82.5,Robert Youngerman,OH,M,81.83,,145,227.5,372.5,sm2,BD,Raw
1,82.5,Scott Stengel,OH,M,81.42,,125,205,330,int,BD,Raw
1,82.5,Jason McGinnis,OH,M,81.96,,155,172.5,327.5,sm1,BD,Raw
1,125,Greg Simpson,OH,M,115.67,,150,215,365,m1,BD,Raw
1,125,Greg Simpson,OH,M,115.67,,150,215,365,open,BD,Raw
1,90,Dorran Vogler,IN,M,83.01,,125,177.5,302.5,m4,BD,Raw
1,82.5,Brian Helmondollar,WV,M,80.51,,115,175,290,m2,BD,Raw
1,67.5,Tim Artz,OH,M,67.13,,78.5,182.5,261,teen,BD,Raw
1,140+,Jeremy Hays,OH,M,140.16,,165,177.5,342.5,mp,BD,Raw
1,140+,Jeremy Hays,OH,M,140.16,,165,177.5,342.5,open,BD,Raw
1,140+,Jeremy Hays,OH,M,140.16,,165,177.5,342.5,pure,BD,Raw
1,75,Ezequiel Mora,IL,M,71.67,,92.5,145,237.5,nov,BD,Raw
1,125,Regan O'Dell,IL,M,114.49,,122.5,180,302.5,m3,BD,Raw
1,75,Zaden Jones,OH,M,68.67,,27.5,52.5,80,youth,BD,Raw
1,125,Richard Fairchild III,IN,M,117.39,,217.5,,217.5,jr,B,Raw
1,100,Craig Tabor,WV,M,98.07,,186,,186,sm2,B,Raw
DQ,100,Justin Monford,OH,M,95.21,,,177.5,,pure,D,Raw
1,82.5,Jason McGinnis,OH,M,81.96,,155,,155,open,B,Raw
1,82.5,Jason McGinnis,OH,M,81.96,,155,,155,sm1,B,Raw
1,90,Dorran Vogler,IN,M,83.01,,125,,125,m4,B,Raw
1,82.5,Brian Helmondollar,WV,M,80.51,,115,,115,m2,B,Raw
1,110,Jamie Puente,TN,M,109.77,,60,,60,hcjr,B,Raw
1,90,Ryan DeGeorge,OH,M,89.63,227.5,167.5,260,655,open,SBD,Raw
1,90,Ryan DeGeorge,OH,M,89.63,227.5,167.5,260,655,smp,SBD,Raw
1,100,Anthony Greer,OH,M,97.3,240,150,245,635,int,SBD,Wraps
1,100,Anthony Greer,OH,M,97.3,240,150,245,635,open,SBD,Wraps
1,100,Anthony Greer,OH,M,97.3,240,150,245,635,pure,SBD,Wraps
1,110,Donald Johnson,OH,M,104.33,192.5,195,265,652.5,m1,SBD,Wraps
1,110,Jordan Puchalla,WI,M,107.41,250,140,265,655,jr,SBD,Wraps
1,110,Jordan Puchalla,WI,M,107.41,250,140,265,655,nov,SBD,Wraps
1,67.5,Chris Cohagen,OH,M,66.22,175,110,217.5,502.5,jr,SBD,Wraps
1,100,Austin Porter,OH,M,94.3,210,125,260,595,teen,SBD,Wraps
1,82.5,John Schneider,OH,M,81.1,215,117.5,212.5,545,sm2,SBD,Wraps
1,82.5,John Schneider,OH,M,81.1,215,117.5,212.5,545,smp,SBD,Wraps
1,90,Earl Young,KY,M,86.77,170,132.5,227.5,530,nov,SBD,Wraps
1,82.5,Scott Stengel,OH,M,81.42,180,125,205,510,int,SBD,Wraps
1,140,Randy Boyer,OH,M,133.81,275,137.5,227.5,640,sm1,SBD,Wraps
1,100,James Hogan,OH,M,96.84,177.5,140,225,542.5,sm1,SBD,Wraps
1,82.5,Seth Knight,OH,M,81.1,167.5,122.5,205,495,nov,SBD,Wraps
1,110,Niles Savery,OH,M,103.42,210,107.5,230,547.5,teen,SBD,Wraps
2,90,Derec Jones,OH,M,88,155,115,230,500,nov,SBD,Wraps
1,67.5,Tim Artz,OH,M,67.13,152.5,78.5,182.5,413.5,teen,SBD,Wraps
2,100,Alexander Nida,OH,M,98.66,175,85,232.5,492.5,sm1,SBD,Wraps
1,110,David Larson,OH,M,108.86,187.5,112.5,210,510,retrom2,SBD,Raw
1,125,Russell Taylor #2,OH,M,111.22,182.5,127.5,205,515,sm2,SBD,Wraps
1,125,Wes Sharp,OH,M,114.31,175,122.5,207.5,505,int,SBD,Wraps
2,82.5,Austin Young,OH,M,81.69,160,82.5,182.5,425,nov,SBD,Wraps
2,110,Andrew Ritzel,KY,M,107.5,162.5,95,205,462.5,nov,SBD,Wraps
1,125,Jedidiah McCanna,OH,M,118.93,165,115,197.5,477.5,retrojr,SBD,Raw
1,90,Roger Haab,IL,M,89.09,132.5,82.5,192.5,407.5,m3,SBD,Wraps
1,110,Dorian Harper,OH,M,108.86,120,67.5,160,347.5,teen,SBD,Wraps
1,75,Travis Rose,KY,M,73.44,100,65,115,280,sm1,SBD,Wraps
1,125,Dale Lewis,OH,M,114.53,100,75,160,335,m3,SBD,Wraps
1,82.5,Earley Johnson,NV,M,80.88,67.5,42.5,90,200,m4,SBD,Wraps
1,100,Craig Tabor,WV,M,98.07,,186,230,416,sm2,BD,Raw
1,82.5,Scott Stengel,OH,M,81.42,,125,205,330,int,BD,Raw
1,82.5,Jason McGinnis,OH,M,81.96,,155,172.5,327.5,sm1,BD,Raw
1,82.5,Brian Helmondollar,WV,M,80.51,,115,175,290,m2,BD,Raw
1,90,Edwin Knight,OH,M,89.92,,110,190,300,nov,BD,Raw
1,90,Edwin Knight,OH,M,89.92,,110,190,300,open,BD,Raw
1,90,Edwin Knight,OH,M,89.92,,110,190,300,pure,BD,Raw
1,67.5,Daniel Harmon,OH,M,65.77,,82.5,142.5,225,m3,BD,Raw
DQ,125,Regan O'Dell,IL,M,114.49,,122.5,,,Open,BD,Raw
DQ,100,Jeff Briner,OH,M,99.79,,92.5,,,Open,BD,Raw
1,52,Dawson Blauvelt,OH,M,34.61,,25,52.5,77.5,youth,BD,Raw
1,110,Jamie Puente,TN,M,109.77,,60,100,160,hcjr,BD,Raw
1,90,Caleb Stone,OH,M,89.86,,32.5,62.5,95,hs,BD,Raw
1,100,Joseph Blackburn,OH,M,90.22,,27.5,62.5,90,youth,BD,Raw
