Division,WeightClassKg,Place,Name,Team,BodyweightKg,Best3SquatKg,Best3BenchKg,Best3DeadliftKg,TotalKg,Equipment,Event,Sex
Girls,44.23,1,Julyssa Silva,Burnet,43.36,99.79,40.82,97.52,238.14,Single-ply,SBD,F
Girls,44.23,2,Sage Thompson,Lometa,44,72.57,43.09,86.18,201.85,Single-ply,SBD,F
Girls,44.23,3,Lily Dawson,Rosebud-Lott,38.1,49.9,31.75,61.23,142.88,Single-ply,SBD,F
Girls,47.85,1,Lily Buckley,Lago Vista,45.9,115.67,52.16,108.86,276.69,Single-ply,SBD,F
Girls,47.85,2,Madison Sanchez,Taylor,45.63,95.25,36.29,77.11,208.65,Single-ply,SBD,F
Girls,47.85,3,Reigh Neudorf,Llano,46.08,81.65,36.29,86.18,204.12,Single-ply,SBD,F
Girls,47.85,4,Savanna Simerly,Lometa,46.08,65.77,34.02,74.84,174.63,Single-ply,SBD,F
Girls,47.85,DQ,Katie Richardson,Lago Vista,47.81,72.57,,,,Single-ply,SBD,F
Girls,51.94,1,Hailey Northcutt,Lago Vista,51.8,129.27,68.04,124.74,322.05,Single-ply,SBD,F
Girls,51.94,2,Shannon Carpenter,Lago Vista,51.8,124.74,56.7,111.13,292.57,Single-ply,SBD,F
Girls,51.94,3,Savannah Johnson,San Saba,51.26,108.86,56.7,113.4,278.96,Single-ply,SBD,F
Girls,51.94,4,Ariana Sanchez,Taylor,49.62,95.25,52.16,102.06,249.48,Single-ply,SBD,F
Girls,51.94,5,Gina Guitron,Killeen Shoemaker,51.07,97.52,43.09,90.72,231.33,Single-ply,SBD,F
Girls,51.94,6,Paige Adams,Burnet,48.53,92.99,38.56,81.65,213.19,Single-ply,SBD,F
Girls,51.94,7,Orianna Young,Rosebud-Lott,48.44,68.04,29.48,77.11,174.63,Single-ply,SBD,F
Girls,56.02,1,Emily Ozanne,Llano,55.07,127.01,63.5,117.93,308.44,Single-ply,SBD,F
Girls,56.02,2,Skylar Stefka,Lago Vista,54.79,129.27,49.9,124.74,303.91,Single-ply,SBD,F
Girls,56.02,3,Brooke Gauthier,Lago Vista,55.97,102.06,52.16,102.06,256.28,Single-ply,SBD,F
Girls,56.02,4,Allison Betak,Thorndale,54.61,99.79,40.82,108.86,249.48,Single-ply,SBD,F
Girls,56.02,5,Victoria Perez,Taylor,55.88,104.33,45.36,99.79,249.48,Single-ply,SBD,F
Girls,56.02,6,Audrey Carranza,Taylor,53.8,97.52,40.82,106.59,244.94,Single-ply,SBD,F
Girls,56.02,7,Jessica Alonso,Taylor,53.98,92.99,43.09,95.25,231.33,Single-ply,SBD,F
Girls,56.02,8,Jamie Smedley,Llano,54.16,97.52,40.82,92.99,231.33,Single-ply,SBD,F
Girls,56.02,9,Raylin Fuentes,Taylor,54.98,81.65,38.56,86.18,206.38,Single-ply,SBD,F
Girls,56.02,NS,Selena Williams,Killeen Shoemaker,,,,,,Single-ply,SBD,F
Girls,56.02,NS,Stephany Garcia,Burnet,,,,,,Single-ply,SBD,F
Girls,60.1,1,Nikayla Waller,Lometa,56.97,97.52,58.97,122.47,278.96,Single-ply,SBD,F
Girls,60.1,2,Lauren Newton,Thorndale,59.42,120.2,47.63,111.13,278.96,Single-ply,SBD,F
Girls,60.1,3,Adriana Leal,Comfort,57.88,99.79,40.82,90.72,231.33,Single-ply,SBD,F
Girls,60.1,4,Isabel Vega,San Saba,57.33,86.18,36.29,95.25,217.72,Single-ply,SBD,F
Girls,60.1,5,Alyis Wright,Llano,59.6,81.65,40.82,83.91,206.38,Single-ply,SBD,F
Girls,60.1,NS,Gracie Rodriguez,Rosebud-Lott,,,,,,Single-ply,SBD,F
Girls,67.36,1,Jayci Craig,Burnet,66.04,183.7,72.57,131.54,387.82,Single-ply,SBD,F
Girls,67.36,2,Jessie Pessin,Lago Vista,65.86,156.49,70.31,149.69,376.48,Single-ply,SBD,F
Girls,67.36,3,Arika Dickinson,Burnet,65.23,149.69,63.5,124.74,337.93,Single-ply,SBD,F
Girls,67.36,4,Araseli Villanueva,Junction,65.5,140.61,58.97,129.27,328.85,Single-ply,SBD,F
Girls,67.36,5,Crystal Rios,Burnet,65.5,115.67,49.9,117.93,283.5,Single-ply,SBD,F
Girls,67.36,6,Kam Schoeffler,Lago Vista,66.41,102.06,58.97,113.4,274.42,Single-ply,SBD,F
Girls,67.36,7,Kamryn Wenzel,Llano,67.13,102.06,54.43,117.93,274.42,Single-ply,SBD,F
Girls,67.36,8,Harlee Quinterro,Burnet,62.78,108.86,47.63,102.06,258.55,Single-ply,SBD,F
Girls,67.36,9,Yasamine Ancira,Lago Vista,65.86,102.06,43.09,113.4,258.55,Single-ply,SBD,F
Girls,67.36,10,Megan Westbrook,Burnet,67.31,106.59,47.63,102.06,256.28,Single-ply,SBD,F
Girls,67.36,11,Gabby Hernandez,Llano,61.33,88.45,45.36,104.33,238.14,Single-ply,SBD,F
Girls,67.36,12,Nallely Fraire,Comfort,66.32,77.11,29.48,86.18,192.78,Single-ply,SBD,F
Girls,67.36,NS,Kiarra Telles,Junction,,,,,,Single-ply,SBD,F
Girls,75.07,1,Dasha Gildon,Lago Vista,74.57,161.03,56.7,145.15,362.87,Single-ply,SBD,F
Girls,75.07,2,Danae Ceja,Brady,69.94,133.81,61.23,111.13,306.17,Single-ply,SBD,F
Girls,75.07,3,Brina Flores,Junction,71.3,111.13,58.97,117.93,288.03,Single-ply,SBD,F
Girls,75.07,4,Mirna Vallejo,Llano,69.04,113.4,52.16,115.67,281.23,Single-ply,SBD,F
Girls,75.07,5,Alexandra Arias,Taylor,68.22,117.93,47.63,111.13,276.69,Single-ply,SBD,F
Girls,75.07,6,Daniela Torres,Burnet,70.94,104.33,45.36,95.25,244.94,Single-ply,SBD,F
Girls,75.07,7,Anais Lazos-Ramirez,Marble Falls,74.84,99.79,49.9,90.72,240.4,Single-ply,SBD,F
Girls,75.07,8,Josey Windle,Comfort,71.58,83.91,34.02,102.06,219.99,Single-ply,SBD,F
Girls,75.07,NS,Zoe Camerillo,Brady,,,,,,Single-ply,SBD,F
Girls,75.07,NS,Harley Guerra,Junction,,,,,,Single-ply,SBD,F
Girls,82.33,1,Clara Coker,Rosebud-Lott,78.83,142.88,77.11,167.83,387.82,Single-ply,SBD,F
Girls,82.33,2,Kara Spence,Llano,76.29,131.54,58.97,131.54,322.05,Single-ply,SBD,F
Girls,82.33,3,Yvette Gutierrez,Taylor,81.1,129.27,49.9,136.08,315.25,Single-ply,SBD,F
Girls,82.33,4,Erin Bandow,Taylor,77.2,129.27,70.31,113.4,312.98,Single-ply,SBD,F
Girls,82.33,5,Katlyn Psencik,Taylor,77.2,104.33,45.36,111.13,260.82,Single-ply,SBD,F
Girls,82.33,6,Mikayla Zavala,Taylor,78.83,97.52,36.29,104.33,238.14,Single-ply,SBD,F
Girls,82.33,7,Teagan Tappe,Burnet,79.74,90.72,43.09,104.33,238.14,Single-ply,SBD,F
Girls,82.33,DQ,Kaitlyn Alonso,Rosebud-Lott,79.47,111.13,,,,Single-ply,SBD,F
Girls,90.04,1,Yasemin Ozen,Lago Vista,87.18,147.42,70.31,147.42,365.14,Single-ply,SBD,F
Girls,90.04,DQ,Georgia Tucker,Brady,87,,,,,Single-ply,SBD,F
Girls,100.02,1,Maggie Ikehara,Junction,94.17,158.76,68.04,163.29,390.09,Single-ply,SBD,F
Girls,100.02,2,Sianeleez Campos,Killeen Shoemaker,97.61,142.88,58.97,127.01,328.85,Single-ply,SBD,F
Girls,100.02,3,Ariana Regeon,Brady,90.26,129.27,65.77,108.86,303.91,Single-ply,SBD,F
Girls,100.02,4,Izabella Vidales,Taylor,93.62,113.4,56.7,127.01,297.1,Single-ply,SBD,F
Girls,100.02,5,Ariana Alderete,Taylor,94.8,113.4,47.63,113.4,274.42,Single-ply,SBD,F
Girls,117.71,1,Courtney Renia,Llano,101.6,158.76,74.84,149.69,383.29,Single-ply,SBD,F
Girls,117.71,2,Alicia Arambula,Junction,106.41,154.22,68.04,149.69,371.95,Single-ply,SBD,F
Girls,117.71,3,Leah Ng,Burnet,101.06,129.27,61.23,115.67,306.17,Single-ply,SBD,F
