Division,WeightClassKg,Place,Name,Team,BodyweightKg,Best3SquatKg,Best3BenchKg,Best3DeadliftKg,TotalKg,Equipment,Event,Sex
Boys,55.79,1,Max Snodgrass,Blooming Grove,51.89,106.59,61.23,129.27,297.1,Single-ply,SBD,M
Boys,51.71,2,Dalton Crawford,Kerens,50.35,83.91,61.23,108.86,254.01,Single-ply,SBD,M
Boys,51.71,3,James Hughes,Rice,45.27,86.18,49.9,90.72,226.8,Single-ply,SBD,M
Boys,59.87,1,Nathan Stibbens,Scurry-Rosser,55.97,131.54,61.23,122.47,315.25,Single-ply,SBD,M
Boys,59.87,2,Jeremy Ballard,Corsicana Mildred,55.97,104.33,56.7,115.67,276.69,Single-ply,SBD,M
Boys,59.87,1,Shaquille Fields,Rice,56.88,127.01,74.84,129.27,331.12,Single-ply,SBD,M
Boys,59.87,2,Eric Lewis,Corsicana Mildred,59.87,131.54,63.5,136.08,331.12,Single-ply,SBD,M
Boys,67.13,3,Luis Domingues,Rice,60.06,108.86,70.31,129.27,308.44,Single-ply,SBD,M
Boys,67.13,4,Sergi Larson,Corsicana Mildred,60.06,108.86,70.31,120.2,299.37,Single-ply,SBD,M
Boys,67.13,1,Trey Jones,Malakoff,65.59,176.9,81.65,172.37,430.91,Single-ply,SBD,M
Boys,67.13,2,Erick Licel,Malakoff,63.78,145.15,88.45,124.74,358.34,Single-ply,SBD,M
Boys,67.13,3,Oscar Bonilla,Corsicana Mildred,63.78,131.54,70.31,151.95,353.8,Single-ply,SBD,M
Boys,67.13,4,Derian Hatcher,Scurry-Rosser,64.77,136.08,68.04,136.08,340.19,Single-ply,SBD,M
Boys,67.13,5,Kenneth Martin,Corsicana Mildred,66.04,108.86,83.91,140.61,333.39,Single-ply,SBD,M
Boys,74.84,1,Trey Davis,Blooming Grove,69.04,192.78,92.99,204.12,489.88,Single-ply,SBD,M
Boys,74.84,2,Josh Dickey,Scurry-Rosser,73.94,165.56,102.06,170.1,437.72,Single-ply,SBD,M
Boys,74.84,3,Sergio Vega,Kerens,69.4,167.83,90.72,167.83,426.38,Single-ply,SBD,M
Boys,74.84,4,Rylee Littrell,Scurry-Rosser,70.94,167.83,102.06,149.69,419.57,Single-ply,SBD,M
Boys,82.1,5,John Carter,Rice,75.02,156.49,95.25,167.83,419.57,Single-ply,SBD,M
Boys,74.84,6,Rob Baldree,Blooming Grove,71.49,154.22,90.72,147.42,392.36,Single-ply,SBD,M
Boys,74.84,7,Jacob Davis,Corsicana Mildred,73.21,142.88,95.25,142.88,381.02,Single-ply,SBD,M
Boys,74.84,8,Thomas Tilford,Scurry-Rosser,74.57,145.15,86.18,140.61,371.95,Single-ply,SBD,M
Boys,74.84,9,Jalcolby Cox,Scurry-Rosser,70.03,120.2,88.45,142.88,351.53,Single-ply,SBD,M
Boys,74.84,10,Joe Ritter,Corsicana Mildred,71.58,115.67,70.31,129.27,315.25,Single-ply,SBD,M
Boys,82.1,1,Dj Woods,Kerens,81.1,210.92,108.86,222.26,542.04,Single-ply,SBD,M
Boys,82.1,2,Jason Thomas,Corsicana Mildred,78.93,197.31,129.27,199.58,526.17,Single-ply,SBD,M
Boys,82.1,3,Caide Southard,Corsicana Mildred,81.65,176.9,117.93,192.78,487.61,Single-ply,SBD,M
Boys,82.1,4,Ben Torres,Rice,81.28,195.04,106.59,161.03,462.66,Single-ply,SBD,M
Boys,82.1,5,Corbin Russell,Corsicana Mildred,81.74,151.95,117.93,192.78,462.66,Single-ply,SBD,M
Boys,89.81,6,Ragen Henderson,Rice,82.28,167.83,97.52,181.44,446.79,Single-ply,SBD,M
Boys,82.1,7,Blake McClure,Kerens,75.75,181.44,99.79,151.95,433.18,Single-ply,SBD,M
Boys,82.1,8,Jose Salazar,Malakoff,79.56,172.37,90.72,167.83,430.91,Single-ply,SBD,M
Boys,82.1,9,Michael Kline,Kerens,79.11,154.22,79.38,154.22,387.82,Single-ply,SBD,M
Boys,82.1,10,Dylan Woods,Kerens,76.11,142.88,77.11,156.49,376.48,Single-ply,SBD,M
Boys,82.1,11,Clint LaCour,Scurry-Rosser,76.29,142.88,79.38,131.54,353.8,Single-ply,SBD,M
Boys,82.1,DQ,Dustin Higgs,Malakoff,79.2,156.49,,,,Single-ply,SBD,M
Boys,82.1,DQ,Matthew Bullock,Malakoff,76.02,165.56,,,,Single-ply,SBD,M
Boys,89.81,1,Jackson Blacketer,Malakoff,89.09,272.16,149.69,260.82,682.66,Single-ply,SBD,M
Boys,89.81,2,Tommy Beldin,Rice,87.36,185.97,111.13,201.85,498.95,Single-ply,SBD,M
Boys,89.81,3,Noah Pennell,Corsicana Mildred,88.99,192.78,92.99,195.04,480.81,Single-ply,SBD,M
Boys,89.81,4,Adonte Davis,Kerens,84.91,158.76,127.01,181.44,467.2,Single-ply,SBD,M
Boys,89.81,5,Brandon Morris,Scurry-Rosser,83.01,165.56,81.65,149.69,396.89,Single-ply,SBD,M
Boys,99.79,1,Josh Ferrer,Blooming Grove,98.52,215.46,136.08,204.12,555.65,Single-ply,SBD,M
Boys,99.79,2,Trey McGowan,Kerens,95.16,181.44,97.52,188.24,467.2,Single-ply,SBD,M
Boys,99.79,3,Jonathan Perez,Scurry-Rosser,98.43,192.78,95.25,165.56,453.59,Single-ply,SBD,M
Boys,99.79,4,Chris Perkins,Malakoff,97.79,185.97,104.33,147.42,437.72,Single-ply,SBD,M
Boys,99.79,DQ,Payton Weaver,Corsicana Mildred,93.98,185.97,113.4,,,Single-ply,SBD,M
Boys,109.77,1,Josh Cade,Blooming Grove,108.23,260.82,129.27,235.87,625.96,Single-ply,SBD,M
Boys,109.77,2,Taylor Barlow,Corsicana Mildred,101.6,127.01,90.72,151.95,369.68,Single-ply,SBD,M
Boys,109.77,3,Nathan Harris,Corsicana Mildred,101.33,99.79,72.57,145.15,317.51,Single-ply,SBD,M
Boys,109.77,DQ,Casey Webb,Malakoff,109.41,217.72,,,,Single-ply,SBD,M
Boys,124.74,1,Cody Barnes,Malakoff,122.2,235.87,117.93,204.12,557.92,Single-ply,SBD,M
Boys,124.74,2,Beau Jenkins,Corsicana Mildred,114.12,195.04,131.54,206.38,532.97,Single-ply,SBD,M
Boys,124.74,3,Tyler Heard,Scurry-Rosser,120.66,204.12,117.93,163.29,485.34,Single-ply,SBD,M
Boys,124.74,4,Zack Green,Malakoff,113.67,185.97,95.25,195.04,476.27,Single-ply,SBD,M
Boys,124.74,5,Chris Hobbs,Kerens,111.4,190.51,106.59,172.37,469.47,Single-ply,SBD,M
Boys,124.74+,1,Nick Barlow,Corsicana Mildred,143.97,136.08,88.45,158.76,383.29,Single-ply,SBD,M
