Division,WeightClassKg,Place,Name,Team,BodyweightKg,Best3SquatKg,Best3BenchKg,Best3DeadliftKg,TotalKg,Equipment,Event,Sex
Boys,51.71,1,Joel Santillan,Clifton,50.62,124.74,77.11,151.95,353.8,Single-ply,SBD,M
Boys,51.71,2,Barrett Hubbard,Moody,51.35,102.06,68.04,120.2,290.3,Single-ply,SBD,M
Boys,51.71,3,Weston Schasteen,Clifton,50.71,104.33,63.5,120.2,288.03,Single-ply,SBD,M
Boys,51.71,4,Mason Johnson,Gatesville,50.71,92.99,61.23,117.93,272.16,Single-ply,SBD,M
Boys,51.71,5,Brazos Gibson,Axtell,51.26,102.06,49.9,111.13,263.08,Single-ply,SBD,M
Boys,55.79,1,Diego Rivera,Mexia,54.52,183.7,106.59,188.24,478.54,Single-ply,SBD,M
Boys,55.79,2,Gilberto Olguin,Waco Connally,51.89,113.4,70.31,127.01,310.71,Single-ply,SBD,M
Boys,55.79,3,Lane Francis,Bosqueville,54.98,117.93,63.5,122.47,303.91,Single-ply,SBD,M
Boys,55.79,4,Caden Crenshaw,Lorena,54.52,99.79,56.7,108.86,265.35,Single-ply,SBD,M
Boys,55.79,DQ,Stetson Thompson,Riesel,54.52,,,,,Single-ply,SBD,M
Boys,55.79,DQ,Joseph Saldivar,Groesbeck,54.7,97.52,,,,Single-ply,SBD,M
Boys,59.87,1,Fausto Rodriguez,West,59.06,176.9,102.06,183.7,462.66,Single-ply,SBD,M
Boys,59.87,2,Isaack Santillan,Clifton,58.42,167.83,106.59,170.1,444.52,Single-ply,SBD,M
Boys,59.87,3,Philip Sharp,Robinson,55.88,149.69,90.72,181.44,421.84,Single-ply,SBD,M
Boys,59.87,4,Zaahid Abdullah,Waxahachie Life,59.78,145.15,90.72,165.56,401.43,Single-ply,SBD,M
Boys,59.87,5,Fernando Padilla,Mexia,59.87,122.47,86.18,151.95,360.61,Single-ply,SBD,M
Boys,59.87,6,Ethan Rodriguez,Lorena,59.6,131.54,65.77,156.49,353.8,Single-ply,SBD,M
Boys,59.87,7,Robby Brewer,Clifton,57.79,156.49,79.38,108.86,344.73,Single-ply,SBD,M
Boys,59.87,8,Scott Fox,Robinson,59.78,111.13,72.57,131.54,315.25,Single-ply,SBD,M
Boys,67.13,1,Dillon Daniel,Crawford,67.13,222.26,113.4,188.24,523.9,Single-ply,SBD,M
Boys,67.13,2,Jalil Mahummad,Groesbeck,62.87,181.44,113.4,174.63,469.47,Single-ply,SBD,M
Boys,67.13,3,Alex Reynoso,West,66.41,172.37,102.06,188.24,462.66,Single-ply,SBD,M
Boys,67.13,4,Greg Norman,Grandview,64.95,165.56,88.45,170.1,424.11,Single-ply,SBD,M
Boys,67.13,5,Holden Rogers,Clifton,61.6,142.88,83.91,161.03,387.82,Single-ply,SBD,M
Boys,67.13,6,Lucas Zepeda,Waxahachie Life,65.59,149.69,72.57,156.49,378.75,Single-ply,SBD,M
Boys,67.13,7,Isaac Garcia,Riesel,63.59,117.93,77.11,136.08,331.12,Single-ply,SBD,M
Boys,67.13,8,David Lopez,West,66.41,120.2,70.31,120.2,310.71,Single-ply,SBD,M
Boys,74.84,1,Nathan Gerik,West,73.48,210.92,124.74,206.38,542.04,Single-ply,SBD,M
Boys,74.84,2,Austin Sauceda,Axtell,71.94,197.31,115.67,199.58,512.56,Single-ply,SBD,M
Boys,74.84,3,Dalton Baker,West,74.57,195.04,111.13,197.31,503.49,Single-ply,SBD,M
Boys,74.84,4,Sam Shorts,Whitney,70.58,204.12,95.25,188.24,487.61,Single-ply,SBD,M
Boys,74.84,5,Zac Johle,Thrall,74.03,176.9,120.2,181.44,478.54,Single-ply,SBD,M
Boys,74.84,6,Mariano Perez,West,74.21,185.97,106.59,181.44,474,Single-ply,SBD,M
Boys,74.84,7,Garrett Randolph,Troy,73.39,185.97,111.13,172.37,469.47,Single-ply,SBD,M
Boys,74.84,8,Gus Mulsow,Riesel,72.67,172.37,124.74,163.29,460.4,Single-ply,SBD,M
Boys,74.84,9,Jordan Morgan,Waco La Vega,74.66,183.7,97.52,176.9,458.13,Single-ply,SBD,M
Boys,74.84,10,Patrick Saucedo,Bosqueville,69.04,172.37,92.99,170.1,435.45,Single-ply,SBD,M
Boys,74.84,11,Aaron Osborne,McGregor,70.49,158.76,92.99,181.44,433.18,Single-ply,SBD,M
Boys,74.84,12,Dalton Boeche,Riesel,74.75,151.95,83.91,176.9,412.77,Single-ply,SBD,M
Boys,74.84,13,Logan Sauer,Robinson,72.3,147.42,90.72,154.22,392.36,Single-ply,SBD,M
Boys,74.84,14,Ian Smith,Bosqueville,71.76,149.69,88.45,151.95,390.09,Single-ply,SBD,M
Boys,74.84,15,Tristan Hewitt,Robinson,71.94,142.88,95.25,149.69,387.82,Single-ply,SBD,M
Boys,74.84,16,Corey Horn,Mexia,69.31,140.61,92.99,136.08,369.68,Single-ply,SBD,M
Boys,74.84,17,Brandon Williams,Waco Connally,67.22,136.08,83.91,142.88,362.87,Single-ply,SBD,M
Boys,74.84,DQ,John Griffin,Riesel,69.22,,,,,Single-ply,SBD,M
Boys,82.1,1,Michael Rodriguez,Axtell,80.65,265.35,127.01,272.16,664.51,Single-ply,SBD,M
Boys,82.1,2,Jamal Williams,Waco La Vega,80.47,206.38,115.67,210.92,532.97,Single-ply,SBD,M
Boys,82.1,3,Ben Roberson,Robinson,80.65,206.38,115.67,197.31,519.36,Single-ply,SBD,M
Boys,82.1,4,Ryan Hilty,Whitney,81.74,183.7,106.59,204.12,494.42,Single-ply,SBD,M
Boys,82.1,5,Justin Bahajek,Riesel,81.65,183.7,108.86,192.78,485.34,Single-ply,SBD,M
Boys,82.1,6,Ryan Lloyd,Clifton,80.83,188.24,136.08,158.76,483.08,Single-ply,SBD,M
Boys,82.1,7,Carson Ford,Lorena,77.11,181.44,95.25,195.04,471.74,Single-ply,SBD,M
Boys,82.1,8,Ruben Jimenez,Groesbeck,76.11,185.97,115.67,158.76,460.4,Single-ply,SBD,M
Boys,82.1,9,Marcus DeLeon,Waco Connally,78.11,190.51,108.86,154.22,453.59,Single-ply,SBD,M
Boys,82.1,10,Clayton Wilson,West,80.01,183.7,95.25,174.63,453.59,Single-ply,SBD,M
Boys,82.1,11,Noah Jenkins,McGregor,80.92,163.29,90.72,188.24,442.25,Single-ply,SBD,M
Boys,82.1,12,Shane Carroll,Waxahachie Life,80.38,151.95,102.06,183.7,437.72,Single-ply,SBD,M
Boys,82.1,13,Brendan Roark,Groesbeck,80.56,149.69,102.06,174.63,426.38,Single-ply,SBD,M
Boys,82.1,14,Cordell Grant,Crawford,78.83,167.83,92.99,163.29,424.11,Single-ply,SBD,M
Boys,82.1,15,Clayton Pitts,Troy,76.48,136.08,102.06,165.56,403.7,Single-ply,SBD,M
Boys,82.1,16,Bradey Duncan,Groesbeck,82.01,151.95,83.91,149.69,385.55,Single-ply,SBD,M
Boys,82.1,17,Matthew Bodner,Moody,78.11,142.88,102.06,136.08,381.02,Single-ply,SBD,M
Boys,82.1,18,Griffen Fallwell,Whitney,75.21,115.67,63.5,120.2,299.37,Single-ply,SBD,M
Boys,89.81,1,Drew Roberts,Bosqueville,88.54,249.48,172.37,213.19,635.03,Single-ply,SBD,M
Boys,89.81,2,Myles McGruder,Groesbeck,84.37,226.8,136.08,249.48,612.35,Single-ply,SBD,M
Boys,89.81,3,Eric Rosson,Grandview,89.81,249.48,124.74,222.26,596.47,Single-ply,SBD,M
Boys,89.81,4,Aaron Harralson,West,87.82,210.92,142.88,197.31,551.11,Single-ply,SBD,M
Boys,89.81,5,Greg Williams,McGregor,89.27,213.19,120.2,215.46,548.85,Single-ply,SBD,M
Boys,89.81,6,Koby Smith,Crawford,88.99,204.12,131.54,204.12,539.77,Single-ply,SBD,M
Boys,89.81,7,Hunter Isham,Lorena,87.27,190.51,117.93,219.99,528.44,Single-ply,SBD,M
Boys,89.81,8,Weston Brown,Gatesville,87.63,185.97,138.35,201.85,526.17,Single-ply,SBD,M
Boys,89.81,9,David Ramirez,Waxahachie Life,86.73,192.78,131.54,199.58,523.9,Single-ply,SBD,M
Boys,89.81,10,Lance Bracco,Crawford,88.9,183.7,120.2,195.04,498.95,Single-ply,SBD,M
Boys,89.81,11,Bodee Humphreys,Clifton,84.91,183.7,117.93,188.24,489.88,Single-ply,SBD,M
Boys,89.81,12,Dustry Roberts,Groesbeck,83.1,195.04,99.79,192.78,487.61,Single-ply,SBD,M
Boys,89.81,13,Tanner Mitchell,Crawford,88.09,188.24,99.79,192.78,480.81,Single-ply,SBD,M
Boys,89.81,14,Gustavo Aguilar,Moody,88.09,172.37,113.4,181.44,467.2,Single-ply,SBD,M
Boys,89.81,15,Landry Bruce,Crawford,85.73,192.78,83.91,158.76,435.45,Single-ply,SBD,M
Boys,89.81,16,Brayan Luna,Mexia,87.45,163.29,86.18,167.83,417.3,Single-ply,SBD,M
Boys,89.81,17,Dalton Konarsky,Thrall,88.81,145.15,95.25,163.29,403.7,Single-ply,SBD,M
Boys,89.81,18,Marcus Stautz,Thrall,85.55,140.61,83.91,149.69,374.21,Single-ply,SBD,M
Boys,89.81,19,Jarrod Maler,West,86.36,145.15,72.57,127.01,344.73,Single-ply,SBD,M
Boys,89.81,DQ,Nick Barrios,West,89.63,190.51,,,,Single-ply,SBD,M
Boys,89.81,DQ,Damian Rodriguez,Grandview,86.82,208.65,122.47,,,Single-ply,SBD,M
Boys,99.79,1,Mike Castillo,McGregor,95.25,254.01,165.56,254.01,673.58,Single-ply,SBD,M
Boys,99.79,2,Aaron Benitez,McGregor,92.62,254.01,145.15,213.19,612.35,Single-ply,SBD,M
Boys,99.79,3,Alex Parsons,McGregor,97.52,235.87,138.35,231.33,605.55,Single-ply,SBD,M
Boys,99.79,4,Logan Blake,Waxahachie Life,97.61,235.87,156.49,199.58,591.94,Single-ply,SBD,M
Boys,99.79,5,Hunter Ringo,Clifton,92.9,199.58,136.08,231.33,566.99,Single-ply,SBD,M
Boys,99.79,6,Brady King,Robinson,98.79,213.19,127.01,195.04,535.24,Single-ply,SBD,M
Boys,99.79,7,Mason Howell,Bosqueville,96.25,208.65,122.47,176.9,508.02,Single-ply,SBD,M
Boys,99.79,8,Logan Davison,Lorena,98.25,183.7,113.4,210.92,508.02,Single-ply,SBD,M
Boys,99.79,9,Michael Griego,Gatesville,93.71,181.44,113.4,204.12,498.95,Single-ply,SBD,M
Boys,99.79,10,Tyler Sparks,Lorena,98.79,181.44,102.06,210.92,494.42,Single-ply,SBD,M
Boys,99.79,11,Sterling Harris,Lorena,97.79,188.24,106.59,190.51,485.34,Single-ply,SBD,M
Boys,99.79,12,Zaen Davis,Lorena,97.61,188.24,106.59,167.83,462.66,Single-ply,SBD,M
Boys,99.79,13,Connor Laughren,Gatesville,94.08,183.7,92.99,181.44,458.13,Single-ply,SBD,M
Boys,99.79,14,Brian Williams,Waco Connally,95.53,167.83,99.79,149.69,417.3,Single-ply,SBD,M
Boys,99.79,15,Colton Mccoloskey,Mexia,98.34,154.22,104.33,136.08,394.63,Single-ply,SBD,M
Boys,99.79,16,Gregory Strange,Waxahachie Life,92.44,149.69,81.65,156.49,387.82,Single-ply,SBD,M
Boys,99.79,17,Hunter Heath,Bosqueville,93.08,131.54,79.38,149.69,360.61,Single-ply,SBD,M
Boys,99.79,DQ,Daniel Fraire,West,97.52,244.94,163.29,,,Single-ply,SBD,M
Boys,109.77,1,Erick Marton,Axtell,105.96,276.69,151.95,267.62,696.26,Single-ply,SBD,M
Boys,109.77,2,Steven Frausto,Waco Connally,108.05,260.82,131.54,224.53,616.89,Single-ply,SBD,M
Boys,109.77,3,Mike Cervantes,Lorena,109.13,222.26,122.47,238.14,582.87,Single-ply,SBD,M
Boys,109.77,4,Will Worrell,Crawford,105.23,242.67,117.93,210.92,571.53,Single-ply,SBD,M
Boys,109.77,5,Casey Allison,Waco La Vega,109.5,217.72,145.15,199.58,562.45,Single-ply,SBD,M
Boys,109.77,6,Cooper McCauley,McGregor,103.42,208.65,124.74,210.92,544.31,Single-ply,SBD,M
Boys,109.77,7,Jordan Rios,Mexia,107.68,231.33,127.01,179.17,537.51,Single-ply,SBD,M
Boys,109.77,8,Daniel Wilde-Berry,Robinson,109.77,215.46,115.67,199.58,530.7,Single-ply,SBD,M
Boys,109.77,9,Ryan Hardin,Groesbeck,108.59,185.97,122.47,190.51,498.95,Single-ply,SBD,M
Boys,109.77,10,Jacob Snoddy,Gatesville,105.6,176.9,124.74,181.44,483.08,Single-ply,SBD,M
Boys,109.77,11,Colton Schmedthorst,Riesel,101.51,172.37,106.59,181.44,460.4,Single-ply,SBD,M
Boys,109.77,12,Jonathan Richards,Robinson,108.23,127.01,79.38,117.93,324.32,Single-ply,SBD,M
Boys,109.77,DQ,James Baggett,Waco La Vega,103.78,,,,,Single-ply,SBD,M
Boys,109.77,DQ,Jorge Saldana,Grandview,102.15,217.72,,,,Single-ply,SBD,M
Boys,109.77,DQ,Reuel Barrett,Waxahachie Life,109.77,,,,,Single-ply,SBD,M
Boys,109.77,DQ,Andy Mraz,Waxahachie Life,106.14,188.24,147.42,,,Single-ply,SBD,M
Boys,109.77,DQ,Michael Simmons,Waco La Vega,107.77,185.97,104.33,,,Single-ply,SBD,M
Boys,109.77,DQ,Freddie Williams,Waco La Vega,105.69,204.12,,,,Single-ply,SBD,M
Boys,124.74,1,Bailey Adair,Gatesville,124.38,288.03,190.51,199.58,678.12,Single-ply,SBD,M
Boys,124.74,2,Seth Kohlscheen,Crawford,123.38,272.16,142.88,233.6,648.64,Single-ply,SBD,M
Boys,124.74,3,Jeran Gallimore,Robinson,119.84,247.21,147.42,210.92,605.55,Single-ply,SBD,M
Boys,124.74,4,Jim Hitchcock,Gatesville,116.21,242.67,131.54,222.26,596.47,Single-ply,SBD,M
Boys,124.74,5,Andrew Toledo,Robinson,123.47,219.99,133.81,219.99,573.79,Single-ply,SBD,M
Boys,124.74,6,Joe Fallwell,Whitney,111.22,192.78,136.08,226.8,555.65,Single-ply,SBD,M
Boys,124.74,7,Dawson Brown,McGregor,112.58,222.26,127.01,181.44,530.7,Single-ply,SBD,M
Boys,124.74,8,Clayton Herridge,Groesbeck,111.22,190.51,140.61,170.1,501.22,Single-ply,SBD,M
Boys,124.74,9,Dustin Stewart,Crawford,111.31,192.78,108.86,179.17,480.81,Single-ply,SBD,M
Boys,124.74,10,Sam Duron,Waxahachie Life,115.58,181.44,95.25,188.24,464.93,Single-ply,SBD,M
Boys,124.74,11,Wyatt Tackett,Gatesville,122.92,181.44,99.79,181.44,462.66,Single-ply,SBD,M
Boys,124.74,12,Garrett Garvelli,Bosqueville,115.12,174.63,102.06,154.22,430.91,Single-ply,SBD,M
Boys,124.74,DQ,Hayden Keeney,Grandview,111.49,183.7,,,,Single-ply,SBD,M
Boys,124.74,DQ,Shelby Wilder,Waxahachie Life,113.76,226.8,113.4,,,Single-ply,SBD,M
Boys,124.74,DQ,Gabriel Gongora,Waco La Vega,110.77,195.04,111.13,,,Single-ply,SBD,M
Boys,124.74+,1,Connor Barnett,Robinson,153.59,299.37,192.78,247.21,739.36,Single-ply,SBD,M
Boys,124.74+,2,Robert Gober,Waco Connally,131.81,290.3,151.95,238.14,680.39,Single-ply,SBD,M
Boys,124.74+,3,Jairo Rodriguez,Waco La Vega,128.46,260.82,158.76,238.14,657.71,Single-ply,SBD,M
Boys,124.74+,4,Trederek Anglin,Mexia,139.71,238.14,174.63,244.94,657.71,Single-ply,SBD,M
Boys,124.74+,5,Jaylen Tobler,Waco Connally,176.45,278.96,136.08,188.24,603.28,Single-ply,SBD,M
Boys,124.74+,6,Travarius Glasker,Waco La Vega,181.07,231.33,122.47,226.8,580.6,Single-ply,SBD,M
Boys,124.74+,7,Juan Rodriguez,Clifton,149.87,226.8,138.35,201.85,566.99,Single-ply,SBD,M
Boys,124.74+,8,Colton Deal,Waxahachie Life,146.24,215.46,111.13,226.8,553.38,Single-ply,SBD,M
Boys,124.74+,9,Jordan White,McGregor,144.7,226.8,127.01,188.24,542.04,Single-ply,SBD,M
Boys,124.74+,10,Hunter Straten,Moody,125.65,185.97,127.01,195.04,508.02,Single-ply,SBD,M
Boys,124.74+,11,Brian Diaz,McGregor,125.65,195.04,102.06,195.04,492.15,Single-ply,SBD,M
Boys,124.74+,12,Clancey Lawhorn,Gatesville,137.53,215.46,81.65,188.24,485.34,Single-ply,SBD,M
Boys,124.74+,13,Dalton Zander,Bosqueville,126.46,188.24,117.93,170.1,476.27,Single-ply,SBD,M
Boys,124.74+,14,Trace Snyder,Robinson,129.36,158.76,90.72,170.1,419.57,Single-ply,SBD,M
Boys,,NS,Daylon Bartosh,Lorena,,,,,,Single-ply,SBD,M
