Division,WeightClassKg,Place,Name,Team,BodyweightKg,Best3SquatKg,Best3BenchKg,Best3DeadliftKg,TotalKg,Equipment,Event,Sex
Boys,51.71,DQ,Stephen Mathison,Whitney,48.17,95.25,,92.99,,Single-ply,SBD,M
Boys,55.79,1,Gabe Boyett,Moran,55.43,136.08,81.65,140.61,358.34,Single-ply,SBD,M
Boys,55.79,2,Alex Schaefer,Venus,53.61,133.81,58.97,142.88,335.66,Single-ply,SBD,M
Boys,55.79,3,Daniel Pina,Comanche,53.16,129.27,70.31,133.81,333.39,Single-ply,SBD,M
Boys,55.79,4,Lorenzo Bustamante,Cross Plains,54.61,111.13,54.43,124.74,290.3,Single-ply,SBD,M
Boys,55.79,DQ,Tanner Resecker,Glen Rose,54.79,117.93,79.38,,,Single-ply,SBD,M
Boys,55.79,DQ,Eduardo Perez,Venus,55.43,,,124.74,,Single-ply,SBD,M
Boys,55.79,DQ,Cameron Buck,Venus,55.43,90.72,,95.25,,Single-ply,SBD,M
Boys,59.87,1,Davin Carboni,Hillsboro,58.79,151.95,92.99,154.22,399.16,Single-ply,SBD,M
Boys,59.87,3,Rodrigo Hernandez,Hillsboro,59.87,131.54,86.18,158.76,376.48,Single-ply,SBD,M
Boys,59.87,4,Stanley Stevens,Ranger,58.6,151.95,79.38,142.88,374.21,Single-ply,SBD,M
Boys,59.87,5,Osvaldo Antunez,Hillsboro,58.88,136.08,88.45,142.88,367.41,Single-ply,SBD,M
Boys,59.87,6,Cesar Galvan,Dublin,56.97,133.81,79.38,136.08,349.27,Single-ply,SBD,M
Boys,59.87,7,Drake Martinez,Junction,56.7,133.81,81.65,127.01,342.46,Single-ply,SBD,M
Boys,59.87,8,Juan Rodriguez,Dublin,58.97,92.99,70.31,133.81,297.1,Single-ply,SBD,M
Boys,59.87,9,Esteban Rodriguez,Dublin,59.78,106.59,65.77,102.06,274.42,Single-ply,SBD,M
Boys,67.13,1,Cesar Herrera,Glen Rose,63.96,204.12,115.67,206.38,526.17,Single-ply,SBD,M
Boys,67.13,2,Parker Plumley,Junction,64.5,154.22,97.52,163.29,415.04,Single-ply,SBD,M
Boys,67.13,3,Oscar Manuel,Hillsboro,66.77,149.69,97.52,165.56,412.77,Single-ply,SBD,M
Boys,67.13,4,James Henderson #3,Tolar,66.5,158.76,74.84,154.22,387.82,Single-ply,SBD,M
Boys,67.13,5,Samuel Shorts,Whitney,65.68,151.95,88.45,142.88,383.29,Single-ply,SBD,M
Boys,67.13,6,Daniel Rosales,San Saba,62.69,124.74,86.18,165.56,376.48,Single-ply,SBD,M
Boys,67.13,7,Max Lauderdale,Glen Rose,63.41,129.27,81.65,142.88,353.8,Single-ply,SBD,M
Boys,67.13,8,Randell Laird,Moran,61.51,136.08,58.97,149.69,344.73,Single-ply,SBD,M
Boys,67.13,9,Blake Pettit,Hamilton,62.41,115.67,70.31,129.27,315.25,Single-ply,SBD,M
Boys,67.13,10,Tyler Miller,Moran,63.05,99.79,74.84,120.2,294.84,Single-ply,SBD,M
Boys,67.13,11,Marc Anthony Lopez,Gustine,65.95,90.72,74.84,117.93,283.5,Single-ply,SBD,M
Boys,67.13,DQ,Price Odom,Cross Plains,60.87,,,,,Single-ply,SBD,M
Boys,67.13,DQ,Blake Boyd,Alvarado,63.05,136.08,,124.74,,Single-ply,SBD,M
Boys,67.13,DQ,Israel Castillo,Venus,61.6,158.76,,156.49,,Single-ply,SBD,M
Boys,67.13,DQ,Jose Maldonado,Venus,65.68,117.93,,136.08,,Single-ply,SBD,M
Boys,74.84,1,Jacob Riley,Dublin,73.66,181.44,92.99,226.8,501.22,Single-ply,SBD,M
Boys,74.84,2,Emanuel Silva,Venus,74.57,174.63,90.72,174.63,439.98,Single-ply,SBD,M
Boys,74.84,2,Gabriel Molina,Junction,69.31,142.88,102.06,151.95,396.89,Single-ply,SBD,M
Boys,74.84,3,Hayden Turner,Early,70.76,158.76,97.52,174.63,430.91,Single-ply,SBD,M
Boys,74.84,4,Martin Najera,Hamilton,74.39,158.76,92.99,158.76,410.5,Single-ply,SBD,M
Boys,74.84,5,Danny Perez,Junction,67.95,149.69,92.99,158.76,401.43,Single-ply,SBD,M
Boys,74.84,6,Derek Patterson,Dublin,70.4,154.22,92.99,151.95,399.16,Single-ply,SBD,M
Boys,74.84,7,Joe Gilligan,Comanche,70.85,158.76,77.11,158.76,394.63,Single-ply,SBD,M
Boys,74.84,8,Armando Castaneda,Hillsboro,69.94,136.08,92.99,158.76,387.82,Single-ply,SBD,M
Boys,74.84,9,Jim Fowler,Early,74.12,154.22,83.91,145.15,383.29,Single-ply,SBD,M
Boys,74.84,10,Weston Hill,Junction,71.3,147.42,83.91,149.69,381.02,Single-ply,SBD,M
Boys,74.84,11,River Stone,Venus,69.31,147.42,70.31,161.03,378.75,Single-ply,SBD,M
Boys,74.84,12,Jacob Winters,Lingleville,72.67,154.22,79.38,145.15,378.75,Single-ply,SBD,M
Boys,74.84,13,Austin Rosales,Coleman,71.3,129.27,86.18,158.76,374.21,Single-ply,SBD,M
Boys,74.84,14,Colby Trinkle,Tolar,73.48,145.15,83.91,140.61,369.68,Single-ply,SBD,M
Boys,74.84,15,Mason Flippin,Early,68.95,140.61,83.91,142.88,367.41,Single-ply,SBD,M
Boys,74.84,16,Chase Keilers,Early,68.22,136.08,65.77,145.15,347,Single-ply,SBD,M
Boys,74.84,17,Jayton Richardson,Ranger,72.39,120.2,63.5,142.88,326.59,Single-ply,SBD,M
Boys,74.84,18,Avery Williams,Ranger,74.66,115.67,68.04,142.88,326.59,Single-ply,SBD,M
Boys,74.84,DQ,Brian Morales,Cross Plains,68.76,,,129.27,,Single-ply,SBD,M
Boys,74.84,DQ,AJ Escamilla,Gustine,68.67,147.42,,151.95,,Single-ply,SBD,M
Boys,74.84,DQ,James Young,Hamilton,74.39,113.4,,104.33,,Single-ply,SBD,M
Boys,82.1,1,Nacho Rios,Comanche,79.38,185.97,133.81,188.24,508.02,Single-ply,SBD,M
Boys,82.1,2,Tate Swearingen,Glen Rose,76.57,142.88,97.52,158.76,399.16,Single-ply,SBD,M
Boys,82.1,3,Cristian Vazquez,Dublin,79.56,142.88,79.38,138.35,360.61,Single-ply,SBD,M
Boys,82.1,4,Nate Hoodie,Ranger,81.65,106.59,97.52,124.74,328.85,Single-ply,SBD,M
Boys,82.1,5,Gavin Farrar,Comanche,79.11,115.67,79.38,122.47,317.51,Single-ply,SBD,M
Boys,82.1,6,Jacon McNab,Tolar,81.47,106.59,72.57,117.93,297.1,Single-ply,SBD,M
Boys,82.1,DQ,Tate Tabor,Moran,77.38,158.76,,,,Single-ply,SBD,M
Boys,82.1,DQ,Andrew Garcia,Comanche,81.19,133.81,,147.42,,Single-ply,SBD,M
Boys,82.1,DQ,Matthew Hamilton,Comanche,81.74,142.88,,161.03,,Single-ply,SBD,M
Boys,82.1,DQ,Chase Clawson,Early,77.02,142.88,,158.76,,Single-ply,SBD,M
Boys,82.1,DQ,Grant Mitchell,Early,76.02,170.1,,170.1,,Single-ply,SBD,M
Boys,89.81,1,Payton Nance,Comanche,86.18,219.99,111.13,226.8,557.92,Single-ply,SBD,M
Boys,89.81,2,Zachary Gartman,Cross Plains,87.91,183.7,102.06,192.78,478.54,Single-ply,SBD,M
Boys,89.81,3,Emiliano Jimenez,Comanche,85.37,179.17,115.67,174.63,469.47,Single-ply,SBD,M
Boys,89.81,4,Timothy Thomas,Whitney,87.91,183.7,102.06,183.7,469.47,Single-ply,SBD,M
Boys,89.81,5,Jose Alcantar,Venus,88.72,195.04,95.25,174.63,464.93,Single-ply,SBD,M
Boys,89.81,6,Nain Martinez,Cross Plains,89.45,174.63,102.06,158.76,435.45,Single-ply,SBD,M
Boys,89.81,7,Ryan Hilty,Whitney,89.27,161.03,95.25,163.29,419.57,Single-ply,SBD,M
Boys,89.81,8,Antonio Sotero,Hillsboro,83.46,145.15,79.38,138.35,362.87,Single-ply,SBD,M
Boys,89.81,9,Trevor Sellers,Hamilton,87.72,117.93,86.18,142.88,347,Single-ply,SBD,M
Boys,89.81,10,Samuel Guerro,Cross Plains,83.1,124.74,74.84,136.08,335.66,Single-ply,SBD,M
Boys,89.81,11,Wyatt Catoe,Hamilton,87.54,113.4,83.91,113.4,310.71,Single-ply,SBD,M
Boys,89.81,12,John Sistrunk,Tolar,88.45,113.4,81.65,106.59,301.64,Single-ply,SBD,M
Boys,89.81,13,Danny Rowe,Alvarado,83.55,99.79,90.72,92.99,283.5,Single-ply,SBD,M
Boys,89.81,DQ,Dalton Gilliam,Cross Plains,85.55,,,,,Single-ply,SBD,M
Boys,89.81,DQ,Astin Carr,Hamilton,89.36,147.42,,,,Single-ply,SBD,M
Boys,89.81,DQ,Aaron Willis,Cross Plains,89.09,199.58,,192.78,,Single-ply,SBD,M
Boys,89.81,DQ,Matt Freeman,Venus,88.27,,97.52,190.51,,Single-ply,SBD,M
Boys,89.81,DQ,Cade Lewis,Venus,89.63,199.58,,,,Single-ply,SBD,M
Boys,89.81,DQ,Trey Lewis,Venus,88.72,161.03,,172.37,,Single-ply,SBD,M
Boys,89.81,DQ,Ben Steele,Moran,87.91,147.42,,,,Single-ply,SBD,M
Boys,99.79,1,Braxton Barrios,Glen Rose,97.52,238.14,147.42,222.26,607.81,Single-ply,SBD,M
Boys,99.79,2,Lupe Silva,Venus,95.98,213.19,136.08,222.26,571.53,Single-ply,SBD,M
Boys,99.79,3,Cody Wilson,Hamilton,93.26,183.7,102.06,226.8,512.56,Single-ply,SBD,M
Boys,99.79,4,Monty Lancaster,Moran,91.08,154.22,97.52,185.97,437.72,Single-ply,SBD,M
Boys,99.79,5,Mark Miller,Tolar,98.25,167.83,90.72,156.49,415.04,Single-ply,SBD,M
Boys,99.79,6,Nick Lara,Glen Rose,98.25,147.42,102.06,142.88,392.36,Single-ply,SBD,M
Boys,99.79,7,Jacob Collier,Cross Plains,92.62,154.22,90.72,136.08,381.02,Single-ply,SBD,M
Boys,99.79,8,Rainey Guthrie,Whitney,95.71,136.08,74.84,151.95,362.87,Single-ply,SBD,M
Boys,99.79,9,Brady Herbst,Junction,95.44,142.88,90.72,124.74,358.34,Single-ply,SBD,M
Boys,99.79,10,Alex Low,Coleman,90.9,102.06,61.23,115.67,278.96,Single-ply,SBD,M
Boys,99.79,DQ,Raymond Delgado,Sweetwater,99.34,188.24,124.74,,,Single-ply,SBD,M
Boys,99.79,DQ,Justin Wardlow,Whitney,89.99,142.88,,156.49,,Single-ply,SBD,M
Boys,109.77,1,Austin Gonzales,Alvarado,104.33,215.46,136.08,190.51,542.04,Single-ply,SBD,M
Boys,109.77,2,Carlos Gallegos,Sweetwater,109.13,195.04,113.4,204.12,512.56,Single-ply,SBD,M
Boys,109.77,3,Weston Conine,Comanche,104.96,176.9,124.74,181.44,483.08,Single-ply,SBD,M
Boys,109.77,4,Dylan Jimenez,Sweetwater,106.68,188.24,104.33,174.63,467.2,Single-ply,SBD,M
Boys,109.77,5,Jonah Wilson,Glen Rose,104.69,151.95,117.93,158.76,428.64,Single-ply,SBD,M
Boys,109.77,6,Will Bridgwater,Hamilton,108.77,174.63,88.45,158.76,421.84,Single-ply,SBD,M
Boys,109.77,7,Chaas Firth,Whitney,101.88,158.76,88.45,170.1,417.3,Single-ply,SBD,M
Boys,109.77,8,Ross Bates,Hamilton,101.33,149.69,92.99,158.76,401.43,Single-ply,SBD,M
Boys,109.77,9,Sawyer Barron,Ranger,103.87,124.74,90.72,136.08,351.53,Single-ply,SBD,M
Boys,109.77,DQ,Donovan Moore,Gustine,100.97,,,136.08,,Single-ply,SBD,M
Boys,109.77,DQ,Ishmael Ramirez,Hillsboro,102.51,,113.4,217.72,,Single-ply,SBD,M
Boys,124.74,1,Pedro Bernal,Comanche,123.01,260.82,158.76,238.14,657.71,Single-ply,SBD,M
Boys,124.74,2,Ethan Price,Dublin,110.68,226.8,158.76,204.12,589.67,Single-ply,SBD,M
Boys,124.74,3,Matt Willis,Glen Rose,113.13,226.8,127.01,235.87,589.67,Single-ply,SBD,M
Boys,124.74,4,Isaias Hernandez,Hillsboro,119.48,217.72,136.08,210.92,564.72,Single-ply,SBD,M
Boys,124.74,5,Leo Garcia,Gustine,112.04,185.97,88.45,158.76,433.18,Single-ply,SBD,M
Boys,124.74,6,Jacob Silcox,Tolar,117.93,167.83,104.33,156.49,428.64,Single-ply,SBD,M
Boys,124.74,7,Hayes Burney,Glen Rose,112.94,147.42,108.86,163.29,419.57,Single-ply,SBD,M
Boys,124.74,8,Dax Simon,Junction,111.04,156.49,108.86,142.88,408.23,Single-ply,SBD,M
Boys,124.74,9,Jesse Almeida,Hamilton,117.48,102.06,61.23,142.88,306.17,Single-ply,SBD,M
Boys,124.74,DQ,Bryen Healey,Dublin,118.21,147.42,86.18,,,Single-ply,SBD,M
Boys,124.74,DQ,Silas McClatchey,Alvarado,116.03,244.94,,,,Single-ply,SBD,M
Boys,124.74,DQ,Joe Fallwell,Whitney,121.38,165.56,,183.7,,Single-ply,SBD,M
Boys,124.74+,1,David Garcia,Venus,135.71,229.06,174.63,201.85,605.55,Single-ply,SBD,M
Boys,124.74+,2,Diesel Ceresini,Early,127.19,195.04,106.59,190.51,492.15,Single-ply,SBD,M
Boys,124.74+,3,Connor Murphy,Early,144.42,176.9,113.4,181.44,471.74,Single-ply,SBD,M
Boys,124.74+,4,Jeremiah Berrera,Sweetwater,125.19,181.44,90.72,192.78,464.93,Single-ply,SBD,M
Boys,124.74+,5,Ryan Belew,Dublin,128,158.76,88.45,158.76,405.97,Single-ply,SBD,M
Boys,124.74+,DQ,Martin Wright,Junction,135.26,181.44,102.06,,,Single-ply,SBD,M
