Division,WeightClassKg,Place,Name,Team,BodyweightKg,Best3SquatKg,Best3BenchKg,Best3DeadliftKg,TotalKg,Equipment,Event,Sex
Boys,51.71,1,Trey Jimenez,Sweetwater,51.53,117.93,68.04,124.74,310.71,Single-ply,SBD,M
Boys,51.71,2,Ezekiel Chavez,Abilene,45.81,102.06,77.11,129.27,308.44,Single-ply,SBD,M
Boys,51.71,3,Robert Hernandez,Abilene Cooper,51.71,104.33,63.5,120.2,288.03,Single-ply,SBD,M
Boys,51.71,4,Josh Hood,Water Valley,49.53,111.13,49.9,113.4,274.42,Single-ply,SBD,M
Boys,51.71,5,Christian Rodriquez,Tuscola Jim Ned,51.17,97.52,56.7,115.67,269.89,Single-ply,SBD,M
Boys,55.79,1,Josiah Galvan,Abilene,54.88,122.47,63.5,117.93,303.91,Single-ply,SBD,M
Boys,55.79,2,Nick Turner,Abilene Cooper,53.3,92.99,74.84,102.06,269.89,Single-ply,SBD,M
Boys,55.79,3,Wyatt Kofoed,Merkel,53.71,97.52,47.63,111.13,256.28,Single-ply,SBD,M
Boys,55.79,4,Corbin Otto,Abilene Cooper,52.34,79.38,52.16,102.06,233.6,Single-ply,SBD,M
Boys,55.79,5,Philip Richard,Anson,53.98,79.38,43.09,83.91,206.38,Single-ply,SBD,M
Boys,59.87,1,Lleyton Frazier,Tuscola Jim Ned,58.06,145.15,92.99,163.29,401.43,Single-ply,SBD,M
Boys,59.87,2,Kaleb Chacon,Merkel,58.97,136.08,83.91,161.03,381.02,Single-ply,SBD,M
Boys,59.87,3,Tristen Thompson,Merkel,56.06,149.69,90.72,136.08,376.48,Single-ply,SBD,M
Boys,59.87,4,Sebastion GonZales,Sweetwater,59.51,138.35,83.91,142.88,365.14,Single-ply,SBD,M
Boys,59.87,5,Marcus Gomez,Abilene Cooper,58.15,124.74,70.31,158.76,353.8,Single-ply,SBD,M
Boys,59.87,6,Izaiah Clark,Abilene Cooper,56.84,122.47,70.31,136.08,328.85,Single-ply,SBD,M
Boys,59.87,7,Nicholas Gonzalez,Abilene,56.25,120.2,58.97,136.08,315.25,Single-ply,SBD,M
Boys,59.87,8,Christian Martin,Abilene Cooper,59.33,106.59,61.23,113.4,281.23,Single-ply,SBD,M
Boys,59.87,DQ,Blake Scott,Sweetwater,59.78,,,,,Single-ply,SBD,M
Boys,67.13,1,Jessus Menjivar,Abilene Cooper,62.91,183.7,106.59,204.12,494.42,Single-ply,SBD,M
Boys,67.13,2,Riley Perry,Tuscola Jim Ned,61.78,170.1,120.2,163.29,453.59,Single-ply,SBD,M
Boys,67.13,3,Kendal Adames,Sweetwater,64.68,167.83,81.65,185.97,435.45,Single-ply,SBD,M
Boys,67.13,4,Marco Garza,Abilene Cooper,66.32,124.74,83.91,142.88,351.53,Single-ply,SBD,M
Boys,67.13,5,Nick Massey,Merkel,65.05,129.27,68.04,147.42,344.73,Single-ply,SBD,M
Boys,67.13,6,Don Bridges,Tuscola Jim Ned,64.14,124.74,68.04,149.69,342.46,Single-ply,SBD,M
Boys,67.13,7,Colton Childress,Hawley,62.41,122.47,74.84,140.61,337.93,Single-ply,SBD,M
Boys,67.13,8,Andrew Bradley,Abilene Cooper,64.59,124.74,68.04,129.27,322.05,Single-ply,SBD,M
Boys,67.13,9,Aiden Feeler,Merkel,66.68,117.93,68.04,136.08,322.05,Single-ply,SBD,M
Boys,74.84,1,Josh Camacho,Sweetwater,69.85,176.9,108.86,215.46,501.22,Single-ply,SBD,M
Boys,74.84,2,Jorge Hernandez,Abilene,74.39,167.83,97.52,192.78,458.13,Single-ply,SBD,M
Boys,74.84,3,Matthew Lozano,Anson,70.03,151.95,92.99,174.63,419.57,Single-ply,SBD,M
Boys,74.84,4,Noah Bjorlie,Abilene Cooper,70.72,156.49,90.72,151.95,399.16,Single-ply,SBD,M
Boys,74.84,5,Gunnar McCoy,Water Valley,70.03,140.61,86.18,170.1,396.89,Single-ply,SBD,M
Boys,74.84,6,Brady Miller,Abilene Cooper,74.07,154.22,90.72,136.08,381.02,Single-ply,SBD,M
Boys,74.84,7,Mark Leyva,Merkel,71.49,138.35,74.84,149.69,362.87,Single-ply,SBD,M
Boys,74.84,8,Eli Batko,Hawley,71.58,83.91,77.11,192.78,353.8,Single-ply,SBD,M
Boys,74.84,9,Isaac Brann,Anson,67.59,124.74,79.38,142.88,347,Single-ply,SBD,M
Boys,74.84,10,Ethan Doby,Anson,74.84,115.67,74.84,124.74,315.25,Single-ply,SBD,M
Boys,74.84,11,Justin Turk,Abilene,71.21,117.93,63.5,131.54,312.98,Single-ply,SBD,M
Boys,74.84,12,Maison Dickinson,Abilene,69.4,108.86,79.38,122.47,310.71,Single-ply,SBD,M
Boys,74.84,DQ,Ethan Brockman,Sweetwater,70.85,142.88,,,,Single-ply,SBD,M
Boys,82.1,1,Phonzo Dotson,Abilene,78.93,185.97,97.52,192.78,476.27,Single-ply,SBD,M
Boys,82.1,2,Kolby Griffin,Anson,79.56,183.7,92.99,192.78,469.47,Single-ply,SBD,M
Boys,82.1,3,John Schudde,Tuscola Jim Ned,80.92,174.63,97.52,195.04,467.2,Single-ply,SBD,M
Boys,82.1,4,Esai Jaques,Abilene,82.1,151.95,88.45,149.69,390.09,Single-ply,SBD,M
Boys,82.1,DQ,Wyatt McCoy,Sweetwater,82.1,158.76,,,,Single-ply,SBD,M
Boys,89.81,1,Emile Niyonkuru,Abilene Cooper,86.05,208.65,129.27,222.26,560.19,Single-ply,SBD,M
Boys,89.81,2,Tommy Allmand,Abilene Cooper,89.27,222.26,142.88,195.04,560.19,Single-ply,SBD,M
Boys,89.81,3,Phillip Tellez,Abilene,84.37,163.29,117.93,176.9,458.13,Single-ply,SBD,M
Boys,89.81,4,Jacob Deax,Abilene Cooper,84.59,163.29,111.13,183.7,458.13,Single-ply,SBD,M
Boys,89.81,5,D'Anthony Franklin,Abilene,85.73,181.44,99.79,167.83,449.06,Single-ply,SBD,M
Boys,89.81,6,Caleb Smith,Tuscola Jim Ned,82.83,151.95,86.18,174.63,412.77,Single-ply,SBD,M
Boys,89.81,7,Tyler Stevens,Tuscola Jim Ned,86.18,156.49,90.72,156.49,403.7,Single-ply,SBD,M
Boys,89.81,8,Caleb Moreno,Anson,85.91,124.74,83.91,147.42,356.07,Single-ply,SBD,M
Boys,89.81,9,Tyson Moore,Abilene,84.82,120.2,77.11,136.08,333.39,Single-ply,SBD,M
Boys,89.81,10,Kobe Martinez,Hawley,82.69,111.13,70.31,124.74,306.17,Single-ply,SBD,M
Boys,99.79,1,Max Bradley,Water Valley,97.79,188.24,102.06,192.78,483.08,Single-ply,SBD,M
Boys,99.79,2,Cody Farley,Abilene Cooper,97.61,183.7,102.06,188.24,474,Single-ply,SBD,M
Boys,99.79,3,Jeremy Le,Sweetwater,98.34,185.97,102.06,172.37,460.4,Single-ply,SBD,M
Boys,99.79,4,Evan Andrews,Merkel,92.35,172.37,77.11,183.7,433.18,Single-ply,SBD,M
Boys,99.79,5,Dustin Parmeter,Merkel,95.89,147.42,83.91,185.97,417.3,Single-ply,SBD,M
Boys,99.79,6,Robert Garcia,Merkel,99.7,151.95,74.84,142.88,369.68,Single-ply,SBD,M
Boys,109.77,1,Justin Castereno,Sweetwater,108.23,249.48,170.1,256.28,675.85,Single-ply,SBD,M
Boys,109.77,2,Colton Grimes,Abilene Cooper,105.64,219.99,147.42,210.92,578.33,Single-ply,SBD,M
Boys,109.77,3,Colby Ernst,Abilene,105.69,222.26,124.74,197.31,544.31,Single-ply,SBD,M
Boys,109.77,4,Lucio Ramirez,Abilene,105.69,226.8,106.59,192.78,526.17,Single-ply,SBD,M
Boys,109.77,5,Ely Barrera,Sweetwater,105.51,192.78,102.06,226.8,521.63,Single-ply,SBD,M
Boys,109.77,6,Jorrian Moses,Abilene Cooper,105.05,192.78,124.74,199.58,517.1,Single-ply,SBD,M
Boys,109.77,7,Donovan Brooks,Merkel,108.5,188.24,127.01,183.7,498.95,Single-ply,SBD,M
Boys,109.77,8,Kade Miller,Tuscola Jim Ned,108.23,170.1,97.52,188.24,455.86,Single-ply,SBD,M
Boys,109.77,9,Cody Rice,Merkel,108.05,170.1,90.72,158.76,419.57,Single-ply,SBD,M
Boys,109.77,10,Wyatt Southerland,Abilene,102.97,158.76,92.99,151.95,403.7,Single-ply,SBD,M
Boys,109.77,11,Keanu Graves,Abilene,106.14,149.69,81.65,167.83,399.16,Single-ply,SBD,M
Boys,109.77,DQ,Kody Crouch,Merkel,101.33,204.12,90.72,,,Single-ply,SBD,M
Boys,124.74,1,Luke Williams,Merkel,116.57,238.14,142.88,240.4,621.42,Single-ply,SBD,M
Boys,124.74,2,Ryan Gofigan,Abilene Cooper,111.18,208.65,124.74,213.19,546.58,Single-ply,SBD,M
Boys,124.74,3,Lucas Gomez,Abilene,117.48,219.99,117.93,195.04,532.97,Single-ply,SBD,M
Boys,124.74,4,Xavier Cortez,Abilene,120.66,231.33,111.13,185.97,528.44,Single-ply,SBD,M
Boys,124.74,5,Thad Hazelwood,Hawley,121.02,181.44,142.88,204.12,528.44,Single-ply,SBD,M
Boys,124.74,6,Chris Loya,Abilene,115.21,206.38,115.67,195.04,517.1,Single-ply,SBD,M
Boys,124.74,7,Triston Patterson,Tuscola Jim Ned,110.13,181.44,108.86,195.04,485.34,Single-ply,SBD,M
Boys,124.74,8,Bradley Byrne,Abilene,113.4,204.12,99.79,181.44,485.34,Single-ply,SBD,M
Boys,124.74,9,Gatlyn Cooper,Tuscola Jim Ned,111.49,181.44,97.52,199.58,478.54,Single-ply,SBD,M
Boys,124.74,10,Ben Gomez,Abilene,111.58,136.08,72.57,149.69,358.34,Single-ply,SBD,M
Boys,124.74,DQ,Justin Smith,Abilene Cooper,122.11,188.24,117.93,,,Single-ply,SBD,M
Boys,124.74+,1,David Schuman,Merkel,126.73,272.16,181.44,254.01,707.6,Single-ply,SBD,M
Boys,124.74+,2,Thomas Squyres,Abilene Cooper,131.54,238.14,161.03,204.12,603.28,Single-ply,SBD,M
Boys,124.74+,3,Devon Cosby,Abilene Cooper,129.59,219.99,136.08,242.67,598.74,Single-ply,SBD,M
Boys,124.74+,4,Gage McVey,Abilene Cooper,129.36,226.8,147.42,192.78,566.99,Single-ply,SBD,M
Boys,124.74+,5,Khalil Spivey,Abilene,138.8,244.94,104.33,210.92,560.19,Single-ply,SBD,M
Boys,124.74+,6,Ricardo Rios-Esparza,Abilene Cooper,136.98,217.72,113.4,204.12,535.24,Single-ply,SBD,M
Boys,124.74+,7,Jaime Rodriguez,Abilene,126.55,158.76,102.06,149.69,410.5,Single-ply,SBD,M
Boys,,NS,Kade Heatherly,Abilene Cooper,,,,,,Single-ply,SBD,M
Boys,,NS,Jayden Harms,Abilene Cooper,,,,,,Single-ply,SBD,M
Boys,,NS,Enrique Bautista,Anson,,,,,,Single-ply,SBD,M
Boys,,NS,Angel Longoria,Sweetwater,,,,,,Single-ply,SBD,M
Boys,,NS,John Wheeler,Tuscola Jim Ned,,,,,,Single-ply,SBD,M
Boys,,NS,Sam Meier,Merkel,,,,,,Single-ply,SBD,M
