Division,WeightClassKg,Place,Name,Team,BodyweightKg,Best3SquatKg,Best3BenchKg,Best3DeadliftKg,TotalKg,Equipment,Event,Sex
Boys,51.71,1,Michael Smagghe,Fairfield,49.17,115.67,70.31,131.54,317.51,Single-ply,SBD,M
Boys,51.71,DQ,John Hernandez,Malakoff,51.53,,,,,Single-ply,SBD,M
Boys,51.71,DQ,Kaleb Leonard,Elkhart,51.71,,,,,Single-ply,SBD,M
Boys,55.79,1,Jose Rodriguez,Athens,54.7,158.76,106.59,165.56,430.91,Single-ply,SBD,M
Boys,55.79,2,Ricardo Rodriguez,Athens,54.61,120.2,77.11,136.08,333.39,Single-ply,SBD,M
Boys,55.79,3,Leo Rosales,Rusk,54.25,133.81,68.04,127.01,328.85,Single-ply,SBD,M
Boys,55.79,4,Dalton Kassaw,Elkhart,55.79,122.47,61.23,136.08,319.78,Single-ply,SBD,M
Boys,55.79,DQ,Tyrik Landry,Fairfield,55.79,,,,,Single-ply,SBD,M
Boys,59.87,1,Jalen Burns,Palestine Westwood,58.92,154.22,70.31,170.1,394.63,Single-ply,SBD,M
Boys,67.13,2,Ryne Moore,Oakwood,60.06,154.22,81.65,154.22,390.09,Single-ply,SBD,M
Boys,59.87,3,Brant Cox,Cayuga,59.51,129.27,81.65,124.74,335.66,Single-ply,SBD,M
Boys,59.87,4,Jt Jones,Teague,59.15,129.27,68.04,136.08,333.39,Single-ply,SBD,M
Boys,67.13,5,Wade Horn,Malakoff,60.1,104.33,65.77,136.08,306.17,Single-ply,SBD,M
Boys,67.13,1,Cody DeFore,Elkhart,64.41,204.12,117.93,204.12,526.17,Single-ply,SBD,M
Boys,67.13,2,Blake Guldjord,Cayuga,65.5,185.97,113.4,185.97,485.34,Single-ply,SBD,M
Boys,67.13,3,Jared Arey,Teague,65.59,188.24,97.52,185.97,471.74,Single-ply,SBD,M
Boys,67.13,4,Tate Molandes,Elkhart,63.87,149.69,104.33,185.97,439.98,Single-ply,SBD,M
Boys,67.13,5,Riley Smith,Elkhart,64.77,158.76,104.33,154.22,417.3,Single-ply,SBD,M
Boys,67.13,6,Payton Wallace,Cayuga,66.13,145.15,102.06,158.76,405.97,Single-ply,SBD,M
Boys,67.13,7,Chris Weaver,Palestine,65.59,142.88,95.25,158.76,396.89,Single-ply,SBD,M
Boys,67.13,8,Omar Gonzalez,Malakoff,67.13,140.61,77.11,176.9,394.63,Single-ply,SBD,M
Boys,67.13,9,Jonathan Childers,Fairfield,66.13,158.76,88.45,138.35,385.55,Single-ply,SBD,M
Boys,67.13,10,Rowdy Upchurch,Elkhart,66.22,142.88,92.99,147.42,383.29,Single-ply,SBD,M
Boys,67.13,11,Osbablo Juarez,Athens,66.04,124.74,68.04,129.27,322.05,Single-ply,SBD,M
Boys,67.13,12,Will Barnett,Oakwood,62.23,68.04,54.43,136.08,258.55,Single-ply,SBD,M
Boys,67.13,DQ,Tayton Noyes,Fairfield,67.13,,,,,Single-ply,SBD,M
Boys,67.13,DQ,Dakota Johnson,Brownsboro,64.95,124.74,70.31,,,Single-ply,SBD,M
Boys,67.13,DQ,Brent Mason,Brownsboro,67.13,,,,,Single-ply,SBD,M
Boys,67.13,DQ,Kolby Venoy,Palestine Westwood,65.77,,,,,Single-ply,SBD,M
Boys,74.84,1,Jeremy Turner,Rusk,74.3,222.26,113.4,213.19,548.85,Single-ply,SBD,M
Boys,74.84,2,Coy Jorden,Teague,73.66,217.72,117.93,206.38,542.04,Single-ply,SBD,M
Boys,74.84,3,Jamie Chan,Palestine Westwood,74.03,190.51,122.47,204.12,517.1,Single-ply,SBD,M
Boys,74.84,4,Sir Thompson,Palestine,74.84,170.1,115.67,174.63,460.4,Single-ply,SBD,M
Boys,74.84,5,Dylan Thompson,Rusk,71.03,181.44,113.4,163.29,458.13,Single-ply,SBD,M
Boys,74.84,6,Chris Box,Elkhart,68.49,181.44,104.33,167.83,453.59,Single-ply,SBD,M
Boys,74.84,7,Garrett Flanagan,Elkhart,73.03,172.37,90.72,185.97,449.06,Single-ply,SBD,M
Boys,74.84,8,Zack Gray,Elkhart,73.39,179.17,97.52,172.37,449.06,Single-ply,SBD,M
Boys,82.1,9,Kirkland Terrell,Malakoff,75.02,154.22,97.52,181.44,433.18,Single-ply,SBD,M
Boys,74.84,10,Zack Brister,Palestine Westwood,72.17,158.76,97.52,172.37,428.64,Single-ply,SBD,M
Boys,74.84,11,Matthew Cable,Malakoff,73.12,138.35,102.06,181.44,421.84,Single-ply,SBD,M
Boys,74.84,12,Chris Davis,Brownsboro,69.76,149.69,102.06,165.56,417.3,Single-ply,SBD,M
Boys,74.84,13,Jason Smith,Teague,72.57,161.03,79.38,167.83,408.23,Single-ply,SBD,M
Boys,74.84,14,LaDarius Jordan,Athens,70.94,154.22,102.06,149.69,405.97,Single-ply,SBD,M
Boys,74.84,15,Felipe Reyes,Malakoff,68.76,145.15,83.91,154.22,383.29,Single-ply,SBD,M
Boys,74.84,16,Tyler Wilbanks,Rusk,71.4,145.15,90.72,147.42,383.29,Single-ply,SBD,M
Boys,74.84,17,Mason Drinker,Cayuga,73.12,140.61,95.25,142.88,378.75,Single-ply,SBD,M
Boys,74.84,18,LaMarcus Newsome,Oakwood,72.39,131.54,90.72,154.22,376.48,Single-ply,SBD,M
Boys,74.84,DQ,Roy Kuykendall,Oakwood,74.84,,,,,Single-ply,SBD,M
Boys,74.84,DQ,Kevin Martinez,Palestine,70.76,,,,,Single-ply,SBD,M
Boys,82.1,1,Carlos Aguinaga,Cayuga,80.01,181.44,122.47,199.58,503.49,Single-ply,SBD,M
Boys,82.1,2,Jeremiah Simpson,Fairfield,76.93,190.51,97.52,183.7,471.74,Single-ply,SBD,M
Boys,82.1,3,Tristan Bussell,Brownsboro,77.11,183.7,92.99,176.9,453.59,Single-ply,SBD,M
Boys,82.1,4,Emmanuel Gonzalez,Malakoff,77.38,181.44,90.72,181.44,453.59,Single-ply,SBD,M
Boys,82.1,5,Jakob Dancer,Teague,76.2,170.1,77.11,197.31,444.52,Single-ply,SBD,M
Boys,82.1,6,Isaiah Mitchell,Palestine,77.11,163.29,106.59,174.63,444.52,Single-ply,SBD,M
Boys,82.1,7,Tristan Williams,Rusk,76.29,147.42,102.06,158.76,408.23,Single-ply,SBD,M
Boys,82.1,8,Cameron Litchfield,Oakwood,80.56,149.69,92.99,147.42,390.09,Single-ply,SBD,M
Boys,82.1,9,Maurice Emanuel,Oakwood,81.74,108.86,90.72,149.69,349.27,Single-ply,SBD,M
Boys,82.1,DQ,Christian Brummett,Oakwood,82.1,,,,,Single-ply,SBD,M
Boys,89.81,1,David Overstreet,Rusk,86.27,217.72,102.06,263.08,582.87,Single-ply,SBD,M
Boys,89.81,2,Rodrick Arceneaux,Elkhart,85,233.6,124.74,206.38,564.72,Single-ply,SBD,M
Boys,89.81,3,Louis Collins,Oakwood,83.64,210.92,142.88,197.31,551.11,Single-ply,SBD,M
Boys,89.81,4,Tristan Moore,Brownsboro,88.9,219.99,117.93,199.58,537.51,Single-ply,SBD,M
Boys,89.81,5,Alberto Martinez,Athens,83.1,165.56,129.27,176.9,471.74,Single-ply,SBD,M
Boys,89.81,6,Lane Harrison,Brownsboro,85.28,185.97,99.79,176.9,462.66,Single-ply,SBD,M
Boys,89.81,7,Danny Cockerell,Fairfield,85.28,188.24,102.06,158.76,449.06,Single-ply,SBD,M
Boys,89.81,8,Cole Beddingfield,Fairfield,86.55,188.24,92.99,158.76,439.98,Single-ply,SBD,M
Boys,89.81,9,Steven Slater,Cayuga,87.36,165.56,102.06,170.1,437.72,Single-ply,SBD,M
Boys,89.81,10,Jeremy Wood,Fairfield,89.18,147.42,81.65,147.42,376.48,Single-ply,SBD,M
Boys,89.81,11,Thomas Nicholson,Oakwood,86.55,131.54,83.91,154.22,369.68,Single-ply,SBD,M
Boys,89.81,DQ,Aaron Chitwood,Brownsboro,89.81,217.72,,,,Single-ply,SBD,M
Boys,89.81,DQ,Berrett Senycki,Athens,89.81,154.22,,,,Single-ply,SBD,M
Boys,89.81,DQ,Kevin Valladares,Palestine Westwood,89.81,,,,,Single-ply,SBD,M
Boys,89.81,DQ,Kevin Jones,Rusk,85.91,235.87,138.35,,,Single-ply,SBD,M
Boys,99.79,1,Cody Sell,Fairfield,99.61,244.94,154.22,226.8,625.96,Single-ply,SBD,M
Boys,99.79,2,Ty Tunstall,Cayuga,98.97,215.46,129.27,226.8,571.53,Single-ply,SBD,M
Boys,99.79,3,Aaron Foxworth,Cayuga,98.25,208.65,113.4,213.19,535.24,Single-ply,SBD,M
Boys,99.79,4,James Ruiz,Rusk,95.53,199.58,120.2,199.58,519.36,Single-ply,SBD,M
Boys,99.79,5,Nolan Mays,Palestine,93.62,199.58,106.59,192.78,498.95,Single-ply,SBD,M
Boys,99.79,6,Jacob Boyd,Cayuga,91.9,185.97,124.74,163.29,474,Single-ply,SBD,M
Boys,99.79,7,Cory Rosa,Malakoff,90.72,167.83,104.33,158.76,430.91,Single-ply,SBD,M
Boys,99.79,8,Ryan Roberts,Teague,93.35,170.1,79.38,142.88,392.36,Single-ply,SBD,M
Boys,99.79,9,Misael Pereida,Athens,99.43,127.01,83.91,142.88,353.8,Single-ply,SBD,M
Boys,99.79,10,Cameron Dotson,Rusk,96.07,158.76,61.23,113.4,333.39,Single-ply,SBD,M
Boys,99.79,DQ,Andrew Grant,Fairfield,99.79,174.63,,,,Single-ply,SBD,M
Boys,99.79,DQ,Aaron De La Garza,Brownsboro,99.79,192.78,,,,Single-ply,SBD,M
Boys,124.74,1,Kelton Henderson,Teague,110,319.78,183.7,238.14,741.62,Single-ply,SBD,M
Boys,109.77,2,Zach Swearingen,Rusk,107.32,240.4,127.01,206.38,573.79,Single-ply,SBD,M
Boys,109.77,3,Johnt'A Maxey,Palestine,101.42,226.8,136.08,197.31,560.19,Single-ply,SBD,M
Boys,109.77,4,Nelson Ochoa,Malakoff,108.68,226.8,106.59,199.58,532.97,Single-ply,SBD,M
Boys,109.77,5,Diego Medina,Malakoff,101.15,213.19,108.86,181.44,503.49,Single-ply,SBD,M
Boys,109.77,6,Tyler Trussell,Athens,103.96,183.7,108.86,199.58,492.15,Single-ply,SBD,M
Boys,109.77,7,Ty Swindle,Palestine,103.51,183.7,102.06,204.12,489.88,Single-ply,SBD,M
Boys,109.77,8,LaRodney Brown,Palestine Westwood,104.78,213.19,104.33,172.37,489.88,Single-ply,SBD,M
Boys,109.77,9,Jesse Underwood,Elkhart,101.97,163.29,106.59,208.65,478.54,Single-ply,SBD,M
Boys,109.77,10,Bryce Hoffman,Rusk,108.14,188.24,102.06,176.9,467.2,Single-ply,SBD,M
Boys,109.77,11,Adrian Casas,Fairfield,102.87,183.7,90.72,154.22,428.64,Single-ply,SBD,M
Boys,109.77,DQ,Cameron Brummett,Oakwood,109.77,,,,,Single-ply,SBD,M
Boys,124.74,1,Jose Diaz,Teague,115.94,281.23,147.42,263.08,691.73,Single-ply,SBD,M
Boys,124.74,2,Daniel Jock,Cayuga,113.4,226.8,181.44,204.12,612.35,Single-ply,SBD,M
Boys,124.74,3,Ryan Mitchell,Teague,112.58,235.87,136.08,217.72,589.67,Single-ply,SBD,M
Boys,124.74,4,Patrick Cross,Palestine,116.66,238.14,124.74,208.65,571.53,Single-ply,SBD,M
Boys,124.74,5,Zach McFarland,Elkhart,118.02,249.48,113.4,190.51,553.38,Single-ply,SBD,M
Boys,124.74,6,Brian Gutierrez,Athens,117.93,204.12,140.61,190.51,535.24,Single-ply,SBD,M
Boys,124.74,7,Israel Chavez,Malakoff,118.39,192.78,99.79,170.1,462.66,Single-ply,SBD,M
Boys,124.74+,8,John Wayne Massey,Teague,124.92,113.4,68.04,113.4,294.84,Single-ply,SBD,M
Boys,124.74,DQ,Chad Walker,Athens,124.74,158.76,,,,Single-ply,SBD,M
Boys,124.74,DQ,Zach Ramos,Brownsboro,124.74,172.37,,,,Single-ply,SBD,M
Boys,124.74+,1,Juan Gomez,Brownsboro,129.64,260.82,140.61,229.06,630.49,Single-ply,SBD,M
Boys,124.74+,2,John Arellano,Athens,129.73,249.48,154.22,213.19,616.89,Single-ply,SBD,M
Boys,124.74+,3,Alex Ellis,Teague,125.28,242.67,131.54,240.4,614.62,Single-ply,SBD,M
Boys,124.74+,4,Manuel Solis,Palestine,136.35,185.97,95.25,190.51,471.74,Single-ply,SBD,M
Boys,124.74+,5,Kevin Laningham,Elkhart,128.28,170.1,108.86,181.44,460.4,Single-ply,SBD,M
Boys,124.74+,6,Korbin Boles,Palestine Westwood,135.58,120.2,92.99,158.76,371.95,Single-ply,SBD,M
Boys,124.74+,7,Colten Moody,Cayuga,160.21,117.93,70.31,108.86,297.1,Single-ply,SBD,M
Boys,124.74+,DQ,Tristen Fritch,Brownsboro,165.83,260.82,149.69,,,Single-ply,SBD,M
