Division,WeightClassKg,Place,Name,Team,BodyweightKg,Best3SquatKg,Best3BenchKg,Best3DeadliftKg,TotalKg,Equipment,Event,Sex
Girls,44.23,1,Natali Dominguez,Mertzon Irion County,44,99.79,52.16,90.72,242.67,Single-ply,SBD,F
Girls,44.23,2,Maribel Tavarez,Monahans,41.82,77.11,45.36,81.65,204.12,Single-ply,SBD,F
Girls,44.23,3,Cassandra Flores,Kermit,42.91,77.11,31.75,74.84,183.7,Single-ply,SBD,F
Girls,44.23,4,Aaliyah Sanchez,Monahans,43.91,65.77,36.29,81.65,183.7,Single-ply,SBD,F
Girls,44.23,5,Chynna Sandate,Eldorado,38.01,54.43,27.22,68.04,149.69,Single-ply,SBD,F
Girls,44.23,6,Erika Sanchez,Eldorado,44.23,47.63,27.22,58.97,133.81,Single-ply,SBD,F
Girls,47.85,1,Mattie Williams,Big Lake Reagan County,47.81,104.33,45.36,113.4,263.08,Single-ply,SBD,F
Girls,47.85,2,Jessica Paredes,Sonora,47.36,90.72,43.09,95.25,229.06,Single-ply,SBD,F
Girls,47.85,3,Mariah De La Rosa,Crane,44.54,77.11,36.29,90.72,204.12,Single-ply,SBD,F
Girls,47.85,4,Katelyn Hogan,Monahans,46.54,74.84,38.56,90.72,204.12,Single-ply,SBD,F
Girls,47.85,5,Bekkie Floriana,Kermit,46.08,77.11,36.29,83.91,197.31,Single-ply,SBD,F
Girls,47.85,6,Alyssa Davila,Kermit,47.36,74.84,34.02,86.18,195.04,Single-ply,SBD,F
Girls,47.85,DQ,Kiara Hodge,Iraan,46.36,,,79.38,,Single-ply,SBD,F
Girls,51.94,1,Abigail Narvaez,Eldorado,49.71,113.4,52.16,120.2,285.76,Single-ply,SBD,F
Girls,51.94,2,Tyra Lemmons,Monahans,51.8,99.79,54.43,117.93,272.16,Single-ply,SBD,F
Girls,51.94,3,Valerie Lujan,Monahans,50.44,72.57,36.29,97.52,206.38,Single-ply,SBD,F
Girls,51.94,4,Carissa Guerrero,Big Lake Reagan County,51.07,81.65,36.29,88.45,206.38,Single-ply,SBD,F
Girls,51.94,5,Sasha Sanchez,Eldorado,50.35,92.99,29.48,77.11,199.58,Single-ply,SBD,F
Girls,51.94,6,Tj Aragon,Monahans,49.62,74.84,36.29,81.65,192.78,Single-ply,SBD,F
Girls,51.94,7,Crimson Fuentas,Crane,51.62,68.04,34.02,61.23,163.29,Single-ply,SBD,F
Girls,51.94,8,Yasmin Ojeda,Big Lake Reagan County,49.08,61.23,29.48,70.31,161.03,Single-ply,SBD,F
Girls,51.94,9,Cheyenne McDaniel,Crane,51.71,56.7,27.22,63.5,147.42,Single-ply,SBD,F
Girls,51.94,DQ,Kenzie Cramer,Mertzon Irion County,50.89,111.13,,,,Single-ply,SBD,F
Girls,56.02,1,Katelan House,San Angelo Lake View,54.52,124.74,52.16,124.74,301.64,Single-ply,SBD,F
Girls,56.02,2,Rachel Mendoza,Ozona,55.52,113.4,56.7,106.59,276.69,Single-ply,SBD,F
Girls,56.02,3,Taylor Snodgrass,Mertzon Irion County,55.79,113.4,56.7,97.52,267.62,Single-ply,SBD,F
Girls,56.02,4,Brittany Howard,Kermit,54.79,102.06,43.09,104.33,249.48,Single-ply,SBD,F
Girls,56.02,5,Rosanna Aguilera,Big Lake Reagan County,52.8,102.06,45.36,99.79,247.21,Single-ply,SBD,F
Girls,56.02,6,Kelcey Mitchell,Monahans,53.34,86.18,43.09,92.99,222.26,Single-ply,SBD,F
Girls,56.02,7,Kati Creech,Big Lake Reagan County,54.43,90.72,38.56,83.91,213.19,Single-ply,SBD,F
Girls,56.02,8,Okshana Hernandez,Eldorado,54.07,72.57,38.56,95.25,206.38,Single-ply,SBD,F
Girls,56.02,9,Madye Hubbard,Ozona,54.34,81.65,34.02,88.45,204.12,Single-ply,SBD,F
Girls,56.02,10,Carissa Perez,Ozona,53.61,81.65,31.75,86.18,199.58,Single-ply,SBD,F
Girls,56.02,11,Nayelli Azuaje,Monahans,55.79,63.5,38.56,92.99,195.04,Single-ply,SBD,F
Girls,56.02,12,Reina Carrasco,Crane,56.02,56.7,34.02,95.25,185.97,Single-ply,SBD,F
Girls,56.02,13,Desirea Enriquez,San Angelo Lake View,55.97,58.97,29.48,77.11,165.56,Single-ply,SBD,F
Girls,60.1,1,Dulce Rodriguez,Ozona,59.69,133.81,52.16,124.74,310.71,Single-ply,SBD,F
Girls,60.1,2,Elizbeth Price,Kermit,60.1,86.18,34.02,92.99,213.19,Single-ply,SBD,F
Girls,60.1,3,Savanna Welton,Iraan,58.6,77.11,40.82,90.72,208.65,Single-ply,SBD,F
Girls,60.1,4,Natalie Martinez,Kermit,58.69,83.91,36.29,88.45,208.65,Single-ply,SBD,F
Girls,60.1,5,Sadie Arguello,Iraan,59.69,77.11,38.56,90.72,206.38,Single-ply,SBD,F
Girls,60.1,6,Tenay Pinchback,Iraan,56.61,61.23,31.75,79.38,172.37,Single-ply,SBD,F
Girls,60.1,DQ,Caitlyn Allen,Mertzon Irion County,59.51,,,,,Single-ply,SBD,F
Girls,60.1,DQ,Selena Torres,Crane,56.25,,,,,Single-ply,SBD,F
Girls,60.1,DQ,Julie Marshall,Ozona,59.6,99.79,,,,Single-ply,SBD,F
Girls,67.36,1,Sierra Paredez,San Angelo Grape Creek,60.42,158.76,72.57,136.08,367.41,Single-ply,SBD,F
Girls,67.36,2,Julia Pope,Sonora,62.69,142.88,65.77,154.22,362.87,Single-ply,SBD,F
Girls,67.36,3,Reagan DeHanis,Mertzon Irion County,65.23,136.08,83.91,124.74,344.73,Single-ply,SBD,F
Girls,67.36,4,Maiah Jurado,Ozona,65.5,127.01,54.43,131.54,312.98,Single-ply,SBD,F
Girls,67.36,5,Alondra Rodriguez,Ozona,61.51,124.74,56.7,124.74,306.17,Single-ply,SBD,F
Girls,67.36,6,Julisa Medrano,San Angelo Lake View,65.59,124.74,49.9,122.47,297.1,Single-ply,SBD,F
Girls,67.36,7,Anasia Fletcher,Monahans,67.04,111.13,49.9,129.27,290.3,Single-ply,SBD,F
Girls,67.36,8,Cilette Sweeney,Big Lake Reagan County,64.59,113.4,45.36,129.27,288.03,Single-ply,SBD,F
Girls,67.36,9,Lauren Lambert,San Angelo Lake View,62.96,102.06,47.63,113.4,263.08,Single-ply,SBD,F
Girls,67.36,10,Kaylie Aranda,Kermit,65.14,102.06,52.16,106.59,260.82,Single-ply,SBD,F
Girls,67.36,11,Chely Esquivel,Big Lake Reagan County,60.42,106.59,49.9,102.06,258.55,Single-ply,SBD,F
Girls,67.36,12,Nani Esquivel,Big Lake Reagan County,66.68,106.59,52.16,99.79,258.55,Single-ply,SBD,F
Girls,67.36,13,Ulyssa Garcia,Monahans,66.13,90.72,47.63,90.72,229.06,Single-ply,SBD,F
Girls,67.36,14,Ac Corley,San Angelo Grape Creek,62.32,92.99,34.02,99.79,226.8,Single-ply,SBD,F
Girls,67.36,15,Kaci Bales,Iraan,65.23,86.18,49.9,86.18,222.26,Single-ply,SBD,F
Girls,67.36,16,Mercadez Ochoa,Eldorado,63.14,79.38,45.36,95.25,219.99,Single-ply,SBD,F
Girls,67.36,17,Sulema Ornelas,Monahans,62.6,79.38,43.09,88.45,210.92,Single-ply,SBD,F
Girls,67.36,18,Kayleen Toscano,Monahans,64.32,70.31,47.63,90.72,208.65,Single-ply,SBD,F
Girls,67.36,19,Andrea Valles,Kermit,64.59,92.99,31.75,81.65,206.38,Single-ply,SBD,F
Girls,67.36,20,Natalie Nunez,San Angelo Lake View,63.14,68.04,34.02,97.52,199.58,Single-ply,SBD,F
Girls,67.36,21,Kaitlin Anderson,Kermit,60.69,68.04,31.75,70.31,170.1,Single-ply,SBD,F
Girls,67.36,DQ,Jenafur Warren,Eldorado,64.41,92.99,,,,Single-ply,SBD,F
Girls,67.36,DQ,Valerie Gonzalez,Sonora,63.59,88.45,,,,Single-ply,SBD,F
Girls,75.07,1,Amber Baughman,San Angelo Grape Creek,75.07,138.35,65.77,136.08,340.19,Single-ply,SBD,F
Girls,75.07,2,Larissa Vordick,San Angelo Grape Creek,71.3,140.61,58.97,122.47,322.05,Single-ply,SBD,F
Girls,75.07,3,Armarinda Villanueva,Eldorado,73.21,113.4,45.36,136.08,294.84,Single-ply,SBD,F
Girls,75.07,4,Morgan Posey,San Angelo Grape Creek,72.21,108.86,38.56,106.59,254.01,Single-ply,SBD,F
Girls,75.07,5,Lisette Hernandez,San Angelo Lake View,72.39,97.52,47.63,102.06,247.21,Single-ply,SBD,F
Girls,75.07,6,Kamelia Navarette,Crane,72.48,86.18,45.36,106.59,238.14,Single-ply,SBD,F
Girls,75.07,7,Ivy Mendoza,Iraan,74.21,81.65,38.56,90.72,210.92,Single-ply,SBD,F
Girls,75.07,8,Evalyn Mejia,Eldorado,72.03,74.84,36.29,86.18,197.31,Single-ply,SBD,F
Girls,75.07,9,Alexis Torres,Crane,68.31,68.04,43.09,77.11,188.24,Single-ply,SBD,F
Girls,75.07,10,Alyssa Reza,Eldorado,68.86,63.5,24.95,68.04,156.49,Single-ply,SBD,F
Girls,75.07,DQ,Luisa Muniz,Eldorado,73.57,124.74,,,,Single-ply,SBD,F
Girls,82.33,1,Megan Powell,Eldorado,80.1,145.15,63.5,140.61,349.27,Single-ply,SBD,F
Girls,82.33,2,Keyle Pruitt,Monahans,77.84,104.33,58.97,104.33,267.62,Single-ply,SBD,F
Girls,82.33,3,Ashley Kemp,Christoval,80.65,102.06,43.09,113.4,258.55,Single-ply,SBD,F
Girls,82.33,4,Tricia Carter,Iraan,80.92,86.18,43.09,97.52,226.8,Single-ply,SBD,F
Girls,82.33,5,Kayla Grace,Sonora,77.93,102.06,47.63,70.31,219.99,Single-ply,SBD,F
Girls,82.33,6,Mikayla De La Cruz,Big Lake Reagan County,77.66,83.91,45.36,86.18,215.46,Single-ply,SBD,F
Girls,82.33,7,Kodee Smith,Sonora,76.38,74.84,34.02,65.77,174.63,Single-ply,SBD,F
Girls,90.04,1,Noel Fierro,Sonora,88.54,142.88,90.72,147.42,381.02,Single-ply,SBD,F
Girls,90.04,2,Kim Borrego,Ozona,83.64,136.08,68.04,122.47,326.59,Single-ply,SBD,F
Girls,90.04,3,Ashtyn Cleere,Christoval,86.27,142.88,56.7,108.86,308.44,Single-ply,SBD,F
Girls,90.04,4,Lucy Arreola,Kermit,84.73,92.99,43.09,79.38,215.46,Single-ply,SBD,F
Girls,100.02,1,Mya Lindsay,San Angelo Lake View,98.16,172.37,68.04,149.69,390.09,Single-ply,SBD,F
Girls,100.02,2,Valerie DeLeon,Big Lake Reagan County,100.02,151.95,61.23,138.35,351.53,Single-ply,SBD,F
Girls,100.02,3,Annabell Hernandez,McCamey,96.07,115.67,56.7,122.47,294.84,Single-ply,SBD,F
Girls,100.02,4,Sara Gunnels,Ozona,95.44,124.74,63.5,102.06,290.3,Single-ply,SBD,F
Girls,100.02,5,Cassie Villanueva,McCamey,93.35,102.06,47.63,106.59,256.28,Single-ply,SBD,F
Girls,100.02+,1,Marissa Alarcon,Kermit,103.33,149.69,68.04,149.69,367.41,Single-ply,SBD,F
Girls,100.02+,2,Maria Mejia,Ozona,108.5,163.29,68.04,136.08,367.41,Single-ply,SBD,F
Girls,100.02+,3,Makayla Torres,San Angelo Grape Creek,114.31,158.76,56.7,149.69,365.14,Single-ply,SBD,F
Girls,,NS,Alyssa Evans,San Angelo Grape Creek,,,,,,Single-ply,SBD,F
Girls,,NS,Lizet Paez,San Angelo Lake View,,,,,,Single-ply,SBD,F
Girls,,NS,Perla Salazar,Sonora,,,,,,Single-ply,SBD,F
Girls,,NS,Marissa Cervantes,San Angelo Lake View,,,,,,Single-ply,SBD,F
Girls,,NS,Cassedy Montelongo,San Angelo Lake View,,,,,,Single-ply,SBD,F
Girls,,NS,Aurora Collette,Ozona,,,,,,Single-ply,SBD,F
Girls,,NS,Desiree Bass,McCamey,,,,,,Single-ply,SBD,F
Girls,,NS,Taylor Parmer,Iraan,,,,,,Single-ply,SBD,F
Girls,,NS,Aylin Hernandez,McCamey,,,,,,Single-ply,SBD,F
Girls,,NS,Lexi Castaneda,Big Lake Reagan County,,,,,,Single-ply,SBD,F
Girls,,NS,Karisma Gutierrez,Crane,,,,,,Single-ply,SBD,F
