Division,WeightClassKg,Place,Name,Team,BodyweightKg,Best3SquatKg,Best3BenchKg,Best3DeadliftKg,TotalKg,Equipment,Event,Sex
Boys,51.71,1,Nathan Mendiaz,Monahans,46.72,161.03,97.52,151.95,410.5,Single-ply,SBD,M
Boys,51.71,2,Christian Solis,Pecos,51.26,86.18,72.57,127.01,285.76,Single-ply,SBD,M
Boys,51.71,3,Andrick Ramirez,Fort Stockton,47.63,108.86,58.97,106.59,274.42,Single-ply,SBD,M
Boys,51.71,4,Auden Almance,Odessa,47.63,106.59,52.16,115.67,274.42,Single-ply,SBD,M
Boys,51.71,5,Morris Norman,Big Spring,46.27,90.72,63.5,113.4,267.62,Single-ply,SBD,M
Boys,51.71,6,Scott Sullivan,Midland Lee,49.9,77.11,49.9,90.72,217.72,Single-ply,SBD,M
Boys,55.79,1,Sean Mendoza,Big Spring,53.98,131.54,61.23,138.35,331.12,Single-ply,SBD,M
Boys,55.79,2,Cruz Martinez,Big Spring,55.34,131.54,68.04,117.93,317.51,Single-ply,SBD,M
Boys,55.79,3,Andrew Martinez,Pecos,55.79,92.99,83.91,97.52,274.42,Single-ply,SBD,M
Boys,59.87,1,Nathan Olguin,Monahans,57.61,145.15,79.38,149.69,374.21,Single-ply,SBD,M
Boys,59.87,2,Oscar Vasquez,Monahans,57.15,133.81,70.31,147.42,351.53,Single-ply,SBD,M
Boys,59.87,3,Joshua Lopez,Big Spring,58.51,138.35,68.04,145.15,351.53,Single-ply,SBD,M
Boys,59.87,4,Adrian Martinez,Odessa,59.42,136.08,68.04,136.08,340.19,Single-ply,SBD,M
Boys,59.87,5,Juan Ortega,Pecos,59.51,131.54,74.84,127.01,333.39,Single-ply,SBD,M
Boys,67.13,1,Brandon Victorino,Alpine,66.22,190.51,111.13,190.51,492.15,Single-ply,SBD,M
Boys,67.13,2,Slade Edwards,Seminole,61.23,136.08,74.84,133.81,344.73,Single-ply,SBD,M
Boys,74.84,1,Nestor Jiminez,Midland Lee,73.03,204.12,122.47,249.48,576.06,Single-ply,SBD,M
Boys,74.84,2,Ryan Orona,Pecos,74.84,185.97,133.81,217.72,537.51,Single-ply,SBD,M
Boys,74.84,3,Ayden Pacheco,Andrews,72.57,210.92,117.93,201.85,530.7,Single-ply,SBD,M
Boys,74.84,4,Y'Mari Collins,Midland Lee,73.94,192.78,120.2,201.85,514.83,Single-ply,SBD,M
Boys,74.84,5,Ransom Edwards,Seminole,70.31,208.65,99.79,199.58,508.02,Single-ply,SBD,M
Boys,74.84,6,Jonathan Bostick,Midland Lee,73.94,181.44,120.2,181.44,483.08,Single-ply,SBD,M
Boys,74.84,7,Ernesto Ornelas,Monahans,74.84,174.63,117.93,183.7,476.27,Single-ply,SBD,M
Boys,74.84,8,Devin Mora,Andrews,72.12,195.04,113.4,158.76,467.2,Single-ply,SBD,M
Boys,74.84,9,Devin Doerksen,Seminole,69.85,181.44,95.25,163.29,439.98,Single-ply,SBD,M
Boys,74.84,10,Austin Ramirez,Crane,73.03,151.95,92.99,147.42,392.36,Single-ply,SBD,M
Boys,82.1,1,Esau Flores,Andrews,79.83,195.04,108.86,197.31,501.22,Single-ply,SBD,M
Boys,82.1,2,Fisher Baker,Alpine,78.93,154.22,111.13,183.7,449.06,Single-ply,SBD,M
Boys,82.1,3,Axel Nuno,Crane,77.11,158.76,95.25,151.95,405.97,Single-ply,SBD,M
Boys,82.1,4,Drew Clendenen,Crane,81.65,138.35,61.23,149.69,349.27,Single-ply,SBD,M
Boys,89.81,1,Jesus Lopez,Andrews,88,217.72,133.81,204.12,555.65,Single-ply,SBD,M
Boys,89.81,2,Hulen Hubbard,Midland Lee,89.81,201.85,138.35,199.58,539.77,Single-ply,SBD,M
Boys,89.81,3,Joe Caro,Seminole,88,201.85,106.59,229.06,537.51,Single-ply,SBD,M
Boys,89.81,4,Beau Narrell,Andrews,89.36,204.12,106.59,219.99,530.7,Single-ply,SBD,M
Boys,89.81,5,Damon Casarez,Seminole,86.18,206.38,117.93,204.12,528.44,Single-ply,SBD,M
Boys,89.81,6,Richard Contreras,Alpine,88.45,190.51,140.61,181.44,512.56,Single-ply,SBD,M
Boys,89.81,7,Gary Brooks,Odessa,89.36,192.78,115.67,174.63,483.08,Single-ply,SBD,M
Boys,89.81,8,Sam Clendenen,Crane,88.9,163.29,102.06,165.56,430.91,Single-ply,SBD,M
Boys,99.79,1,Dylan Goode,Midland Lee,99.79,226.8,129.27,215.46,571.53,Single-ply,SBD,M
Boys,99.79,2,Ariel Delgado,Seminole,94.8,204.12,111.13,222.26,537.51,Single-ply,SBD,M
Boys,99.79,3,Octavio Frausto,Andrews,91.17,201.85,113.4,197.31,512.56,Single-ply,SBD,M
Boys,99.79,DQ,Max Zuniga,Crane,98.43,,,,,Single-ply,SBD,M
Boys,99.79,DQ,Francisco Nave,Odessa,92.53,199.58,106.59,,,Single-ply,SBD,M
Boys,99.79,DQ,Hayden Pipkin,Monahans,93.89,222.26,154.22,,,Single-ply,SBD,M
Boys,109.77,1,Brandon Contreras,Andrews,107.05,256.28,124.74,208.65,589.67,Single-ply,SBD,M
Boys,109.77,2,Andrew Roberts,Big Spring,109.77,163.29,108.86,161.03,433.18,Single-ply,SBD,M
Boys,109.77,3,Crespin Mendoza,Pecos,101.15,136.08,108.86,156.49,401.43,Single-ply,SBD,M
Boys,109.77,DQ,Joel Estrella,Andrews,107.95,217.72,120.2,,,Single-ply,SBD,M
Boys,124.74,1,Jose Calderon,Monahans,122.92,197.31,154.22,185.97,537.51,Single-ply,SBD,M
Boys,124.74,2,Daniel Roberts,Big Spring,112.49,165.56,106.59,167.83,439.98,Single-ply,SBD,M
Boys,124.74,3,Josh Price,Pecos,123.74,167.83,106.59,149.69,424.11,Single-ply,SBD,M
Boys,124.74,4,Christian Machuca,Pecos,114.94,131.54,99.79,154.22,385.55,Single-ply,SBD,M
Boys,124.74,DQ,Nathan Palos,Crane,113.85,,,,,Single-ply,SBD,M
Boys,124.74+,1,Izak Leyva,Monahans,167.83,240.4,151.95,222.26,614.62,Single-ply,SBD,M
Boys,124.74+,2,Austin Kelly,Seminole,126.55,224.53,140.61,208.65,573.79,Single-ply,SBD,M
Boys,124.74+,3,Ralph Navarette,Crane,151.5,226.8,127.01,210.92,564.72,Single-ply,SBD,M
Boys,124.74+,4,Zach Garcia,Pecos,144.74,238.14,127.01,183.7,548.85,Single-ply,SBD,M
Boys,124.74+,5,Kwinton Jennings,Seminole,126.1,213.19,115.67,183.7,512.56,Single-ply,SBD,M
Boys,124.74+,6,Albert Aguilar,Pecos,150.23,199.58,147.42,156.49,503.49,Single-ply,SBD,M
Boys,124.74+,7,Sebastian Sanchez,Pecos,125.65,154.22,90.72,158.76,403.7,Single-ply,SBD,M
Boys,124.74+,DQ,Luis Jauregui,Monahans,128.37,224.53,133.81,,,Single-ply,SBD,M
