Name,WeightClassKg,Squat1Kg,Squat2Kg,Squat3Kg,Best3SquatKg,Bench1Kg,Bench2Kg,Bench3Kg,Best3BenchKg,Deadlift1Kg,Deadlift2Kg,Deadlift3Kg,Best3DeadliftKg,TotalKg,Sex,Event,Equipment,Place,BirthDate
Andrey Malanichev,140+,440,460,485,485,-240,240,255,255,350,375,400,400,1140,M,SBD,Wraps,1,
Shawn Doyle,140+,385,410,420,420,235,-252.5,252.5,252.5,375,-410,-410,375,1047.5,M,SBD,Wraps,2,1985-06-05
Chad Wesley Smith,140+,420,-445,-445,420,245,-255,-255,245,345,365,-372.5,365,1030,M,SBD,Wraps,3,
Gawain Johnstone,140+,375,410,420,420,190,-205,-205,190,330,370,-390,370,980,M,SBD,Wraps,4,
Matt Fryfogle,140+,375,390,400,400,237.5,-247.5,-247.5,237.5,-325,325,335,335,972.5,M,SBD,Wraps,5,
Rhyss Keane,140+,340,360,375,375,220,227.5,232.5,232.5,350,-370,-370,350,957.5,M,SBD,Wraps,6,
Luke Poli,140+,340,370,-385,370,210,230,235,235,305,327.5,-337.5,327.5,932.5,M,SBD,Wraps,7,
Eric Lilliebridge,140+,-425,-455,-455,,,,,,,,,,,M,SBD,Wraps,DQ,1990-03-07
