Sex,Equipment,Division,WeightClassKg,State,Name,BodyweightKg,Best3SquatKg,Best3BenchKg,Best3DeadliftKg,TotalKg,Event,Place
F,Wraps,Amateur Masters 45-49,56,NY,Marinea Bonenfant,55.97,111.13,63.5,142.88,317.51,SBD,1
F,Wraps,Amateur Masters 70-74,60,NY,Joanne Skerritt,59.96,68.04,34.02,83.91,185.97,SBD,1
F,Wraps,Amateur Open,60,NY,Kim Yelle,59.96,120.2,61.23,149.69,331.12,SBD,1
F,Wraps,Amateur Juniors 20-23,67.5,NY,Haley Sutton,65.77,111.13,68.04,140.61,319.78,SBD,1
F,Wraps,Amateur Teen 14-15,67.5,NY,Kendall Abbey,63.59,138.35,68.04,125.87,332.26,SBD,1
F,Wraps,Amateur Open,67.5,NY,Kendall Abbey,63.59,138.35,68.04,125.87,332.26,SBD,1
F,Raw,Amateur Open,75,NY,Rachel Ruwet,69.49,102.06,61.23,122.47,285.76,SBD,1
F,Raw,Amateur Submasters 33-39,75,VT,Erica Simister,73.48,106.59,52.16,161.03,319.78,SBD,1
F,Wraps,Amateur Masters 40-44,82.5,NY,Samara Petty,76.29,106.59,61.23,122.47,290.3,SBD,1
F,Wraps,Amateur Open,82.5,VT,Cristina Kumka,81.28,151.95,74.84,165.56,392.36,SBD,1
F,Wraps,Amateur Open,82.5,VT,Danielle Phillips,79.11,136.08,77.11,163.29,376.48,SBD,2
F,Wraps,Amateur Open,82.5,NY,Tonya Deese,78.93,108.86,54.43,158.76,322.05,SBD,3
F,Wraps,Amateur Submasters 33-39,82.5,VT,Cristina Kumka,81.28,151.95,74.84,165.56,392.36,SBD,1
F,Wraps,Amateur Masters 45-49,90,NY,Theresa Girrard,88.99,136.08,77.11,158.76,371.95,SBD,1
M,Wraps,Amateur Teen 14-15,60,NY,Ethan M. Schwaner,58.24,70.31,43.09,81.65,195.04,SBD,1
M,Raw,Amateur Teen 18-19,67.5,NY,Joseph Paola,66.95,129.27,111.13,170.1,410.5,SBD,1
M,Wraps,Pro Open,75,ME,Mark Aceto,72.39,197.31,115.67,210.92,523.9,SBD,1
M,Raw,Amateur Masters 50-54,82.5,VT,Rick Lamarch,81.83,188.24,127.01,247.21,562.45,SBD,1
M,Raw,Amateur Open,82.5,NY,Heath Andre,82.44,199.58,140.61,249.48,589.67,SBD,1
M,Raw,Amateur Open,82.5,NY,Justin Crawford,77.56,161.03,88.45,192.78,442.25,SBD,2
M,Raw,Amateur Open,82.5,NY,Colin Liebert,76.02,72.57,63.5,81.65,217.72,SBD,3
M,Raw,Special Olympics,82.5,NY,Colin Liebert,76.02,72.57,63.5,81.65,217.72,SBD,1
M,Wraps,Amateur Juniors 20-23,82.5,ME,Schuyler Aylward-Frank,81.47,142.88,108.86,188.24,439.98,SBD,1
M,Raw,Amateur Masters 50-54,90,VT,Jason Curry,89.27,204.12,167.83,235.87,607.81,SBD,1
M,Raw,Amateur Open,90,VT,Jason Curry,89.27,204.12,167.83,235.87,607.81,SBD,1
M,Raw,Amateur Submasters 33-39,90,VT,Joel Daugreilh,84.82,136.08,97.52,226.8,460.4,SBD,1
M,Single-ply,Amateur Submasters 33-39,90,ME,Brock Houle,89.45,158.76,122.47,183.7,464.93,SBD,1
M,Wraps,Police Pro Open,90,NY,Robert Recore,89.99,256.28,190.51,310.71,757.5,SBD,1
M,Wraps,Amateur Juniors 20-23,100,VT,Cody Begnoche,99.88,249.48,158.76,308.44,716.68,SBD,1
M,Wraps,Amateur Open,100,ME,Paul Vidmar,91.08,240.4,154.22,249.48,644.1,SBD,1
M,Raw,Amateur Masters 45-49,110,NH,Jeremy Hilz,103.51,210.92,136.08,288.03,635.03,SBD,1
M,Raw,Amateur Open,110,NH,Jeremy Hilz,103.51,210.92,136.08,288.03,635.03,SBD,1
M,Wraps,Amateur Juniors 20-23,110,NY,Gage Bourdeau,109.95,297.1,154.22,260.82,712.14,SBD,1
M,Wraps,Amateur Juniors 20-23,110,VT,Keaton Simmons,108.5,199.58,149.69,208.65,557.92,SBD,2
M,Wraps,Amateur Open,110,NY,Gage Bourdeau,109.95,297.1,154.22,260.82,712.14,SBD,1
M,Wraps,Amateur Open,110,NY,Rob Petty,102.51,136.08,102.06,181.44,419.57,SBD,2
M,Wraps,Amateur Juniors 20-23,125,NY,Jody Hermance,124.74,244.94,149.69,244.94,639.57,SBD,1
M,Wraps,Amateur Open,125,VT,James Stillings,120.47,254.01,165.56,290.3,709.87,SBD,1
M,Wraps,Amateur Open,125,NY,James Appleton,116.3,233.6,138.35,283.5,655.44,SBD,2
M,Wraps,Elite Open,140,ME,Harold Spetla III,133.81,356.07,199.58,328.85,884.51,SBD,1
M,Raw,Amateur Open,110,MA,Dan Grozier,107.41,,165.56,,165.56,B,1
M,Raw,Amateur Open,110,MA,Chris Madden,107.77,,149.69,,149.69,B,2
M,Raw,Amateur Masters 55-59,100,NY,Dan Welch,97.61,,136.08,,136.08,B,1
M,Raw,Pro Open,125,ME,Mike Lawrence,120.38,,213.19,,213.19,B,1
M,Raw,Amateur Masters 45-49,90,NY,Brian Sheldon,87.91,,124.74,,124.74,B,1
F,Raw,Amateur Juniors 20-23,82.5,NY,Jena Soper,78.38,,68.04,179.17,247.21,BD,1
M,Raw,Amateur Youth,75,,Kole Matta,74.57,,65.77,149.69,215.46,BD,1
M,Raw,Amateur Masters 50-54,125,VT,Jason Cook,121.38,,92.99,149.69,242.67,BD,1
M,Raw,Amateur Open,67.5,VT,Peter Bayliss,66.59,,106.59,181.44,288.03,BD,1
F,Raw,Amateur Masters 40-44,60,NY,Nancy Underwood,59.42,,,136.08,136.08,D,1
