Name,Team,BodyweightKg,WeightClassKg,Squat1Kg,Squat2Kg,Squat3Kg,Best3SquatKg,Bench1Kg,Bench2Kg,Bench3Kg,Best3BenchKg,Deadlift1Kg,Deadlift2Kg,Deadlift3Kg,Best3DeadliftKg,TotalKg,Place,Event,Equipment,Sex,Division
Shishir Sikder,GL,57.65,59,140,147.5,150,150,87.5,90,92.5,92.5,175,182.5,190,190,432.5,1,SBD,Raw,M,M-C-Open
Dean Barton,NW,56.85,59,137.5,145,147.5,147.5,77.5,82.5,-85,82.5,175,187.5,-202.5,187.5,417.5,2,SBD,Raw,M,M-C-Open
Jesse Johnson,NM,57.85,59,115,-122.5,122.5,122.5,85,92.5,95,95,165,180,-202.5,180,397.5,3,SBD,Raw,M,M-C-Open
David Gray,WM,64.05,66,180,190,195,195,125,-132.5,-132.5,125,220,232.5,-242.5,232.5,552.5,1,SBD,Raw,M,M-C-Open
Andrew Dawes,SE,64.25,66,185,197.5,202.5,202.5,110,120,-127.5,120,205,220,227.5,227.5,550,2,SBD,Raw,M,M-C-Open
John Phillips,SW,65.95,66,172.5,182.5,190,190,110,117.5,-122.5,117.5,202.5,215,220,220,527.5,3,SBD,Raw,M,M-C-Open
Richard Gallagher,YNE,64.25,66,157.5,162.5,-167.5,162.5,117.5,122.5,-125,122.5,215,222.5,-230,222.5,507.5,4,SBD,Raw,M,M-C-Open
Mahfuzur Rahman,GL,64.5,66,170,180,-187.5,180,95,100,105,105,-192.5,-195,195,195,480,5,SBD,Raw,M,M-C-Open
Shaun Bateman,SW,64.95,66,150,-160,-160,150,110,115,120,120,180,-190,190,190,460,6,SBD,Raw,M,M-C-Open
Joseph Diva,GL,64.45,66,-172.5,-180,-180,,105,112.5,117.5,117.5,205,212.5,-215,212.5,,DQ,SBD,Raw,M,M-C-Open
James Duff,YNE,73.45,74,225,235,241,241,132.5,140,-142.5,140,255,267.5,277.5,277.5,658.5,1,SBD,Raw,M,M-C-Open
Christopher Wong,SCO,72.35,74,220,227.5,235,235,130,135,137.5,137.5,265,280,-286,280,652.5,2,SBD,Raw,M,M-C-Open
Paul Cooper,YNE,73.3,74,195,-207.5,207.5,207.5,155,-162.5,162.5,162.5,270,280,-285,280,650,3,SBD,Raw,M,M-C-Open
Luke Rogers,WM,73.9,74,222.5,235,-240.5,235,125,130,-132.5,130,247.5,265,-270,265,630,4,SBD,Raw,M,M-C-Open
Scott Bradwell,YNE,73.2,74,195,-207.5,210,210,140,147.5,150,150,225,237.5,245,245,605,5,SBD,Raw,M,M-C-Open
Daniel Smith,SM,73.05,74,210,217.5,222.5,222.5,140,-145,145,145,-225,-225,225,225,592.5,6,SBD,Raw,M,M-C-Open
Steven Tyers,SW,72.95,74,182.5,195,-202.5,195,127.5,135,-140,135,225,240,250,250,580,7,SBD,Raw,M,M-C-Open
Chris Sumner,SM,73,74,170,180,190,190,115,122.5,130,130,220,230,240,240,560,8,SBD,Raw,M,M-C-Open
Chris Lindley,YNE,72.9,74,-190,195,202.5,202.5,115,120,-125,120,200,215,-217.5,215,537.5,9,SBD,Raw,M,M-C-Open
Chris Kershaw,YNE,72.85,74,190,205,-207.5,205,140,-150,-150,140,180,-192.5,-192.5,180,525,10,SBD,Raw,M,M-C-Open
Sean Kilbride,YNE,71.95,74,180,-190,-190,180,-130,130,-140,130,190,205,212.5,212.5,522.5,11,SBD,Raw,M,M-C-Open
Owen Hubbard,WAL,79.5,83,250,260,-272.5,260,190,200,208.5,208.5,240,255,-270,255,723.5,1,SBD,Raw,M,M-C-Open
Daniel Bedford,YNE,82.15,83,220,232.5,-240,232.5,145,152.5,-155,152.5,250,265,272.5,272.5,657.5,2,SBD,Raw,M,M-C-Open
Mark Hodgett,NM,82.55,83,200,215,-220,215,137.5,147.5,152.5,152.5,267.5,280,-291,280,647.5,3,SBD,Raw,M,M-C-Open
Dan Ben-Chorin,GL,82.25,83,215,225,235,235,135,145,150,150,240,257.5,-267.5,257.5,642.5,4,SBD,Raw,M,M-C-Open
Ben Croft,YNE,82.05,83,210,222.5,-225,222.5,137.5,-140,-140,137.5,240,260,-270,260,620,5,SBD,Raw,M,M-C-Open
Alex Burrell,SW,82.45,83,195,205,215,215,125,132.5,140,140,240,252.5,265,265,620,6,SBD,Raw,M,M-C-Open
Dan Gibson,YNE,81.2,83,185,200,210,210,125,135,140,140,205,227.5,240,240,590,7,SBD,Raw,M,M-C-Open
Dean Robertson,SCO,80.75,83,180,190,200,200,120,135,140,140,220,-235,235,235,575,8,SBD,Raw,M,M-C-Open
Jurins Kengamu,GL,81.25,83,212.5,220,-222.5,220,-152.5,-152.5,-152.5,,,,,,,DQ,SBD,Raw,M,M-C-Open
Pierre Shillingford,GL,91.2,93,230,240,247.5,247.5,157.5,167.5,175,175,277.5,292.5,-297.5,292.5,715,1,SBD,Raw,M,M-C-Open
Robert Rogers,GL,90.5,93,240,250,257.5,257.5,150,157.5,162.5,162.5,270,282.5,290,290,710,2,SBD,Raw,M,M-C-Open
Carl Louden,SE,91.7,93,220,230,240,240,177.5,185,187.5,187.5,255,272.5,282.5,282.5,710,3,SBD,Raw,M,M-C-Open
Jeff Ocrah,GL,92.4,93,225,237.5,-247.5,237.5,142.5,155,165,165,280,300,-315,300,702.5,4,SBD,Raw,M,M-C-Open
Jason Coultman,GL,91.9,93,240,250,257.5,257.5,140,150,157.5,157.5,255,272.5,285,285,700,5,SBD,Raw,M,M-C-Open
Robert Rodney,GL,90.2,93,230,-240,240,240,150,155,-160,155,270,287.5,300,300,695,6,SBD,Raw,M,M-C-Open
Devon Blackwood,NM,90.5,93,240,255,-262.5,255,150,160,165,165,250,270,-282.5,270,690,7,SBD,Raw,M,M-C-Open
Henry Tosh,SW,91.3,93,200,210,215,215,160,170,172.5,172.5,270,290,300,300,687.5,8,SBD,Raw,M,M-C-Open
Scott Mulheron,SCO,88.2,93,240,257.5,-262.5,257.5,130,135,-137.5,135,240,255,267.5,267.5,660,9,SBD,Raw,M,M-C-Open
Aleem Majid,WM,92,93,235,245,-255,245,-140,145,-152.5,145,240,250,260,260,650,10,SBD,Raw,M,M-C-Open
Alex Tosh,SW,89,93,200,210,215,215,150,160,165,165,240,260,267.5,267.5,647.5,11,SBD,Raw,M,M-C-Open
Gavin Clark,NW,90.9,93,-220,-220,220,220,150,160,-165,160,230,250,-260,250,630,12,SBD,Raw,M,M-C-Open
Diego Martinex-Rodney,GL,89.2,93,220,-230,-230,220,130,137.5,-142.5,137.5,250,270,-275,270,627.5,13,SBD,Raw,M,M-C-Open
Tim Garrett,YNE,92.2,93,210,222.5,232.5,232.5,117.5,125,130,130,235,250,260,260,622.5,14,SBD,Raw,M,M-C-Open
Danny Willgoss,EM,90.4,93,205,215,220,220,130,-137.5,-137.5,130,230,245,-260,245,595,15,SBD,Raw,M,M-C-Open
Stephen Manuel,NW,102.25,105,300,315,325,325,190,202.5,209,209,300,330.5,335.5,335.5,869.5,1,SBD,Raw,M,M-C-Open
Michael Pennington,NM,102.55,105,260,270,280,280,192.5,200,-208,200,310,331,-333,331,811,2,SBD,Raw,M,M-C-Open
Robert Rees,GL,103.8,105,235,250,257.5,257.5,165,175,180,180,300,310,-315,310,747.5,3,SBD,Raw,M,M-C-Open
Thomas Brannick,NM,102.2,105,240,255,265,265,172.5,182.5,-190,182.5,275,285,-290,285,732.5,4,SBD,Raw,M,M-C-Open
Russ Kirby,SE,103.3,105,250,265,272.5,272.5,182.5,-190,-190,182.5,265,275,-280,275,730,5,SBD,Raw,M,M-C-Open
Paul Bennett #1,YNE,103.95,105,235,252.5,260,260,160,-165,,160,282.5,302.5,-312.5,302.5,722.5,6,SBD,Raw,M,M-C-Open
David Watkins #1,GL,104.85,105,-240,250,257.5,257.5,125,135,-140,135,280,307.5,310,310,702.5,7,SBD,Raw,M,M-C-Open
Will Knowland,SM,103.25,105,235,250,257.5,257.5,152.5,162.5,170,170,245,257.5,267.5,267.5,695,8,SBD,Raw,M,M-C-Open
Reece Smith,GL,104.65,105,230,242.5,-250,242.5,152.5,-157.5,157.5,157.5,260,280,-287.5,280,680,9,SBD,Raw,M,M-C-Open
Thomas Celestin,GL,99.85,105,232.5,-242.5,242.5,242.5,122.5,-125,,122.5,287.5,310,-315,310,675,10,SBD,Raw,M,M-C-Open
Michael Patterson,SM,103.25,105,-230,230,245,245,147.5,155,-162.5,155,260,275,-287.5,275,675,11,SBD,Raw,M,M-C-Open
George Seeger,GL,103.35,105,205,-220,225,225,140,147.5,,147.5,270,290,300,300,672.5,12,SBD,Raw,M,M-C-Open
Andrew Forbes,YNE,103.9,105,242.5,252.5,-260,252.5,150,157.5,-160,157.5,250,262.5,-267.5,262.5,672.5,13,SBD,Raw,M,M-C-Open
Aaron Cooper #1,EM,97.45,105,205,222.5,230,230,130,140,-147.5,140,235,252.5,260,260,630,14,SBD,Raw,M,M-C-Open
Dan Dring,WM,96.85,105,-220,-220,220,220,120,127.5,-132.5,127.5,260,-280,-280,260,607.5,15,SBD,Raw,M,M-C-Open
Tony Cliffe,EM,119.5,120,310,-325,325,325,210,225,230,230,310,335,357.5,357.5,912.5,1,SBD,Raw,M,M-C-Open
Iain McConnachie,SW,114.95,120,300,315,-325,315,180,192.5,200,200,270,285,-300,285,800,2,SBD,Raw,M,M-C-Open
Luke Conboy,YNE,117.55,120,270,280,292.5,292.5,170,180,-190,180,270,290,297.5,297.5,770,3,SBD,Raw,M,M-C-Open
Francis Sanders,EM,113.35,120,-245,255,265,265,152.5,162.5,-167.5,162.5,300,320,-325,320,747.5,4,SBD,Raw,M,M-C-Open
Daniel Lindsell,EM,117.15,120,240,252.5,260,260,182.5,190,195,195,285,-300,,285,740,5,SBD,Raw,M,M-C-Open
Tom Shaw,SE,119.65,120,232.5,242.5,250,250,135,140,-145,140,280,292.5,302.5,302.5,692.5,6,SBD,Raw,M,M-C-Open
Nathan Turner,NM,115.9,120,240,-255,255,255,165,172.5,-175,172.5,235,250,260,260,687.5,7,SBD,Raw,M,M-C-Open
Rhett Lloyd Milton,EM,107.95,120,220,230,-235,230,165,170,-172.5,170,260,270,275,275,675,8,SBD,Raw,M,M-C-Open
Mike Roberts,SW,107.7,120,212.5,222.5,230,230,145,152.5,157.5,157.5,252.5,265,275,275,662.5,9,SBD,Raw,M,M-C-Open
Christopher Farrow,NM,116.25,120,220,-232.5,232.5,232.5,150,157.5,162.5,162.5,250,265,-272.5,265,660,10,SBD,Raw,M,M-C-Open
Michael Jones,WAL,167.75,120+,290,310,320,320,205,215,222.5,222.5,305,325,340,340,882.5,1,SBD,Raw,M,M-C-Open
Jordan McLaughlin,NW,133.25,120+,300,320,-325,320,205,217.5,-228.5,217.5,292.5,302.5,-305,302.5,840,2,SBD,Raw,M,M-C-Open
Aaron Thompson,NM,153.8,120+,290,310,317.5,317.5,175,182.5,187.5,187.5,295,310,-337.5,310,815,3,SBD,Raw,M,M-C-Open
Asif Ahmed,GL,135.85,120+,280,295,305,305,160,165,170,170,280,-295,295,295,770,4,SBD,Raw,M,M-C-Open
Andy Foster,NW,129.25,120+,272.5,-287.5,-287.5,272.5,185,-192.5,-192.5,185,280,292.5,302.5,302.5,760,5,SBD,Raw,M,M-C-Open
Mitchal Flowers,SW,150.65,120+,270,-285,285,285,170,-180,-180,170,280,290,-297.5,290,745,6,SBD,Raw,M,M-C-Open
Francesco Pelizza,SCO,120.75,120+,250,-265,-265,250,165,180,-190,180,240,260,275,275,705,7,SBD,Raw,M,M-C-Open
Andrew Rodney,EM,121.25,120+,230,,,230,167.5,177.5,180,180,260,290,-310,290,700,8,SBD,Raw,M,M-C-Open
Maximilian Semple,WAL,133.85,120+,210,225,235,235,120,132.5,142.5,142.5,260,272.5,,272.5,650,9,SBD,Raw,M,M-C-Open
