Division,WeightClassKg,Place,Name,Team,BodyweightKg,Best3SquatKg,Best3BenchKg,Best3DeadliftKg,TotalKg,Equipment,Event,Sex
Boys,51.71,1,Carlos Raya,Plainview,51.35,140.61,95.25,138.35,374.21,Single-ply,SBD,M
Boys,51.71,2,Anthony Washington,Plainview,51.62,136.08,63.5,147.42,347,Single-ply,SBD,M
Boys,51.71,3,Derek Adame,Plainview,51.44,129.27,56.7,127.01,312.98,Single-ply,SBD,M
Boys,55.79,4,Weston Hartmann,Abilene,51.89,120.2,68.04,124.74,312.98,Single-ply,SBD,M
Boys,51.71,5,Corey Footer,Abilene Cooper,48.26,74.84,52.16,90.72,217.72,Single-ply,SBD,M
Boys,51.71,NS,JaQuanye Lyons,Midland Lee,,,,,,Single-ply,SBD,M
Boys,51.71,DQ,Davin Luna,Plainview,51.35,,,,,Single-ply,SBD,M
Boys,51.71,DQ,Josh Garcia,San Angelo Central,51.62,,,,,Single-ply,SBD,M
Boys,55.79,1,Shirmar Jennings,Plainview,54.88,208.65,108.86,199.58,517.1,Single-ply,SBD,M
Boys,55.79,2,Jesse Ramirez,San Angelo Lake View,54.88,176.9,104.33,172.37,453.59,Single-ply,SBD,M
Boys,55.79,3,Zane Ponder,Plainview,54.88,158.76,70.31,151.95,381.02,Single-ply,SBD,M
Boys,55.79,4,Jonathon Rodriguez,Abilene Cooper,55.43,129.27,74.84,151.95,356.07,Single-ply,SBD,M
Boys,55.79,5,Brandon Lee,San Angelo Lake View,55.7,140.61,65.77,149.69,356.07,Single-ply,SBD,M
Boys,55.79,6,Andrew Flores,Abilene,54.25,117.93,63.5,122.47,303.91,Single-ply,SBD,M
Boys,55.79,7,Justin Hall,Midland Lee,55.25,113.4,68.04,115.67,297.1,Single-ply,SBD,M
Boys,55.79,NS,Michael Allen,Odessa Permian,,,,,,Single-ply,SBD,M
Boys,55.79,DQ,Luis Castro,Plainview,55.79,120.2,,,,Single-ply,SBD,M
Boys,67.13,1,Josh Binder,Midland,59.96,151.95,99.79,174.63,426.38,Single-ply,SBD,M
Boys,59.87,2,Jeremy Reyes,Odessa,59.78,142.88,79.38,176.9,399.16,Single-ply,SBD,M
Boys,59.87,3,Zack Rosas,Plainview,59.78,149.69,77.11,147.42,374.21,Single-ply,SBD,M
Boys,59.87,4,John Iragena,Abilene Cooper,58.51,140.61,79.38,149.69,369.68,Single-ply,SBD,M
Boys,59.87,5,Zach Gil,Abilene Cooper,58.6,108.86,74.84,117.93,301.64,Single-ply,SBD,M
Boys,67.13,DQ,Colton Stoker,Abilene,60.1,,,,,Single-ply,SBD,M
Boys,59.87,NS,Ryan Cole,Canyon,,,,,,Single-ply,SBD,M
Boys,59.87,NS,Alexander Garcia,Plainview,,,,,,Single-ply,SBD,M
Boys,59.87,NS,Boston Justus,Wolfforth Frenship,,,,,,Single-ply,SBD,M
Boys,59.87,DQ,Stephen Seely,San Angelo Lake View,58.97,136.08,81.65,,,Single-ply,SBD,M
Boys,67.13,DQ,Carson Williams,Plainview,60.06,133.81,,,,Single-ply,SBD,M
Boys,59.87,DQ,James Vasquez,Wolfforth Frenship,57.61,,,,,Single-ply,SBD,M
Boys,67.13,1,Thomas Garcia,Midland,67.04,204.12,136.08,215.46,555.65,Single-ply,SBD,M
Boys,67.13,2,Ivan Arroyo,Odessa,64.32,190.51,129.27,192.78,512.56,Single-ply,SBD,M
Boys,67.13,3,Lincoln Zapata,Plainview,65.23,190.51,104.33,192.78,487.61,Single-ply,SBD,M
Boys,67.13,4,Alex De La Rosa,Abilene Cooper,67.13,181.44,120.2,170.1,471.74,Single-ply,SBD,M
Boys,67.13,5,Edson DeHoyas,San Angelo Central,65.05,170.1,104.33,181.44,455.86,Single-ply,SBD,M
Boys,67.13,6,Robert Sauceda,San Angelo Central,65.77,165.56,102.06,176.9,444.52,Single-ply,SBD,M
Boys,67.13,7,Julio Dominguez,San Angelo Lake View,66.13,158.76,95.25,188.24,442.25,Single-ply,SBD,M
Boys,67.13,8,Julian Nevarez,Dumas,62.32,140.61,104.33,192.78,437.72,Single-ply,SBD,M
Boys,67.13,9,Corey Boone,Abilene Cooper,65.41,167.83,81.65,176.9,426.38,Single-ply,SBD,M
Boys,67.13,DQ,Cameron Hurd,Midland,66.41,149.69,81.65,174.63,,Single-ply,SBD,M
Boys,67.13,NS,Zane Clark,Canyon,,,,,,Single-ply,SBD,M
Boys,67.13,NS,Terrance Sims,Abilene Cooper,,,,,,Single-ply,SBD,M
Boys,67.13,NS,Jonathon Swartzenberg,Canyon Randall,,,,,,Single-ply,SBD,M
Boys,67.13,NS,Jeremy Reyes,Odessa,,,,,,Single-ply,SBD,M
Boys,67.13,NS,Mario Ramirez,Odessa,,,,,,Single-ply,SBD,M
Boys,74.84,1,Angel Moreno,San Angelo Lake View,70.94,226.8,115.67,204.12,546.58,Single-ply,SBD,M
Boys,74.84,2,Zack Ponder,Plainview,73.3,226.8,104.33,206.38,537.51,Single-ply,SBD,M
Boys,74.84,3,Xzavier Martinez,Midland,70.67,197.31,122.47,204.12,523.9,Single-ply,SBD,M
Boys,74.84,4,Aaron Cantu,Abilene Cooper,72.85,183.7,129.27,195.04,508.02,Single-ply,SBD,M
Boys,74.84,5,Dillon Stevens,Wolfforth Frenship,74.21,195.04,106.59,197.31,498.95,Single-ply,SBD,M
Boys,74.84,6,Joaquin Rivero,San Angelo Central,74.3,183.7,106.59,174.63,464.93,Single-ply,SBD,M
Boys,74.84,7,Nicky Hoang,Midland,74.3,176.9,83.91,204.12,464.93,Single-ply,SBD,M
Boys,74.84,8,Holt Eads,Midland,72.94,165.56,106.59,188.24,460.4,Single-ply,SBD,M
Boys,74.84,9,Eric Vega,Plainview,72.94,181.44,88.45,185.97,455.86,Single-ply,SBD,M
Boys,74.84,10,Tyler Gil,Abilene Cooper,73.84,165.56,120.2,,285.76,Single-ply,SB,M
Boys,74.84,DQ,John Hickmott,Abilene Cooper,73.94,149.69,90.72,174.63,,Single-ply,SBD,M
Boys,74.84,DQ,Daniel Salazar,Abilene,74.39,167.83,104.33,165.56,,Single-ply,SBD,M
Boys,74.84,DQ,Damon Delacruz,Abilene,74.3,174.63,97.52,172.37,,Single-ply,SBD,M
Boys,74.84,DQ,Daniel Lockhart,Midland,71.3,172.37,95.25,185.97,,Single-ply,SBD,M
Boys,74.84,DQ,Cesar Saldana,Odessa,72.21,156.49,90.72,188.24,,Single-ply,SBD,M
Boys,82.1,1,Domingo Saucedo,Plainview,81.47,231.33,142.88,215.46,589.67,Single-ply,SBD,M
Boys,82.1,2,Caleb Hudson,San Angelo Lake View,78.29,197.31,113.4,217.72,528.44,Single-ply,SBD,M
Boys,82.1,3,Dayton Dennard,Odessa,78.83,197.31,120.2,201.85,519.36,Single-ply,SBD,M
Boys,82.1,4,Justin Cabezuela,Odessa,82.01,192.78,120.2,201.85,514.83,Single-ply,SBD,M
Boys,82.1,5,Pablo Hernandez,Abilene Cooper,81.83,181.44,117.93,208.65,508.02,Single-ply,SBD,M
Boys,82.1,6,Daniel Cooper,Abilene Cooper,77.56,197.31,108.86,199.58,505.76,Single-ply,SBD,M
Boys,82.1,7,Bailey Settle,Plainview,77.2,195.04,106.59,192.78,494.42,Single-ply,SBD,M
Boys,82.1,8,Abriel Martinez,Abilene,77.56,179.17,113.4,165.56,458.13,Single-ply,SBD,M
Boys,82.1,DQ,Dustin Stille,Abilene Cooper,81.1,161.03,106.59,183.7,,Single-ply,SBD,M
Boys,82.1,DQ,Emilio Solis,Midland,81.56,174.63,102.06,192.78,,Single-ply,SBD,M
Boys,82.1,NS,DruMarcus Austin,Midland Lee,,,,,,Single-ply,SBD,M
Boys,82.1,NS,Brant Brister,Canyon Randall,,,,,,Single-ply,SBD,M
Boys,82.1,NS,Aaron Arellanes,Dumas,,,,,,Single-ply,SBD,M
Boys,82.1,NS,Manuel Gonzales,Plainview,,,,,,Single-ply,SBD,M
Boys,82.1,DQ,Israel Terrazas,Midland,76.75,192.78,,,,Single-ply,SBD,M
Boys,89.81,1,Clayton Clair,Odessa,88.27,215.46,124.74,240.4,580.6,Single-ply,SBD,M
Boys,89.81,2,Coleton Whitlock,Midland,86.82,215.46,136.08,226.8,578.33,Single-ply,SBD,M
Boys,89.81,4,Ethan Barnes,Plainview,89.36,206.38,111.13,222.26,539.77,Single-ply,SBD,M
Boys,89.81,5,Rudy Vasquez,Plainview,88.18,213.19,99.79,219.99,532.97,Single-ply,SBD,M
Boys,89.81,6,Tanner Vestal,Odessa Permian,89.18,190.51,108.86,199.58,498.95,Single-ply,SBD,M
Boys,89.81,7,Patrick Lee,Canyon Randall,88.45,183.7,108.86,204.12,496.68,Single-ply,SBD,M
Boys,89.81,8,Nathaniel Chriesman,Abilene Cooper,89.63,197.31,108.86,181.44,487.61,Single-ply,SBD,M
Boys,89.81,99,William Coleman,Abilene Cooper,89.63,229.06,138.35,226.8,594.21,Single-ply,SBD,M
Boys,89.81,DQ,Damian Guevara,Abilene,86.09,181.44,115.67,174.63,,Single-ply,SBD,M
Boys,89.81,DQ,Jake Yarbrough,Abilene,86.36,181.44,102.06,183.7,,Single-ply,SBD,M
Boys,89.81,DQ,Tom Berry,Abilene,89.72,170.1,113.4,172.37,,Single-ply,SBD,M
Boys,89.81,NS,Xavier Quiroz,Odessa,,,,,,Single-ply,SBD,M
Boys,89.81,NS,Coleman Townsend,Plainview,,,,,,Single-ply,SBD,M
Boys,89.81,DQ,Federico Castro,Plainview,89.09,229.06,,,,Single-ply,SBD,M
Boys,89.81,DQ,Christian Galvan,Plainview,88.18,238.14,,,,Single-ply,SBD,M
Boys,99.79,1,Eric Villegas,Midland,97.52,244.94,142.88,240.4,628.23,Single-ply,SBD,M
Boys,99.79,2,Erik Mendez,Plainview,98.61,219.99,120.2,235.87,576.06,Single-ply,SBD,M
Boys,99.79,3,Aiden Lopez,Plainview,98.88,215.46,124.74,224.53,564.72,Single-ply,SBD,M
Boys,99.79,4,Miguel Espinoza,Abilene,94.8,208.65,136.08,215.46,560.19,Single-ply,SBD,M
Boys,99.79,5,Alexis Bonilla,Abilene Cooper,98.25,204.12,147.42,206.38,557.92,Single-ply,SBD,M
Boys,109.77,6,Ethan Miko,Abilene,100.02,222.26,136.08,190.51,548.85,Single-ply,SBD,M
Boys,99.79,7,Brendan Voss,Plainview,94.62,210.92,122.47,213.19,546.58,Single-ply,SBD,M
Boys,99.79,8,Reagan Cooke,Abilene,95.98,229.06,131.54,176.9,537.51,Single-ply,SBD,M
Boys,99.79,9,Tailor Hunt,San Angelo Central,98.88,219.99,124.74,188.24,532.97,Single-ply,SBD,M
Boys,109.77,10,Gabriel Jordan,Abilene,100.02,213.19,113.4,195.04,521.63,Single-ply,SBD,M
Boys,99.79,DQ,Devon Miller,Midland,99.52,206.38,124.74,217.72,,Single-ply,SBD,M
Boys,99.79,NS,Danyk Ramos,Midland,,,,,,Single-ply,SBD,M
Boys,99.79,NS,D'Angelo Thomas,Plainview,,,,,,Single-ply,SBD,M
Boys,99.79,NS,Josh Smith,San Angelo Lake View,,,,,,Single-ply,SBD,M
Boys,99.79,DQ,Blas Guerro,San Angelo Central,94.53,217.72,117.93,,,Single-ply,SBD,M
Boys,109.77,1,Aaron Allen #2,San Angelo Lake View,109.5,306.17,131.54,306.17,743.89,Single-ply,SBD,M
Boys,109.77,2,Anthony McLendon,Abilene,105.96,249.48,154.22,215.46,619.15,Single-ply,SBD,M
Boys,109.77,3,Josh Hunter,Abilene,103.78,231.33,113.4,240.4,585.13,Single-ply,SBD,M
Boys,109.77,4,Moises Garcia,Plainview,107.68,238.14,113.4,215.46,566.99,Single-ply,SBD,M
Boys,109.77,5,Jeremiah Bernal,Odessa,106.68,190.51,99.79,229.06,519.36,Single-ply,SBD,M
Boys,109.77,6,Javier Valdez,Midland,100.79,204.12,124.74,183.7,512.56,Single-ply,SBD,M
Boys,109.77,7,Jesus Adame,Odessa,108.05,181.44,97.52,183.7,462.66,Single-ply,SBD,M
Boys,109.77,DQ,Yahvel Urias,Midland,107.68,181.44,122.47,183.7,,Single-ply,SBD,M
Boys,109.77,NS,Hagen Kelly,Plainview,,,,,,Single-ply,SBD,M
Boys,109.77,NS,Kelly Hagen,Plainview,,,,,,Single-ply,SBD,M
Boys,109.77,NS,Jonathan Prieto,Odessa Permian,,,,,,Single-ply,SBD,M
Boys,109.77,DQ,Cruz Moralez,Odessa,103.6,199.58,,,,Single-ply,SBD,M
Boys,109.77,DQ,Cameron Patterson,Dumas,107.68,226.8,127.01,,,Single-ply,SBD,M
Boys,109.77,DQ,Bradley Vincent,Canyon Randall,107.77,199.58,,,,Single-ply,SBD,M
Boys,109.77,DQ,David Brown,Abilene,101.42,170.1,,,,Single-ply,SBD,M
Boys,124.74,1,Charles Hunt,Midland,123.83,242.67,183.7,238.14,664.51,Single-ply,SBD,M
Boys,124.74,2,Chantz Anderson,Abilene,115.03,288.03,158.76,208.65,655.44,Single-ply,SBD,M
Boys,124.74,3,Cameron Wesley,Midland,118.66,260.82,158.76,235.87,655.44,Single-ply,SBD,M
Boys,124.74,4,Matt Williams,Midland,117.21,244.94,129.27,249.48,623.69,Single-ply,SBD,M
Boys,124.74,5,Jake McMillon,Abilene,114.67,229.06,167.83,224.53,621.42,Single-ply,SBD,M
Boys,124.74,6,Daniel Schlather,San Angelo Lake View,123.56,235.87,140.61,226.8,603.28,Single-ply,SBD,M
Boys,124.74,7,Tanner Patterson,Canyon,113.04,226.8,151.95,204.12,582.87,Single-ply,SBD,M
Boys,124.74,8,Jesus Olivares,Odessa Permian,113.58,219.99,122.47,215.46,557.92,Single-ply,SBD,M
Boys,124.74,NS,O'Shae Grant,Wolfforth Frenship,,,,,,Single-ply,SBD,M
Boys,124.74,NS,Devin Jordan,Wolfforth Frenship,,,,,,Single-ply,SBD,M
Boys,124.74,DQ,Jacob Granado,Midland,119.39,219.99,111.13,215.46,,Single-ply,SBD,M
Boys,124.74,DQ,Diago Lara,Midland Lee,122.56,,,,,Single-ply,SBD,M
Boys,124.74,NS,Tucker Looney,Canyon,,,,,,Single-ply,SBD,M
Boys,124.74,NS,Brycen Homer,Abilene,,,,,,Single-ply,SBD,M
Boys,124.74,NS,Caydn White,Odessa Permian,,,,,,Single-ply,SBD,M
Boys,124.74,DQ,Lelton Mosley,Midland Lee,123.56,,,,,Single-ply,SBD,M
Boys,124.74,DQ,Chris Lara,Midland Lee,122.56,263.08,133.81,,,Single-ply,SBD,M
Boys,124.74+,1,Jordan Copeland,Midland,144.24,240.4,190.51,238.14,669.05,Single-ply,SBD,M
Boys,124.74+,2,Riley Owens,Abilene Cooper,134.63,260.82,142.88,238.14,641.83,Single-ply,SBD,M
Boys,124.74+,3,Anthony Drayton,Abilene,143.06,272.16,140.61,217.72,630.49,Single-ply,SBD,M
Boys,124.74+,4,Taylor York,Wolfforth Frenship,132.45,233.6,142.88,249.48,625.96,Single-ply,SBD,M
Boys,124.74+,5,Fabian Botello,Odessa,130.82,235.87,131.54,208.65,576.06,Single-ply,SBD,M
Boys,124.74+,6,Mark Hudson,San Angelo Lake View,156.31,240.4,108.86,222.26,571.53,Single-ply,SBD,M
Boys,124.74+,7,Cole Keenan,Dumas,130.27,215.46,133.81,215.46,564.72,Single-ply,SBD,M
Boys,124.74+,8,Hunter Hawkins,Abilene Cooper,127.1,226.8,122.47,185.97,535.24,Single-ply,SBD,M
Boys,124.74+,DQ,Pablo Gutierrez,Odessa,126.73,244.94,120.2,195.04,,Single-ply,SBD,M
Boys,124.74+,NS,Jacob Molina,Midland Lee,,,,,,Single-ply,SBD,M
Boys,124.74+,NS,Jordan Medrano,Odessa Permian,,,,,,Single-ply,SBD,M
Boys,124.74+,NS,Todd Garner,Wolfforth Frenship,,,,,,Single-ply,SBD,M
Boys,124.74+,NS,Carlos Puga,San Angelo Central,,,,,,Single-ply,SBD,M
Boys,124.74+,NS,Alexander Dimba,Wolfforth Frenship,,,,,,Single-ply,SBD,M
Boys,124.74+,DQ,Rudy Flores,Midland Lee,135.44,272.16,,,,Single-ply,SBD,M
