Division,WeightClassKg,Place,Name,Team,BodyweightKg,Best3SquatKg,Best3BenchKg,Best3DeadliftKg,TotalKg,Equipment,Event,Sex
Boys,51.71,1,Lleyton Frazier,Tuscola Jim Ned,49.8,102.06,68.04,124.74,294.84,Single-ply,SBD,M
Boys,51.71,2,OJ Cano,Merkel,51.17,92.99,65.77,124.74,283.5,Single-ply,SBD,M
Boys,51.71,3,Jackson Heidenheimer,Anson,50.89,95.25,52.16,108.86,256.28,Single-ply,SBD,M
Boys,55.79,1,Axel Marcenaro,Merkel,52.25,136.08,79.38,142.88,358.34,Single-ply,SBD,M
Boys,55.79,2,Tucker Craig,Midland,55.61,142.88,83.91,131.54,358.34,Single-ply,SBD,M
Boys,55.79,3,Fox Talamantes,Abilene,55.66,124.74,68.04,133.81,326.59,Single-ply,SBD,M
Boys,55.79,4,Lorenzo Bustamante,Cross Plains,54.07,129.27,56.7,136.08,322.05,Single-ply,SBD,M
Boys,55.79,5,Brady Montgomery,Tuscola Jim Ned,54.34,106.59,65.77,127.01,299.37,Single-ply,SBD,M
Boys,59.87,1,Alec Arredondo,Abilene,58.33,142.88,81.65,140.61,365.14,Single-ply,SBD,M
Boys,59.87,2,Ramiro Leal,Merkel,59.33,92.99,65.77,117.93,276.69,Single-ply,SBD,M
Boys,59.87,3,Darius Monnin,Merkel,59.15,95.25,58.97,111.13,265.35,Single-ply,SBD,M
Boys,59.87,4,Carsen Parker,Merkel,59.87,90.72,56.7,104.33,251.74,Single-ply,SBD,M
Boys,59.87,5,Austin Tobar,Abilene Cooper,58.33,79.38,63.5,97.52,240.4,Single-ply,SBD,M
Boys,59.87,DQ,Vicquon Baxter-Smith,Abilene,57.79,,,,,Single-ply,SBD,M
Boys,59.87,DQ,Jayden Sloan,Abilene Cooper,59.51,79.38,,,,Single-ply,SBD,M
Boys,67.13,1,Christian Alexander,Tuscola Jim Ned,65.23,163.29,108.86,183.7,455.86,Single-ply,SBD,M
Boys,67.13,2,Zach Burt,Hawley,66.68,165.56,102.06,154.22,421.84,Single-ply,SBD,M
Boys,67.13,3,Nick Hernandez,Midland,67.13,165.56,95.25,158.76,419.57,Single-ply,SBD,M
Boys,67.13,4,Ben Lantrip,Tuscola Jim Ned,63.41,136.08,77.11,183.7,396.89,Single-ply,SBD,M
Boys,67.13,5,Michael Shubert,Abilene Cooper,66.59,122.47,77.11,167.83,367.41,Single-ply,SBD,M
Boys,67.13,6,Isaac Ortega,Abilene,66.95,142.88,88.45,133.81,365.14,Single-ply,SBD,M
Boys,67.13,7,Aaron Graham,Clyde,64.32,106.59,83.91,158.76,349.27,Single-ply,SBD,M
Boys,67.13,8,Kasey Dean,Abilene,62.05,127.01,70.31,142.88,340.19,Single-ply,SBD,M
Boys,67.13,9,Noah Orozco,Abilene Cooper,66.9,129.27,79.38,127.01,335.66,Single-ply,SBD,M
Boys,67.13,10,Korbin Rockwell,Clyde,63.87,120.2,70.31,136.08,326.59,Single-ply,SBD,M
Boys,67.13,11,Lorenzo Magallon,Midland,64.59,124.74,58.97,142.88,326.59,Single-ply,SBD,M
Boys,67.13,12,Michael Galindo,Midland,60.87,120.2,61.23,142.88,324.32,Single-ply,SBD,M
Boys,67.13,DQ,Slade Shipman,Merkel,67.13,,,,,Single-ply,SBD,M
Boys,67.13,DQ,Bryce Munoz,Anson,61.87,136.08,,,,Single-ply,SBD,M
Boys,74.84,1,Devin Romero,Abilene,74.75,204.12,92.99,204.12,501.22,Single-ply,SBD,M
Boys,74.84,2,Chase Rheilander,Midland,69.31,183.7,120.2,185.97,489.88,Single-ply,SBD,M
Boys,74.84,3,Kaleb Moore,Clyde,74.57,181.44,124.74,174.63,480.81,Single-ply,SBD,M
Boys,74.84,4,Ian Smith,Abilene,74.57,176.9,88.45,163.29,428.64,Single-ply,SBD,M
Boys,74.84,5,Gabriel Salazar,Sweetwater,73.94,156.49,90.72,170.1,417.3,Single-ply,SBD,M
Boys,74.84,6,Terron Paige,Abilene Cooper,71.76,149.69,90.72,167.83,408.23,Single-ply,SBD,M
Boys,74.84,7,AJ Gonzales,Abilene,74.8,149.69,99.79,158.76,408.23,Single-ply,SBD,M
Boys,74.84,8,Rueban Perez,Abilene Cooper,73.66,151.95,90.72,161.03,403.7,Single-ply,SBD,M
Boys,74.84,9,Austin Eubanks,Clyde,73.03,158.76,92.99,149.69,401.43,Single-ply,SBD,M
Boys,74.84,10,Jacob Contreras,Tuscola Jim Ned,68.67,149.69,81.65,163.29,394.63,Single-ply,SBD,M
Boys,74.84,11,Tyler Crawford,Clyde,71.12,147.42,95.25,147.42,390.09,Single-ply,SBD,M
Boys,74.84,12,Tristan Wegener,Hawley,73.48,142.88,102.06,142.88,387.82,Single-ply,SBD,M
Boys,74.84,13,Alex Gallegos,Sweetwater,70.13,142.88,79.38,158.76,381.02,Single-ply,SBD,M
Boys,74.84,14,Jacob Cantu,Abilene Cooper,74.84,136.08,97.52,131.54,365.14,Single-ply,SBD,M
Boys,74.84,15,Aaron Manke,Abilene Cooper,73.53,124.74,70.31,156.49,351.53,Single-ply,SBD,M
Boys,74.84,16,Zackary Yost,Clyde,72.12,129.27,79.38,124.74,333.39,Single-ply,SBD,M
Boys,74.84,17,Colton Brown,Anson,72.85,120.2,58.97,138.35,317.51,Single-ply,SBD,M
Boys,74.84,DQ,Brian Morales,Cross Plains,74.84,,,,,Single-ply,SBD,M
Boys,74.84,DQ,Kade Petree,Cross Plains,74.84,,,,,Single-ply,SBD,M
Boys,74.84,DQ,John Paul Estrada,Midland,71.94,158.76,,,,Single-ply,SBD,M
Boys,74.84,DQ,Tyler Gonzales,Midland,74.84,165.56,,,,Single-ply,SBD,M
Boys,82.1,1,Dante Gomez,Clyde,79.38,238.14,147.42,219.99,605.55,Single-ply,SBD,M
Boys,82.1,2,Kobie McCallister,Midland,81.83,183.7,124.74,201.85,510.29,Single-ply,SBD,M
Boys,82.1,3,Ethan Tapia,Clyde,77.93,181.44,124.74,181.44,487.61,Single-ply,SBD,M
Boys,82.1,4,Joseph Montgomery,Anson,76.75,176.9,104.33,185.97,467.2,Single-ply,SBD,M
Boys,82.1,5,Chris Jones #5,Anson,78.83,158.76,106.59,192.78,458.13,Single-ply,SBD,M
Boys,82.1,6,Jarod Pentacost,Tuscola Jim Ned,78.47,158.76,97.52,183.7,439.98,Single-ply,SBD,M
Boys,82.1,7,Leroy Santana,Abilene,81.92,181.44,102.06,154.22,437.72,Single-ply,SBD,M
Boys,82.1,8,Trey Thompson,Merkel,82.1,158.76,102.06,151.95,412.77,Single-ply,SBD,M
Boys,82.1,9,Trystin Plumlee,Midland,76.93,142.88,97.52,165.56,405.97,Single-ply,SBD,M
Boys,82.1,10,Donte Mitchell,Abilene Cooper,81.1,138.35,97.52,151.95,387.82,Single-ply,SBD,M
Boys,82.1,11,Cooper Graham,Anson,76.2,88.45,61.23,122.47,272.16,Single-ply,SBD,M
Boys,82.1,DQ,Collin McCullough,Midland,82.1,,,,,Single-ply,SBD,M
Boys,82.1,DQ,Xavier Rodriguez,Anson,76.29,129.27,,,,Single-ply,SBD,M
Boys,82.1,DQ,Ross Marker,Midland,78.83,158.76,,,,Single-ply,SBD,M
Boys,89.81,1,Dalton Gilliam,Cross Plains,84.55,199.58,117.93,213.19,530.7,Single-ply,SBD,M
Boys,89.81,2,Zachary Gartman,Cross Plains,87.36,204.12,108.86,208.65,521.63,Single-ply,SBD,M
Boys,89.81,3,Josh Chandler,Midland,87.82,190.51,113.4,208.65,512.56,Single-ply,SBD,M
Boys,89.81,4,Actavias Lowry,Abilene Cooper,86.55,185.97,138.35,185.97,510.29,Single-ply,SBD,M
Boys,89.81,5,Aaron Willis,Cross Plains,88.72,213.19,102.06,190.51,505.76,Single-ply,SBD,M
Boys,89.81,6,Junior Lawhon,Sweetwater,89.81,181.44,127.01,172.37,480.81,Single-ply,SBD,M
Boys,89.81,7,Tanner Schnoor,Hawley,88.63,181.44,92.99,204.12,478.54,Single-ply,SBD,M
Boys,89.81,8,Angel Nabarette,Midland,85.18,183.7,92.99,195.04,471.74,Single-ply,SBD,M
Boys,89.81,9,Houston Hance,Abilene Cooper,85.18,156.49,108.86,174.63,439.98,Single-ply,SBD,M
Boys,89.81,10,Seth Van,Midland,88.09,156.49,97.52,181.44,435.45,Single-ply,SBD,M
Boys,89.81,11,Eduardo Marin,Anson,84.1,170.1,102.06,158.76,430.91,Single-ply,SBD,M
Boys,89.81,12,Harold Collins,Abilene,89.72,174.63,92.99,161.03,428.64,Single-ply,SBD,M
Boys,89.81,13,Dylan Williams,Midland,87.72,138.35,97.52,158.76,394.63,Single-ply,SBD,M
Boys,89.81,14,Justin Wright,Abilene Cooper,89.81,138.35,102.06,149.69,390.09,Single-ply,SBD,M
Boys,89.81,15,Sammy Guerroro,Cross Plains,82.83,158.76,83.91,133.81,376.48,Single-ply,SBD,M
Boys,89.81,16,Richie Drew,Abilene Cooper,88.36,142.88,86.18,145.15,374.21,Single-ply,SBD,M
Boys,89.81,17,Taylor Cullum,Merkel,85.37,104.33,90.72,136.08,331.12,Single-ply,SBD,M
Boys,89.81,DQ,Niem Martinez,Cross Plains,89.81,,,,,Single-ply,SBD,M
Boys,99.79,1,Turner Phillips,Midland,92.9,215.46,142.88,192.78,551.11,Single-ply,SBD,M
Boys,99.79,2,Blake Parker,Abilene Cooper,99.29,208.65,129.27,190.51,528.44,Single-ply,SBD,M
Boys,99.79,3,Ryland Madrid,Abilene,94.89,210.92,111.13,183.7,505.76,Single-ply,SBD,M
Boys,99.79,4,Jax Pimentel,Clyde,98.88,204.12,124.74,165.56,494.42,Single-ply,SBD,M
Boys,99.79,5,Bradon Kesler,Tuscola Jim Ned,90.54,165.56,88.45,219.99,474,Single-ply,SBD,M
Boys,99.79,6,Tye Landeros,Tuscola Jim Ned,98.07,188.24,104.33,167.83,460.4,Single-ply,SBD,M
Boys,99.79,7,Michael Martinez,Abilene,97.34,176.9,106.59,170.1,453.59,Single-ply,SBD,M
Boys,99.79,8,Jordan Harris,Hawley,96.43,192.78,102.06,142.88,437.72,Single-ply,SBD,M
Boys,99.79,9,Brandon Romero,Abilene Cooper,92.26,165.56,102.06,165.56,433.18,Single-ply,SBD,M
Boys,99.79,10,Alex Ryan,Abilene,92.99,170.1,108.86,151.95,430.91,Single-ply,SBD,M
Boys,99.79,11,Jacob Collier,Cross Plains,92.44,167.83,102.06,158.76,428.64,Single-ply,SBD,M
Boys,99.79,12,Dillon Slauenwhite,Clyde,96.8,156.49,95.25,142.88,394.63,Single-ply,SBD,M
Boys,99.79,13,Andrew Purdun,Anson,99.7,149.69,104.33,140.61,394.63,Single-ply,SBD,M
Boys,99.79,14,Joe Valdez,Merkel,90.45,127.01,88.45,156.49,371.95,Single-ply,SBD,M
Boys,99.79,DQ,Michael Thurman,Hawley,95.25,,,,,Single-ply,SBD,M
Boys,99.79,DQ,Raymond Delgado,Sweetwater,99.79,,,,,Single-ply,SBD,M
Boys,99.79,DQ,Shane Thomas,Clyde,99.79,,,,,Single-ply,SBD,M
Boys,99.79,DQ,Kobe Patlan,Abilene,93.53,,,,,Single-ply,SBD,M
Boys,99.79,DQ,Israel DelaCruz,Anson,99.7,149.69,,,,Single-ply,SBD,M
Boys,109.77,1,Haddan Stokes,Clyde,102.51,301.64,158.76,249.48,709.87,Single-ply,SBD,M
Boys,109.77,2,Keoni Garcia,Midland,105.51,260.82,142.88,240.4,644.1,Single-ply,SBD,M
Boys,109.77,3,Isreal Vera,Sweetwater,109.77,226.8,140.61,195.04,562.45,Single-ply,SBD,M
Boys,109.77,4,Traver Vliem,Midland,107.59,183.7,142.88,215.46,542.04,Single-ply,SBD,M
Boys,109.77,5,Dylan Jimenez,Sweetwater,106.96,204.12,113.4,190.51,508.02,Single-ply,SBD,M
Boys,109.77,6,Bryce Templeton,Abilene Cooper,105.05,165.56,102.06,174.63,442.25,Single-ply,SBD,M
Boys,109.77,7,Peyton Weatherly,Tuscola Jim Ned,105.87,163.29,106.59,170.1,439.98,Single-ply,SBD,M
Boys,109.77,8,Tre Abeln,Midland,108.68,165.56,90.72,165.56,421.84,Single-ply,SBD,M
Boys,109.77,9,Kendrick James,Abilene Cooper,100.83,154.22,102.06,158.76,415.04,Single-ply,SBD,M
Boys,109.77,10,James Rhyne,Cross Plains,100.06,183.7,83.91,124.74,392.36,Single-ply,SBD,M
Boys,109.77,11,CJ Ugalde,Merkel,103.42,97.52,70.31,136.08,303.91,Single-ply,SBD,M
Boys,109.77,DQ,Billey Hudson,Hawley,109.77,,,,,Single-ply,SBD,M
Boys,109.77,DQ,Collin Gardner,Anson,104.33,,,,,Single-ply,SBD,M
Boys,124.74,1,Evan Tate,Tuscola Jim Ned,121.02,226.8,136.08,231.33,594.21,Single-ply,SBD,M
Boys,124.74,2,Slayde Anderson,Abilene,121.11,226.8,136.08,215.46,578.33,Single-ply,SBD,M
Boys,124.74,3,Jonathan Castaneda,Abilene Cooper,111.58,208.65,124.74,226.8,560.19,Single-ply,SBD,M
Boys,124.74,4,John Adkins,Clyde,113.04,226.8,124.74,204.12,555.65,Single-ply,SBD,M
Boys,124.74,5,Anthony Arellano,Abilene Cooper,114.76,219.99,129.27,197.31,546.58,Single-ply,SBD,M
Boys,124.74,6,No Perez,Abilene,118.66,204.12,149.69,183.7,537.51,Single-ply,SBD,M
Boys,124.74,7,Anthony Koch,Clyde,120.47,219.99,124.74,192.78,537.51,Single-ply,SBD,M
Boys,124.74,8,Carlos Gallegos,Sweetwater,110.4,199.58,113.4,206.38,519.36,Single-ply,SBD,M
Boys,124.74,9,Brent Alexander,Abilene Cooper,111.86,195.04,124.74,195.04,514.83,Single-ply,SBD,M
Boys,124.74,10,Dylan Burnett,Tuscola Jim Ned,113.67,192.78,124.74,181.44,498.95,Single-ply,SBD,M
Boys,124.74,11,John Arellano,Abilene Cooper,119.2,190.51,117.93,183.7,492.15,Single-ply,SBD,M
Boys,124.74,12,Sammy Renteria,Abilene,119.29,204.12,104.33,181.44,489.88,Single-ply,SBD,M
Boys,124.74,13,Miguel Valdez,Clyde,109.81,142.88,97.52,136.08,376.48,Single-ply,SBD,M
Boys,124.74+,1,Braxton Gardner,Midland,132.36,240.4,138.35,240.4,619.15,Single-ply,SBD,M
Boys,124.74+,2,Ruben Leija,Abilene,143.7,215.46,142.88,219.99,578.33,Single-ply,SBD,M
Boys,124.74+,3,Juan Vasquez,Midland,141.43,210.92,133.81,188.24,532.97,Single-ply,SBD,M
Boys,124.74+,4,Marquise Lyons,Abilene,126.55,222.26,115.67,181.44,519.36,Single-ply,SBD,M
Boys,124.74+,5,Chris De La Garza,Clyde,133.17,204.12,102.06,183.7,489.88,Single-ply,SBD,M
Boys,124.74+,6,Jeremiah Berrera,Sweetwater,125.01,190.51,95.25,197.31,483.08,Single-ply,SBD,M
Boys,124.74+,7,Jackson Sellers,Abilene,133.63,154.22,92.99,165.56,412.77,Single-ply,SBD,M
Boys,124.74+,8,Jonathan Pressley,Abilene Cooper,137.98,102.06,70.31,113.4,285.76,Single-ply,SBD,M
Boys,124.74+,DQ,Cesar Juarez,Midland,125.19,,,,,Single-ply,SBD,M
Boys,124.74+,DQ,Ray Leon,Hawley,136.08,,,,,Single-ply,SBD,M
