Division,WeightClassKg,Place,Name,Team,BodyweightKg,Best3SquatKg,Best3BenchKg,Best3DeadliftKg,TotalKg,Equipment,Event,Sex
Boys,55.79,1,Tony Hart,Silsbee,54.88,113.4,72.57,129.27,315.25,Single-ply,SBD,M
Boys,55.79,2,David Tsan,Orangefield,55.34,90.72,58.97,151.95,301.64,Single-ply,SBD,M
Boys,67.13,1,Nick Dockens,Orange Little Cypress-Mauriceville,64.41,154.22,102.06,151.95,408.23,Single-ply,SBD,M
Boys,67.13,2,Chase Hamshire,Silsbee,62.14,149.69,97.52,158.76,405.97,Single-ply,SBD,M
Boys,67.13,3,Wilson Washington,West Orange-Stark,65.77,145.15,92.99,167.83,405.97,Single-ply,SBD,M
Boys,67.13,4,Tk Smith,Orangefield,66.68,145.15,70.31,156.49,371.95,Single-ply,SBD,M
Boys,67.13,5,Jackson Calhoun,Orangefield,66.68,142.88,86.18,138.35,367.41,Single-ply,SBD,M
Boys,67.13,DQ,Dustin Selmon,Orangefield,66.68,142.88,81.65,142.88,,Single-ply,SBD,M
Boys,67.13,DQ,Mathew Lakey,West Orange-Stark,67.13,106.59,79.38,165.56,,Single-ply,SBD,M
Boys,74.84,1,Brenson Lindsey,West Orange-Stark,69.85,179.17,113.4,206.38,498.95,Single-ply,SBD,M
Boys,74.84,2,Britten Lindsey,West Orange-Stark,70.31,192.78,102.06,204.12,498.95,Single-ply,SBD,M
Boys,74.84,3,Darius Robinson,West Orange-Stark,70.76,167.83,106.59,181.44,455.86,Single-ply,SBD,M
Boys,74.84,4,Colton Boudreaux,Orange Little Cypress-Mauriceville,73.94,174.63,97.52,156.49,428.64,Single-ply,SBD,M
Boys,74.84,5,Damon Burton,Orangefield,74.39,151.95,95.25,138.35,385.55,Single-ply,SBD,M
Boys,74.84,DQ,Derek Pagel,Orangefield,69.4,102.06,68.04,90.72,,Single-ply,SBD,M
Boys,74.84,DQ,Michael Valencia,Silsbee,71.21,113.4,77.11,142.88,,Single-ply,SBD,M
Boys,74.84,DQ,Nathan Moody,Orange Little Cypress-Mauriceville,72.35,136.08,79.38,142.88,,Single-ply,SBD,M
Boys,74.84,DQ,Lane Gordon,Orange Little Cypress-Mauriceville,74.62,95.25,74.84,102.06,,Single-ply,SBD,M
Boys,74.84,DQ,Dre Hypolite,West Orange-Stark,70.31,129.27,74.84,147.42,,Single-ply,SBD,M
Boys,74.84,DQ,Julius Knolley,West Orange-Stark,72.12,120.2,61.23,158.76,,Single-ply,SBD,M
Boys,82.1,1,Zac Blanchard,Orange Little Cypress-Mauriceville,81.19,167.83,99.79,170.1,437.72,Single-ply,SBD,M
Boys,82.1,2,Donavan Weldon,Orangefield,80.74,158.76,97.52,172.37,428.64,Single-ply,SBD,M
Boys,82.1,3,Brandon Matson,Orangefield,78.02,142.88,104.33,179.17,426.38,Single-ply,SBD,M
Boys,82.1,4,Cole Arceneaux,Orangefield,81.65,165.56,99.79,158.76,424.11,Single-ply,SBD,M
Boys,82.1,5,Bryan Adams,Silsbee,77.56,124.74,90.72,165.56,381.02,Single-ply,SBD,M
Boys,82.1,6,Todd McKee,Silsbee,76.2,120.2,97.52,147.42,365.14,Single-ply,SBD,M
Boys,82.1,7,Adam Valencia,Silsbee,76.2,102.06,81.65,145.15,328.85,Single-ply,SBD,M
Boys,82.1,8,Traylon Vincent,Orange Little Cypress-Mauriceville,79.83,183.7,129.27,,312.98,Single-ply,SB,M
Boys,82.1,DQ,Ian Putman,Orangefield,80.74,163.29,102.06,136.08,,Single-ply,SBD,M
Boys,82.1,DQ,Alvin Childress,West Orange-Stark,77.56,120.2,83.91,156.49,,Single-ply,SBD,M
Boys,89.81,1,Jonathan Fontenot,Orange Little Cypress-Mauriceville,88.9,213.19,140.61,204.12,557.92,Single-ply,SBD,M
Boys,89.81,2,Robert Gooding,West Orange-Stark,89.36,156.49,106.59,163.29,426.38,Single-ply,SBD,M
Boys,89.81,3,Antonio Dill,Silsbee,85.73,138.35,92.99,156.49,387.82,Single-ply,SBD,M
Boys,89.81,4,Tanner Humble,Silsbee,89.36,136.08,86.18,147.42,369.68,Single-ply,SBD,M
Boys,89.81,5,Donovan Rubin,West Orange-Stark,89.36,156.49,,185.97,342.46,Single-ply,SD,M
Boys,89.81,DQ,Jacob Keefer,Silsbee,84.82,,,,,Single-ply,SD,M
Boys,89.81,DQ,Trevor Johnson,Silsbee,85.28,124.74,81.65,174.63,,Single-ply,SBD,M
Boys,89.81,DQ,Ross Gilchriest,Silsbee,85.73,111.13,79.38,133.81,,Single-ply,SBD,M
Boys,89.81,DQ,Chase Somers,Silsbee,89.36,97.52,74.84,142.88,,Single-ply,SBD,M
Boys,99.79,1,Lawrence Gilmore,West Orange-Stark,92.08,147.42,106.59,226.8,480.81,Single-ply,SBD,M
Boys,99.79,2,Hayden Reed,Orange Little Cypress-Mauriceville,96.16,179.17,106.59,174.63,460.4,Single-ply,SBD,M
Boys,99.79,3,David Hollyfield,Silsbee,92.99,165.56,102.06,156.49,424.11,Single-ply,SBD,M
Boys,99.79,4,Isiah Zavala,Orange Little Cypress-Mauriceville,93.21,142.88,,174.63,317.51,Single-ply,SD,M
Boys,99.79,DQ,Jordan Doyle,Orange Little Cypress-Mauriceville,93.44,165.56,124.74,174.63,,Single-ply,SBD,M
Boys,99.79,DQ,Jerquis Beasley,West Orange-Stark,99.79,129.27,97.52,136.08,,Single-ply,SBD,M
Boys,109.77,1,Ian Jenkins,West Orange-Stark,107.05,181.44,131.54,210.92,523.9,Single-ply,SBD,M
Boys,109.77,2,William Ferguson,Orange Little Cypress-Mauriceville,109.77,174.63,122.47,192.78,489.88,Single-ply,SBD,M
Boys,109.77,3,Nathan Sonnenberg,Orange Little Cypress-Mauriceville,103.19,158.76,122.47,183.7,464.93,Single-ply,SBD,M
Boys,109.77,4,Bret Treadway,Silsbee,101.6,165.56,124.74,151.95,442.25,Single-ply,SBD,M
Boys,124.74,1,Dylan Davalos,Orangefield,117.03,181.44,115.67,183.7,480.81,Single-ply,SBD,M
Boys,124.74,2,Doc Maricle,Silsbee,117.93,167.83,102.06,174.63,444.52,Single-ply,SBD,M
Boys,124.74,3,Justin Petry,West Orange-Stark,119.75,133.81,111.13,197.31,442.25,Single-ply,SBD,M
Boys,124.74,4,Farrin Lawrence,Orange Little Cypress-Mauriceville,114.31,165.56,113.4,161.03,439.98,Single-ply,SBD,M
Boys,124.74,5,Terrance Dennis,West Orange-Stark,113.4,151.95,88.45,188.24,428.64,Single-ply,SBD,M
Boys,124.74,6,Patrick Sons,Orangefield,113.85,151.95,113.4,156.49,421.84,Single-ply,SBD,M
Boys,124.74,DQ,Stephen Gilbeaux,Orange Little Cypress-Mauriceville,113.85,145.15,90.72,136.08,,Single-ply,SBD,M
Boys,124.74+,1,Ryan Allen,West Orange-Stark,137.89,206.38,124.74,238.14,569.26,Single-ply,SBD,M
Boys,124.74+,2,Josh Trahan,Orange Little Cypress-Mauriceville,146.51,215.46,129.27,219.99,564.72,Single-ply,SBD,M
Boys,124.74+,3,Ethan Cowart,Orangefield,136.08,208.65,136.08,185.97,530.7,Single-ply,SBD,M
Boys,124.74+,4,Casey Gamble,Orangefield,127.01,190.51,88.45,163.29,442.25,Single-ply,SBD,M
